<?xml version="1.0" encoding="UTF-8"?>
<svg width="319px" height="186px" viewBox="0 0 319 186" version="1.1" xmlns="http://www.w3.org/2000/svg" xmlns:xlink="http://www.w3.org/1999/xlink">
    <!-- Generator: Sketch 48.2 (47327) - http://www.bohemiancoding.com/sketch -->
    <title>Page 1</title>
    <desc>Created with Sketch.</desc>
    <defs>
        <polygon id="path-1" points="0 0 319 0 319 186 0 186"></polygon>
    </defs>
    <g id="Okus-Natur" stroke="none" stroke-width="1" fill="none" fill-rule="evenodd" transform="translate(-1100.000000, -910.000000)">
        <g id="Page-1" transform="translate(1100.000000, 910.000000)">
            <mask id="mask-2" fill="white">
                <use xlink:href="#path-1"></use>
            </mask>
            <g id="Clip-2"></g>
            <path d="M290.478474,101.966633 C284.619813,108.262892 290.71037,113.481295 295.098897,115.856084 C298.743606,117.823391 304.479756,120.180654 308.535753,120.272666 C312.547995,120.355915 313.97,117.718234 318.017246,119.755646 C324.370328,111.746209 298.135425,93.7381198 290.478474,101.966633 M313.046791,111.80755 C312.044824,110.620155 311.042857,109.432761 310.040891,108.245366 C309.502716,108.105157 308.968917,107.96933 308.430743,107.829121 C308.028206,108.687901 311.62041,111.903944 311.970442,112.280755 C308.181345,114.397034 304.300365,105.454331 302.348936,107.48298 C304.138475,109.091001 305.678616,110.979441 306.973735,113.148298 C302.99212,113.227166 302.130166,111.746209 298.761108,109.695653 C298.380448,111.496461 300.42376,111.312437 300.196239,112.986182 C297.540371,112.854736 295.208282,110.081227 292.863068,110.536906 C293.506252,111.325582 293.987546,112.232559 294.30695,113.257837 C285.788045,110.970678 294.521344,103.250422 299.312408,103.443209 C303.97221,103.627233 311.248501,106.221099 313.046791,111.80755 M288.938333,160.705426 C289.161479,154.663296 281.158871,149.699023 277.378525,147.683519 C275.322086,146.583755 270.66666,146.334008 269.152771,144.896866 C266.111868,142.000674 268.894623,138.929222 267.341356,136.31783 C265.031144,132.431412 263.158473,132.488372 258.634308,135.756994 C256.871022,137.027638 251.091118,141.790361 251.108619,143.153017 C252.163091,143.100438 251.406146,142.294237 252.644385,142.193462 C252.565628,142.995282 252.224346,143.288844 251.620541,143.078531 C246.168792,154.176947 252.093084,167.111224 262.734059,163.075834 C266.921317,161.48972 265.039895,160.262892 268.566468,161.700034 C270.802298,162.611392 272.307435,166.432086 274.674527,167.435457 C279.001798,169.266936 288.68456,167.729019 288.938333,160.705426 M256.114077,157.6515 C252.661886,159.636333 253.388203,158.751264 252.018702,155.219751 C253.646352,155.456353 255.011477,156.266936 256.114077,157.6515 M260.305711,155.066397 C256.402854,158.589147 252.246223,154.137513 252.390612,149.366026 C255.672162,149.826087 258.122386,152.428716 260.305711,155.066397 M264.523598,136.808561 C264.536724,141.001685 263.959171,141.864847 260.336339,141.785979 C259.872547,144.292215 264.414213,142.622852 263.114719,146.894843 C260.927018,145.606674 258.542425,144.244018 256.000317,144.428042 C257.763604,147.004382 265.704956,148.165487 261.618332,152.919447 C258.673687,151.175598 255.729042,149.427368 252.784398,147.679137 C254.805833,144.555106 260.603239,135.879677 264.523598,136.808561 M283.333445,157.866195 C282.677135,158.203573 275.378967,152.157061 274.245738,151.815302 C277.124751,154.220762 280.33192,156.231884 282.383983,159.745871 C278.380491,163.198517 276.297801,157.248399 271.821766,156.512302 C273.746942,158.273677 275.982772,159.566229 277.242887,162.282777 C274.867045,162.217054 268.881497,160.25851 267.695763,157.471857 C268.417704,151.784631 267.196967,148.48972 272.281183,147.80182 C274.210735,147.54331 279.95126,150.527132 281.338262,151.994945 C282.664009,153.401416 286.925649,156.034715 283.333445,157.866195 M271.126077,104.056623 C270.767294,98.0845977 261.132662,92.9275367 257.536083,90.3161448 C260.50698,89.9349516 263.622265,88.9140551 265.381176,85.7768795 C258.030503,77.5264583 246.741969,82.5126396 238.516216,75.9447259 C245.429349,62.1954843 235.090277,66.87934 227.643345,65.126728 C223.744863,64.2109882 222.55913,60.5874627 219.920763,56.5695996 C215.278463,49.5153361 217.978085,53.9932599 211.848149,54.812606 C210.653665,54.9703411 202.931083,53.2308736 201.513453,52.7182346 C197.925624,51.4344463 193.090806,45.6333004 190.793721,41.2079549 C188.566642,36.9272 188.964804,32.3660271 184.825675,29.1236948 C181.054079,26.1705435 177.142471,27.0819017 172.963963,25.8463102 C173.213361,23.3006412 174.490978,15.2605334 172.990216,13.2055958 C170.02807,9.14391734 168.518556,14.3579382 165.096993,13.3940016 C163.97689,13.0829129 162.204853,10.2130107 161.076,9.40242762 C158.030721,7.20728102 153.664071,7.75935382 150.9732,6.3616457 C148.076684,4.85878086 146.361527,-1.06066636 143.561271,0.166162081 C142.169894,0.77519477 142.169894,7.16784725 141.657972,8.17559918 C140.332225,10.7913727 139.02398,10.694979 136.7794,12.5965631 C133.44972,15.413887 132.167728,17.8894515 129.612494,21.819684 C127.442295,25.15841 130.128791,23.8921478 126.698477,25.7849688 C125.630879,26.3720939 123.753832,24.0323568 122.743115,24.5362327 C118.197073,26.8058653 124.646414,36.3400749 127.634813,39.7226162 C125.482115,40.2615444 116.123133,41.2298626 115.724972,45.3528824 C115.366189,49.1166168 121.885536,49.7168865 123.815088,50.3609714 C123.150027,52.6525117 122.480591,54.9396704 121.811154,57.2312107 C120.489783,57.7920465 119.155286,58.3090671 117.807663,58.7822723 C115.934991,60.8897883 113.19599,65.5692625 111.148303,66.9801152 C107.066054,69.7930576 91.4677507,69.5301658 104.707713,76.755309 C100.358565,79.4981468 100.017284,86.3201893 96.6088465,88.6555448 C91.2533561,92.3272671 92.4128373,87.3805196 87.8099158,85.6892489 C84.4889867,84.4755651 84.1652071,84.9268627 82.7388264,88.2480625 C82.0125099,89.9480962 82.821959,92.9056291 82.3494158,94.8247393 C81.7193581,97.401079 78.9453541,98.5621845 79.0853669,101.567914 C81.128679,102.746546 81.9731313,99.8985512 83.6489098,99.3771491 C84.2439643,101.248062 84.8390188,103.114594 85.4384486,104.985508 C84.9265268,105.178295 84.4189803,105.366701 83.9070584,105.559488 C86.2128946,97.0111228 62.9007599,109.980452 60.7086841,111.925851 C50.1902209,121.262892 70.2208052,120.382205 75.9044506,120.355915 C73.266084,131.572633 95.8081482,124.452646 94.9899483,116.96023 C102.681903,119.979104 107.486093,116.841928 114.543614,113.157061 C108.986855,125.802157 119.36093,119.199191 124.795178,117.345804 C129.424351,115.75969 133.983519,115.041119 138.79646,113.327941 C151.366986,108.850017 160.830977,129.955848 172.32078,114.112235 C173.930927,123.484328 182.738608,130.985508 189.524855,134.933266 C191.358148,135.997978 196.236719,139.928211 197.658725,136.567577 C197.894996,135.993596 190.478692,124.128413 189.695496,121.968319 C198.336912,121.749242 198.818206,120.022919 193.72524,112.583081 C198.53818,111.829458 201.233427,112.188743 204.059936,117.604314 C204.729372,118.888103 207.494625,125.512976 207.630263,126.643411 C207.92779,129.083923 205.985112,131.33603 206.610794,134.319852 C207.560256,138.81092 210.959943,140.581059 214.639655,141.255814 C222.931039,142.776205 229.774166,135.678126 232.885075,127.199865 C233.825787,124.641052 235.742212,119.812606 234.005178,117.775194 C231.336184,114.6424 226.886401,119.444557 223.854248,118.261544 C227.757106,116.053253 232.106254,111.684867 236.849188,113.577688 C240.935813,115.203236 238.958132,119.278059 242.70785,122.445905 C250.531066,129.062016 255.781547,114.151669 258.174891,108.052579 C262.327146,110.48871 271.673002,113.113246 271.126077,104.056623 M244.379253,100.437479 C245.65687,99.5567918 246.934487,98.6761043 248.216479,97.7997982 C251.379894,100.923829 253.318196,103.167173 252.294353,108.508258 C249.734743,105.660263 247.140131,103.018201 244.379253,100.437479 M248.728401,84.2389624 C250.246665,84.9575334 251.764929,85.6717228 253.287569,86.3859122 C253.038171,89.3872604 248.750278,87.0606679 248.728401,84.2389624 M250.019144,114.971015 C248.142098,112.937985 245.083692,110.558814 243.425416,108.280418 C240.769547,104.626222 240.47202,106.611055 242.825986,100.836199 C248.947171,102.211999 251.169875,109.800809 250.019144,114.971015 M240.493897,107.728346 C242.515332,109.463431 248.015211,112.530503 247.253891,116.465117 C241.189586,118.371082 241.067075,113.275363 240.493897,107.728346 M235.081527,86.8459729 C237.067958,88.0728013 239.120021,88.9447258 240.318881,91.7445236 C236.402898,91.0478603 235.094653,89.8210318 235.081527,86.8459729 M235.169035,100.529492 C235.729086,99.4735428 238.603724,100.687227 237.986793,102.856084 C237.046081,102.080553 236.10537,101.305022 235.169035,100.529492 M222.160968,97.326593 C226.120706,96.7044157 237.566754,98.6848673 236.302263,106.13785 C232.570047,104.179306 229.17036,101.318167 225.153742,100.135154 C227.940873,103.083924 231.572455,104.542973 234.407715,107.474217 C230.688624,110.03303 218.778784,102.772835 222.160968,97.326593 M231.983743,77.9427036 C229.49414,76.6720599 228.317157,75.5679143 227.932122,73.9818004 C230.391097,75.0596568 231.918112,74.722279 231.983743,77.9427036 M226.969534,69.7667684 C228.330283,70.292552 229.664781,70.8665325 230.526734,72.4132126 C228.982218,72.2204253 227.840238,71.243344 226.969534,69.7667684 M232.333775,82.499495 C230.242333,81.4304016 227.175178,80.0458381 227.673973,76.7684536 C229.761039,78.2494107 231.401815,79.953826 232.333775,82.499495 M232.381904,86.7320531 C231.56808,86.3815307 227.905869,82.4556797 228.045882,81.4435462 C228.83783,81.5749921 229.301622,82.0876311 229.450386,82.9946079 C231.078035,82.499495 232.058125,83.7482311 232.381904,86.7320531 M232.565671,98.49208 C231.795601,98.1327945 231.156792,97.8304689 230.395472,97.4711835 C231.826228,96.8577693 231.826228,96.8577693 232.565671,98.49208 M221.115248,102.755309 C223.276696,104.757668 225.910687,106.067746 227.739604,108.556455 C225.039982,110.03303 221.045241,105.857432 221.115248,102.755309 M216.71797,109.787665 C219.421968,112.337715 220.664581,112.258848 220.148284,116.495787 C217.006746,115.886755 216.048534,113.244692 216.71797,109.787665 M217.186138,117.039097 C217.737438,117.744523 218.288739,118.44995 218.840039,119.155376 C218.288739,119.361308 217.737438,119.56724 217.186138,119.773172 C217.186138,118.804854 217.186138,118.195821 217.186138,117.039097 M218.590641,103.508932 C218.74378,106.711831 222.594133,108.60027 221.631545,110.471183 C218.857541,109.682508 213.98772,107.189417 218.590641,103.508932 M227.157676,126.380519 C224.541186,124.671723 222.152218,122.897203 219.225075,122.520391 C221.185254,121.893832 227.905869,119.602292 229.730412,121.048197 C228.872833,122.827098 228.015254,124.601618 227.157676,126.380519 M210.894312,127.765083 C214.140859,120.96933 229.047849,124.373779 224.191154,130.924166 C221.097746,128.413549 217.689309,126.415572 213.913338,125.767105 C214.626528,128.6151 222.856657,128.750927 222.134716,132.418268 C221.115248,137.623526 213.239526,128.895518 210.894312,127.765083 M211.213716,115.663297 C206.755183,111.833839 207.363363,111.23357 208.382832,104.766431 C210.014856,107.163128 212.088796,112.460398 211.213716,115.663297 M209.927348,128.772835 C212.561339,129.710482 215.562864,131.883721 216.407317,135.104146 C212.346945,136.182002 206.448905,134.530165 209.927348,128.772835 M206.965202,120.531177 C208.916631,121.639704 209.502934,122.551062 209.437303,124.386923 C207.713395,123.887429 206.895196,122.608022 206.965202,120.531177 M204.213075,97.9312441 C205.350679,98.1678468 206.317643,98.7637349 207.122716,99.7189084 C206.304516,99.9336034 205.486316,100.148298 204.672492,100.362993 C204.519353,99.5524103 204.366214,98.7418272 204.213075,97.9312441 M202.992338,89.7071121 C203.906797,90.0576345 204.821256,90.4081569 205.735714,90.7586793 C206.641422,99.5392657 211.331852,94.2901926 212.6751,101.703742 C209.467931,99.1975064 200.795887,95.6966638 202.992338,89.7071121 M205.68321,81.7108196 C208.076554,81.7677794 210.33426,81.8203578 212.57009,81.8729362 C210.010481,83.7701387 208.04155,85.0188748 205.68321,81.7108196 M198.411294,97.8523766 C193.068929,95.0306712 188.715406,93.2298623 191.170006,86.7802499 C194.315919,89.4924171 199.006348,92.5375805 198.411294,97.8523766 M193.12581,83.8227171 C194.60907,85.3693972 195.689794,87.2403106 196.372357,89.4310757 C194.285291,90.78935 191.953202,86.0572975 193.12581,83.8227171 M190.360556,101.690597 C191.200633,102.531851 191.778186,103.105831 192.351364,103.684193 C191.585669,104.722616 190.413061,102.413549 190.360556,101.690597 M190.434938,94.0842607 C194.477808,97.7559829 199.767668,98.2335697 196.035451,104.323897 C193.243945,102.67206 187.599679,98.5052246 190.434938,94.0842607 M187.087757,77.9032699 C191.292517,75.8658583 193.213318,77.6009443 197.098673,79.7785648 C192.837033,83.6825081 193.965887,76.0980794 190.001774,84.0067414 C188.9298,81.7633979 188.019717,79.8618138 187.087757,77.9032699 M194.639698,71.6946417 C192.837033,73.3771492 191.143753,72.8119318 189.047936,69.8281098 C191.209384,68.4041125 192.338238,68.7809241 194.639698,71.6946417 M194.320294,68.6670043 C195.947943,68.6275706 197.243062,68.5968998 198.542556,68.5662291 C199.338879,72.0495456 194.652824,69.052579 194.320294,68.6670043 M146.895326,79.7347495 C147.542886,77.5527475 156.54746,84.5369065 157.790074,85.4920801 C154.69229,89.2470514 149.494314,82.1051573 146.895326,79.7347495 M154.810426,98.1722283 C154.110362,97.5281434 153.506557,96.971689 152.758363,96.2837888 C154.985442,95.4732057 155.086076,95.5739809 154.810426,98.1722283 M148.067934,68.0930239 C150.859439,65.7620498 157.623809,72.8426025 159.846512,74.4374795 C157.234398,80.8476581 149.726211,71.4887097 148.067934,68.0930239 M166.238973,97.3879344 C163.815001,100.301652 163.268076,100.376138 160.244674,101.484665 C159.750253,98.4876985 159.435225,95.4556796 159.308338,92.3973716 C161.780439,90.2810925 164.698832,95.7141899 166.238973,97.3879344 M161.828569,90.929559 C165.705174,87.4812948 167.669729,88.1648135 167.057173,94.2157066 C164.563194,93.5321879 163.548101,93.0940349 161.828569,90.929559 M150.426275,66.3973717 C151.598882,65.4115274 162.204853,70.3276042 161.01912,72.8031688 C157.356909,70.8533879 153.909094,68.7546349 150.426275,66.3973717 M152.202687,64.7411533 C154.762297,62.1867212 162.003585,64.6140889 161.220388,69.1226835 C158.214488,67.6636339 155.208588,66.2002029 152.202687,64.7411533 M157.566928,48.1220095 C158.905801,48.7660944 160.100285,49.6730712 161.137255,50.8517028 C160.354059,51.8857439 159.570862,52.9241665 158.787665,53.9625892 C158.354501,51.8901254 157.995718,50.1813287 157.566928,48.1220095 M156.569337,35.1395357 C154.849805,35.3586122 154.832303,33.8951811 154.517274,32.7603648 C155.247966,33.4351205 156.258684,33.803169 156.569337,35.1395357 M153.895967,29.5618478 C154.394763,28.6198188 154.897934,27.6734083 155.39673,26.7269978 C157.265026,28.6548711 159.618991,30.0525792 157.615058,32.935626 C156.22368,32.068083 154.985442,30.9420298 153.895967,29.5618478 M162.025462,48.9720263 C159.242707,47.0091008 157.256275,46.4263573 156.556211,42.5969 C159.938396,43.7930577 163.259325,44.7613759 162.025462,48.9720263 M164.694456,62.2787334 C164.35755,62.8088985 159.448351,61.4856764 159.295212,61.4593872 C159.268959,57.3538935 165.123245,62.6029666 164.694456,62.2787334 M168.212278,87.4812948 C166.960914,86.6225148 159.111445,80.7425014 161.671054,85.2992927 C160.004027,87.086957 159.995276,82.1664987 161.220388,80.8608027 C165.00511,80.7863167 169.804924,81.4216386 168.212278,87.4812948 M167.805366,72.8995624 C168.28666,72.0758348 168.907967,72.4088311 169.669287,73.8897883 C168.592938,74.9238294 167.971631,74.5908331 167.805366,72.8995624 M168.212278,70.6299298 C168.177275,64.4344462 171.415072,65.788339 174.810382,70.1172908 C171.493829,72.7374458 172.115136,73.416583 168.212278,70.6299298 M179.995232,109.472195 C181.548499,107.439165 184.248122,104.884732 186.606463,106.957196 C183.46055,108.438153 183.062388,111.106505 179.995232,109.472195 M186.973996,123.221436 C186.225803,123.677115 176.03987,118.432424 178.21882,116.438827 C180.542157,114.322548 186.164547,121.271655 186.973996,123.221436 M169.778672,81.0229193 C175.396686,77.7236271 180.817808,82.4293905 185.473234,87.2797444 C184.598154,89.7465458 170.30372,79.1388614 169.778672,81.0229193 M185.521363,79.8267616 C182.931126,77.9733743 180.550908,75.8746214 177.899415,74.1132463 C179.605822,68.8028318 185.188833,78.9723632 185.521363,79.8267616 M183.171773,61.2227846 C182.764861,59.4526464 182.392952,57.8533879 181.924784,55.8159764 C182.379826,56.192788 186.7421,58.9400074 186.238929,60.4603984 C185.355098,61.358612 184.33563,61.6127408 183.171773,61.2227846 M176.626174,56.0394345 C176.831818,54.7556461 177.041837,53.4718578 177.247481,52.1836879 C178.778871,53.0161787 179.907724,53.9538261 180.927193,55.3646788 C179.496437,55.5925184 178.061305,55.8159764 176.626174,56.0394345 M179.719582,63.9130441 C178.240697,62.6949787 176.761811,61.4769134 175.287301,60.258848 C178.66511,55.8597917 181.50037,59.1809916 179.719582,63.9130441 M170.69313,64.6097074 C173.922176,60.4516353 175.226046,62.6686896 178.822625,65.4202905 C174.849761,69.0876312 174.722874,67.3481638 170.69313,64.6097074 M166.615257,53.8924847 C168.7242,51.6272336 172.583304,50.588811 175.10791,52.4641059 C173.020844,58.6333003 170.063073,56.192788 166.615257,53.8924847 M165.919568,41.6811602 C167.96288,43.4337722 172.097634,45.2652518 170.973156,48.3673752 C167.647852,46.6410523 166.532124,44.5904962 165.919568,41.6811602 M165.713925,39.4991582 C168.627941,38.4870247 172.631433,38.9076516 171.918243,44.266263 C169.822426,42.6538599 167.927877,41.1991919 165.713925,39.4991582 M171.406321,37.0586459 C173.589646,38.4300648 175.698589,39.7489054 177.986923,41.1860473 C174.84101,41.0984167 171.957621,39.2800817 171.406321,37.0586459 M186.269557,56.6134149 C185.538865,57.8972032 178.030677,50.5844294 177.825034,48.3235599 C180.314637,47.3420971 184.523772,54.6461079 186.269557,56.6134149 M187.993465,86.9774188 C184.567526,82.8938327 179.391427,80.326256 175.129787,77.5001691 C177.724399,72.9477593 187.870953,82.5871256 187.993465,86.9774188 M189.192324,106.015167 C188.794163,106.549714 188.479134,106.317493 188.255989,105.327267 C188.680403,104.740142 188.991056,104.967982 189.192324,106.015167 M184.515021,129.118976 C187.770319,128.255814 189.209826,129.377486 190.837475,132.391979 C188.32162,131.844287 186.63709,130.341423 184.515021,129.118976 M177.422497,120.057971 C181.421613,121.644085 184.703163,124.11965 188.487885,126.292889 C183.766828,127.09909 179.562068,127.107853 177.422497,120.057971 M176.232388,107.487361 C178.704489,103.627233 178.078807,102.593192 182.379826,104.319515 C180.161497,106.343782 178.818249,108.946411 176.232388,107.487361 M172.408288,92.3535563 C173.847794,92.6558819 181.841651,98.0013486 180.437148,99.7189084 C178.953887,101.532862 171.94887,94.8291208 172.408288,92.3535563 M174.018435,84.0593197 C177.73315,83.8752954 179.885847,92.682171 180.874688,95.8324912 C180.29276,95.5389287 172.430165,91.2888444 172.193893,90.8024946 C171.174425,88.681834 171.67322,84.177621 174.018435,84.0593197 M168.929844,103.088305 C170.806891,100.415572 172.172016,103.202225 171.226929,105.375464 C170.461234,104.613078 169.695539,103.850691 168.929844,103.088305 M169.284251,110.992585 C166.816525,108.788676 164.3488,106.580385 161.881074,104.372093 C165.849562,101.239299 172.014501,105.997641 169.284251,110.992585 M156.381195,107.101787 C162.401746,103.820021 162.900542,107.044827 167.41158,112.342097 C163.399338,115.400405 159.592739,110.89181 156.381195,107.101787 M155.501739,108.166499 C158.231989,110.14695 160.284052,113.122009 162.585513,115.685204 C161.955455,116.018201 161.329773,116.346815 160.699715,116.679812 C158.428882,114.291878 153.672822,111.658578 155.501739,108.166499 M154.661662,112.442872 C155.856147,112.902933 155.484238,114.077183 155.668005,115.198854 C154.342258,113.919448 154.342258,113.919448 154.661662,112.442872 M149.363052,107.899225 C150.133123,108.797439 150.903193,109.691271 151.673264,110.585103 C150.653795,111.908325 149.411182,108.740479 149.363052,107.899225 M148.470471,104.192451 C152.850247,102.50118 153.200279,102.098079 150.898818,97.6552077 C154.307255,100.306033 154.346634,99.5173581 153.10402,102.974385 C152.158933,105.62083 149.835596,108.065723 148.470471,104.192451 M137.024422,83.9103477 C136.709394,80.7512645 138.468305,77.0795422 141.395448,77.0357269 C144.541361,76.9831485 151.896409,86.7714869 154.167242,89.2119992 C149.857473,91.6043146 142.821828,81.8115947 141.811111,82.6966638 C143.036223,85.9170885 145.68334,88.5240989 147.717902,91.0741495 C142.624935,93.1948101 141.058542,83.4897208 137.024422,83.9103477 M144.165076,77.9120329 C144.331341,77.0401084 144.860765,77.1145944 145.748971,78.135491 C145.587081,79.0556123 145.057658,78.9855078 144.165076,77.9120329 M126.278438,79.9100107 C128.934307,79.515673 140.332225,88.681834 138.043891,92.1651505 C135.208631,96.4897207 127.044133,82.2979446 126.278438,79.9100107 M137.286946,100.270981 C133.703493,97.8655212 135.24801,101.401416 130.916363,97.1995286 C133.23095,97.7603645 135.790559,97.4624204 137.286946,100.270981 M130.951366,67.7074492 C131.555172,68.5749922 136.871283,75.3926531 136.468747,76.0849349 C134.666081,74.5601624 132.863416,73.0353899 131.060751,71.5106174 C131.025748,70.3714195 130.990745,69.1840249 130.951366,67.7074492 M131.170136,73.7890131 C136.079336,78.9241664 134.718586,80.3744529 128.8643,77.6579042 C129.629995,76.3697343 130.400066,75.0815645 131.170136,73.7890131 M124.007605,64.9339406 C124.213249,57.7175605 124.817055,45.8742845 134.307299,51.2723297 C134.145409,57.7044159 128.155485,62.01146 124.007605,64.9339406 M134.351053,62.7782278 C135.554288,66.8267617 139.763423,70.5247731 142.047382,73.6006073 C141.106671,73.8284468 140.170335,74.0519049 139.234,74.2753629 C136.254352,71.2564886 130.540079,67.0546012 134.351053,62.7782278 M138.848964,67.4007421 C140.66038,66.9100107 145.573955,67.8257505 143.298747,71.5938665 C141.832988,70.2136845 140.419733,68.8816993 138.848964,67.4007421 M136.700643,102.991911 C138.752706,103.320526 140.537869,103.605326 142.891835,103.986519 C140.594749,107.583755 138.660822,108.122683 136.700643,102.991911 M134.386056,108.775531 C134.994236,107.737109 135.602417,106.698686 136.210598,105.660263 C139.360886,110.160095 138.201405,112.604989 134.386056,108.775531 M130.369438,113.235929 C131.314525,112.17998 132.233359,111.093361 133.130316,109.976071 C133.550354,110.856758 133.979144,111.737446 134.403557,112.622515 C133.11719,113.573307 131.773942,113.774857 130.369438,113.235929 M129.778759,92.095046 C129.363096,90.7367716 128.951808,89.3784973 128.536145,88.020223 C129.170578,87.6302668 132.35587,91.6700376 132.614019,91.954837 C132.145851,93.0940349 131.200764,93.1378502 129.778759,92.095046 M116.508169,115.426694 C118.65649,111.763735 121.11109,108.267274 124.60266,106.30873 C124.82143,110.313448 120.183505,116.67543 116.508169,115.426694 M109.481275,92.3535563 C113.502268,83.5116284 126.19093,93.6417261 128.601776,99.1668356 C124.633288,101.191103 120.804812,103.5878 116.385657,102.238288 C112.714696,101.112235 107.468591,96.7789017 109.481275,92.3535563 M122.975011,87.8449618 C119.789719,87.3586119 116.508169,85.6585782 113.261621,87.1001016 C112.937842,85.5884737 113.931058,82.2409847 115.09929,81.5443214 C114.141077,78.797102 118.533979,79.5025284 119.916606,80.0896534 C122.581225,81.2157067 122.183063,82.0657235 123.263787,85.6936305 C121.447996,84.5851033 117.558265,80.5891478 115.584959,80.7950798 C114.202333,80.9396703 122.436837,87.450624 122.975011,87.8449618 M104.086406,97.2915407 C104.528322,96.9103476 104.974613,96.5291545 105.416528,96.1523429 C107.201692,98.2905296 108.803088,100.20964 110.46574,102.203236 C108.99123,102.654534 104.94836,98.0583085 104.086406,97.2915407 M107.12731,102.821032 C104.064529,103.303 103.79763,103.062016 103.679494,99.4823058 C104.978988,100.739805 105.963453,101.694979 107.12731,102.821032 M110.706387,107.658241 C109.389392,112.631278 98.0877319,117.73576 96.3638241,112.162454 C94.0842403,104.779576 108.299917,106.93967 110.706387,107.658241 M60.7830659,114.962252 C65.7666473,110.558814 74.5086978,104.113583 80.9711646,104.613078 C86.3572828,113.406809 65.5435019,121.280418 60.7830659,114.962252 M91.3496149,110.839232 C95.7468926,115.913044 81.9643805,122.967307 79.2166289,122.537917 C79.0372375,118.471857 87.3067447,106.177284 91.3496149,110.839232 M94.342389,106.760027 C89.5557007,106.519043 88.7856301,106.676778 86.4229138,101.95787 C85.4078208,99.9336034 83.1938681,89.3916419 85.6047139,88.0421306 C91.0739647,84.9750595 94.4167708,104.604315 94.342389,106.760027 M97.0420112,101.49781 C95.1387119,96.2574996 92.7234907,94.6494781 97.3832924,91.5955516 C97.4576742,95.4644427 99.9954066,99.3201892 97.0420112,101.49781 M110.877028,79.4061347 C110.373857,83.2312105 103.027559,97.0067413 99.977905,93.5190433 C98.9278089,92.3141225 102.226861,83.1172907 103.250705,81.8378839 C105.906573,78.5123026 107.197316,78.9154033 110.877028,79.4061347 M121.898662,60.6049889 C121.679892,67.8651843 121.399867,67.4971358 115.081788,65.9022588 C115.921865,62.7212679 119.269047,60.6750933 121.898662,60.6049889 M124.593909,71.383553 C120.704178,77.8200208 106.120968,78.7532867 102.983805,71.7034047 C109.275631,66.6690266 118.393966,66.9406814 124.593909,71.383553 M135.033615,44.778902 C131.170136,48.8624881 123.990104,48.3016522 119.505318,46.0977426 C123.56569,41.8345137 130.540079,41.7556462 135.033615,44.778902 M140.734762,13.604315 C141.115422,20.0232567 137.846998,26.7883392 131.270771,25.5089324 C132.727779,19.9005738 135.899944,15.4314131 140.734762,13.604315 M142.852456,29.0623534 C137.300073,38.1496469 127.118515,40.13448 123.780085,28.2692964 C129.393724,29.158747 137.956383,25.3030005 142.852456,29.0623534 M144.160701,40.1081909 C142.253026,41.3613085 140.227216,42.0492087 138.879592,39.5867888 C139.960316,38.8506917 141.04104,38.1189762 142.121764,37.3872606 C142.799951,38.2942374 143.482514,39.2012141 144.160701,40.1081909 M145.254551,33.8294582 C146.094628,34.0792054 145.385813,37.7421646 145.333308,38.4037756 C142.913712,37.0630274 142.887459,35.5382549 145.254551,33.8294582 M147.000336,7.98281185 C144.847639,9.89754053 145.206422,4.34176031 145.429567,3.69329385 C146.028997,5.33198612 146.514666,6.65958975 147.000336,7.98281185 M150.308139,16.3121007 C148.046057,14.7435129 145.836479,13.2099773 143.535019,11.6151003 C143.911303,10.5065732 144.283212,9.39366456 144.655121,8.2807559 C147.083469,10.3181674 149.629952,12.6491415 150.308139,16.3121007 M151.826403,23.6905974 C150.920695,23.0465125 146.790317,19.2301997 144.961399,19.9619153 C147.118472,22.3849014 149.783091,24.1944734 151.655762,26.967982 C144.935147,34.6926196 143.176236,16.7064384 143.062475,13.091676 C147.324116,16.4829803 150.828811,17.6616119 151.826403,23.6905974 M153.550311,49.0377493 C151.051957,47.4297277 148.995519,44.7526128 146.068376,44.1041463 C145.657088,48.0825757 155.261092,48.844962 152.94213,53.8136171 C150.500656,59.0364011 146.414032,48.0080897 142.419291,49.8527139 C144.97015,52.7883391 148.098561,54.803843 150.583789,57.8402433 C145.180169,61.9150664 145.079535,54.9396704 139.837805,53.3667011 C139.640912,56.5695996 144.466979,57.1961584 144.545736,60.0266269 C144.707626,65.6437485 139.155243,60.2369403 137.173186,61.722279 C134.241668,55.7765426 140.056575,45.5018545 144.716377,43.5520735 C148.588606,41.9309074 154.819177,42.2244699 153.550311,49.0377493 M158.280119,11.058646 C156.263059,11.049883 154.421015,10.2480629 152.622726,9.24031101 C154.582905,9.49443975 156.508082,9.90630359 158.280119,11.058646 M159.356467,27.9012479 C158.100727,27.4017534 152.6096,22.7704761 155.694257,20.645434 C158.048223,23.2743521 160.030279,24.0411198 159.356467,27.9012479 M162.659895,43.6353226 C160.80035,42.6450968 158.940804,41.6504895 157.076884,40.6602637 C158.787665,37.9612411 163.145564,40.5770146 162.659895,43.6353226 M169.643034,58.3441193 C168.575437,59.2817668 167.503463,60.2194142 166.43149,61.1526801 C165.171375,60.3245709 163.906884,59.4964617 162.642393,58.6683525 C163.96814,53.945063 167.490337,55.8028318 169.643034,58.3441193 M169.927435,15.2780595 C170.08495,19.9400076 168.571061,20.5884741 165.381394,17.2190774 C165.412022,16.001012 169.297378,15.133469 169.927435,15.2780595 M181.959787,38.0225825 C178.315078,39.7313793 169.800549,36.3269303 168.28666,32.0856092 C166.387736,26.7445239 180.752177,36.786991 181.959787,38.0225825 M182.931126,35.5119657 C180.012734,35.7923837 173.716532,30.6265596 171.060664,29.1017871 C172.631433,28.8564215 185.000691,29.0623534 182.931126,35.5119657 M187.735316,44.6606007 C186.427071,43.7799131 185.118826,42.8992256 183.810582,42.0141565 C185.586994,41.9221443 187.205893,42.1499839 187.735316,44.6606007 M192.504503,50.5625218 C191.541915,52.1749249 182.379826,46.2861484 182.769236,43.1139205 C186.033285,45.5544328 189.748,47.2719926 192.504503,50.5625218 M194.399051,55.9255147 C190.933734,54.9791042 183.788705,50.6413893 182.095425,46.9302333 C183.90684,47.6970011 195.326636,54.1159427 194.399051,55.9255147 M198.035009,65.8277728 C196.792395,66.8179986 193.305201,64.4256831 192.294484,62.9359629 C194.626572,62.6248743 196.630506,63.2251439 198.035009,65.8277728 M203.346746,65.4684873 C201.91599,67.8301321 199.255746,63.970004 198.183773,62.9797782 C198.96697,62.9096737 203.119225,64.2416589 203.346746,65.4684873 M206.597668,69.6002702 C205.753216,69.3855753 204.908764,69.1752618 204.051185,68.9605668 C206.842691,66.8004725 213.76895,66.590159 213.677067,71.3660269 C211.983786,70.9454 210.351762,70.5379177 208.737239,70.1348169 C209.625446,70.581733 210.461147,71.2959224 211.196214,72.4395018 C215.142826,78.5955516 200.677751,74.0343787 198.039385,74.4243349 C200.01269,75.0990906 204.173696,75.81328 205.840724,77.6579042 C201.299058,78.3677121 198.266905,78.0522419 194.145278,75.6905971 C197.085547,74.20964 202.222268,69.4688243 206.597668,69.6002702 M207.993421,63.606337 C208.90788,64.2372773 209.822339,64.8638362 210.736797,65.4947765 C210.430519,66.3710825 207.27148,66.1651506 207.993421,63.606337 M210.679917,60.8985514 C212.206932,61.9194479 213.147643,62.4233239 213.878335,64.2548035 C212.176304,64.3906309 210.644914,63.8560842 209.292915,62.6511634 C209.756708,62.0684199 210.216125,61.4812949 210.679917,60.8985514 M215.449104,62.366364 C214.219616,61.4024273 212.994504,60.4341092 211.769392,59.465791 C213.165145,58.2039103 214.560897,56.9376481 215.961026,55.6757675 C216.722345,57.9979784 216.551705,60.2281773 215.449104,62.366364 M215.751006,91.8321542 C214.591525,89.7421643 213.432044,87.6521744 212.272563,85.5621846 C216.359187,83.1742506 220.577073,88.9666335 215.751006,91.8321542 M221.312141,63.5493771 C219.662615,63.2163808 219.662615,63.2163808 219.548854,61.5032025 C220.253294,62.3269302 220.695209,62.8351877 221.312141,63.5493771 M224.370546,71.7340754 C220.86585,69.1796433 219.470097,69.4863505 219.491974,64.4344462 C221.364645,65.9548372 226.65888,68.2376144 224.370546,71.7340754 M224.939348,76.0016858 C217.348028,77.7104825 222.475997,73.7977761 218.349994,69.7404792 C221.010238,69.6177964 223.744863,73.8415914 224.939348,76.0016858 M225.582532,82.0876311 C224.230533,82.4512982 223.206689,81.8554101 222.515376,80.3043484 C224.274287,77.482643 225.547529,80.8695658 225.582532,82.0876311 M233.383871,70.9673076 C232.902577,71.8567583 227.157676,68.1149315 226.838272,67.9396703 C229.253493,66.300978 232.163134,68.2332328 233.383871,70.9673076 M238.013045,67.4620835 C235.3353,71.0417937 234.315831,69.1402096 231.449944,66.6734081 C233.830162,66.2790704 235.799092,66.9625891 238.013045,67.4620835 M244.366127,87.5075839 C242.239682,85.4745539 238.857497,81.119313 235.750963,81.2069436 C236.814185,82.3329968 244.029221,87.2490737 243.451668,89.5055617 C242.9835,91.3238967 237.890534,87.2403106 237.501123,86.8153022 C234.272077,83.2794073 234.670239,81.8247393 234.333333,75.887766 C236.936696,76.6194815 248.483379,83.4239978 244.366127,87.5075839 M247.249516,82.8368728 C248.807158,81.7546349 248.807158,81.7546349 258.787447,83.7000342 C255.930311,87.6959897 250.706082,83.8621509 247.249516,82.8368728 M263.267858,101.300641 C262.493412,102.378497 253.554468,96.9673075 252.596255,97.0724642 C255.033354,99.3158077 258.196768,100.034379 260.865763,102.571285 C258.568677,103.438828 252.163091,100.091339 250.920477,97.6333001 C248.408997,92.6602634 251.856813,91.5473547 256.669753,93.4971356 C258.958088,94.42602 265.739959,97.8699027 263.267858,101.300641 M27.9719364,150.137176 C29.4945758,135.910347 6.48434377,136.383553 0,138.832828 C0.612556092,151.622515 26.0730125,167.87361 27.9719364,150.137176 M22.4720578,147.937648 C18.8185982,157.988878 4.11725202,150.255477 2.90964144,142.048871 C2.79150562,141.404786 26.821206,135.971689 22.4720578,147.937648 M61.9950519,157.664645 C62.7038668,161.428379 66.0422975,160.871925 70.1157955,160.635322 C73.9661481,160.411864 77.405213,160.385575 81.0105432,158.676778 C84.0908252,157.213347 86.3747844,153.278733 89.2669242,151.990563 C93.6817035,150.023256 97.5014283,153.186721 102.861294,154.098079 C104.523946,154.382878 110.080705,156.10482 110.942659,154.07179 C111.738982,152.187732 109.205625,151.083586 108.824965,149.742838 C105.508411,137.960904 95.1737151,125.136165 84.4627343,133.846647 C83.5439002,140.743175 83.3907611,137.145939 79.6585444,139.341086 C76.4119971,141.247051 72.7585375,142.088305 69.6695047,144.502528 C66.8692483,146.702056 61.1287226,153.064038 61.9950519,157.664645 M87.6786538,135.279407 C93.4104286,124.535895 103.714497,143.573644 105.845317,148.594877 C100.292934,150.562184 83.1676157,143.740142 87.6786538,135.279407 M65.6791393,157.695315 C66.0072943,150.224806 77.9390119,137.509606 84.8565204,142.145265 C94.8980649,148.879677 68.6106577,156.959218 65.6791393,157.695315 M139.444019,123.6333 C131.677683,128.882373 164.904475,161.108527 168.597314,139.823054 C171.94887,120.518032 146.274019,128.523088 139.444019,123.6333 M140.944781,128.027975 C140.564122,128.724638 150.86819,126.437479 151.633885,126.415572 C155.081701,126.319178 164.038146,130.043479 165.158249,134.289181 C168.536058,147.11392 143.666281,138.026626 140.944781,128.027975 M181.049704,179.646781 C187.569051,186.035052 196.324228,185.907988 204.32246,186 C214.8628,180.461746 210.955567,170.3667 201.491576,166.979778 C193.909006,164.271992 192.010082,166.15605 185.38135,168.850691 C178.700114,171.56724 172.198268,170.984496 181.049704,179.646781 M190.220544,168.714864 C192.605137,167.509943 206.969577,166.712504 205.158161,174.301315 C201.53533,171.606673 197.343696,170.432423 193.082056,170.121335 C195.926066,172.08426 202.187264,173.061341 203.832415,177.022245 C200.472107,180.829794 194.250288,173.626559 189.809256,175.3485 C189.818007,176.794405 198.315035,176.987192 199.172613,179.703741 C194.066521,181.250421 189.432971,175.996967 184.781921,177.749579 C186.339563,178.490057 187.89283,179.230536 189.450473,179.971015 C188.890422,181.76306 184.528147,179.033367 184.121235,179.239299 C184.353131,177.845972 184.501895,176.439501 184.571901,175.024267 C183.867462,175.931244 183.07989,176.715538 182.209185,177.390293 C180.835309,173.981463 186.68522,170.498146 190.220544,168.714864 M190.360556,170.173913 C189.166072,171.13785 188.015342,172.167509 186.908365,173.262892 C189.126693,173.547691 190.675585,173.595888 190.360556,170.173913 M212.57009,166.554769 C212.329443,166.694978 212.010039,166.883384 211.432486,167.21638 C216.529828,168.631615 222.620385,171.094034 227.958374,169.84968 C234.053307,168.425683 243.473545,164.280755 235.816594,159.05359 C230.898644,155.697338 220.130782,149.366026 214.14961,150.943377 C205.775093,153.147287 207.800903,160.530165 212.57009,166.554769 M215.659123,153.449613 C219.785126,151.762723 229.415383,157.169532 231.257426,161.200539 C227.319566,162.059319 224.79496,156.661274 220.80897,157.287833 C222.773524,158.760027 226.505741,160.446916 227.809611,162.782272 C225.324383,165.065049 215.751006,158.3394 215.217208,161.428379 C217.400532,161.564206 219.39134,162.339737 221.189629,163.759353 C215.615369,165.371756 209.030391,156.157398 215.659123,153.449613" id="Fill-1" fill="#C4B27E" mask="url(#mask-2)"></path>
        </g>
    </g>
</svg>