<?xml version="1.0" encoding="UTF-8"?>
<svg width="24px" height="24px" viewBox="0 0 24 24" version="1.1" xmlns="http://www.w3.org/2000/svg" xmlns:xlink="http://www.w3.org/1999/xlink">
    <!-- Generator: Sketch 52.5 (67469) - http://www.bohemiancoding.com/sketch -->
    <title>ic-arrow-small-up</title>
    <desc>Created with Sketch.</desc>
    <g id="ic-arrow-small-up" stroke="none" stroke-width="1" fill="none" fill-rule="evenodd">
        <g>
            <g>
                <rect id="bounding-box" fill-rule="nonzero" x="0" y="0" width="24" height="24"></rect>
                <polygon id="Path" fill="#D0D0D0" fill-rule="nonzero" points="2.936768 8.823242 10.837158 16.723145 10.850342 16.709961 10.850342 16.760254 13.040283 16.760254 13.083252 16.803223 13.126221 16.760254 13.150146 16.760254 13.150146 16.736328 21.063232 8.823242 19.437256 7.196777 12.000244 14.634216 4.563721 7.196777"></polygon>
            </g>
        </g>
    </g>
</svg>