<?xml version="1.0" encoding="UTF-8"?>
<svg width="24px" height="24px" viewBox="0 0 24 24" version="1.1" xmlns="http://www.w3.org/2000/svg" xmlns:xlink="http://www.w3.org/1999/xlink">
    <!-- Generator: Sketch 52.5 (67469) - http://www.bohemiancoding.com/sketch -->
    <title>ic-arrow-big-right</title>
    <desc>Created with Sketch.</desc>
    <g id="ic-arrow-big-right" stroke="none" stroke-width="1" fill="none" fill-rule="evenodd">
        <g>
            <g>
                <rect id="bounding-box" fill-rule="nonzero" x="0" y="0" width="24" height="24"></rect>
                <polygon id="Path" fill="#E97000" fill-rule="nonzero" points="24 11.239747 23.980469 11.239747 23.993164 11.227051 17.766602 5 16.139648 6.625977 20.753052 11.239747 0 11.239747 0 13.539551 20.758301 13.539551 16.116211 18.181641 17.743164 19.807618 23.993164 13.557618 23.975098 13.539551 24 13.539551"></polygon>
            </g>
        </g>
    </g>
</svg>