<?xml version="1.0" encoding="UTF-8"?>
<svg width="24px" height="24px" viewBox="0 0 24 24" version="1.1" xmlns="http://www.w3.org/2000/svg" xmlns:xlink="http://www.w3.org/1999/xlink">
    <!-- Generator: Sketch 52.5 (67469) - http://www.bohemiancoding.com/sketch -->
    <title>ic-arrow-big-left</title>
    <desc>Created with Sketch.</desc>
    <g id="ic-arrow-big-left" stroke="none" stroke-width="1" fill="none" fill-rule="evenodd">
        <g>
            <g>
                <rect id="bounding-box" fill-rule="nonzero" x="0" y="0" width="24" height="24"></rect>
                <polygon id="Path" fill="#FFFFFF" fill-rule="nonzero" points="3.240723 10.550293 7.882812 5.908203 6.256836 4.282227 0.006836 10.532227 0.024902 10.550293 0 10.550293 0 12.850098 0.019531 12.850098 0.006836 12.862793 6.233887 19.09082 7.859863 17.463867 3.246094 12.850098 24 12.850098 24 10.550293"></polygon>
            </g>
        </g>
    </g>
</svg>