<?xml version="1.0" encoding="UTF-8"?>
<svg width="24px" height="24px" viewBox="0 0 24 24" version="1.1" xmlns="http://www.w3.org/2000/svg" xmlns:xlink="http://www.w3.org/1999/xlink">
    <!-- Generator: Sketch 52.5 (67469) - http://www.bohemiancoding.com/sketch -->
    <title>ic-arrow-big-down</title>
    <desc>Created with Sketch.</desc>
    <g id="ic-arrow-big-down" stroke="none" stroke-width="1" fill="none" fill-rule="evenodd">
        <g>
            <g>
                <rect id="bounding-box" fill-rule="nonzero" x="0" y="0" width="24" height="24"></rect>
                <polygon id="Path" fill="#E97000" fill-rule="nonzero" points="19.808106 17.766601 18.181153 16.139648 13.567871 20.753296 13.567871 0 11.267579 0 11.267579 20.757446 6.625977 16.116211 5 17.743164 11.25 23.993164 11.267579 23.975586 11.267579 24 13.567871 24 13.567871 23.979492 13.581543 23.993164"></polygon>
            </g>
        </g>
    </g>
</svg>