<?xml version="1.0" encoding="UTF-8"?>
<svg width="24px" height="24px" viewBox="0 0 24 24" version="1.1" xmlns="http://www.w3.org/2000/svg" xmlns:xlink="http://www.w3.org/1999/xlink">
    <!-- Generator: Sketch 52.5 (67469) - http://www.bohemiancoding.com/sketch -->
    <title>ic-close</title>
    <desc>Created with Sketch.</desc>
    <g id="ic-close" stroke="none" stroke-width="1" fill="none" fill-rule="evenodd">
        <g fill-rule="nonzero">
            <rect id="boudning-box" x="0" y="0" width="24" height="24"></rect>
            <polygon id="Path" fill="#E97000" points="19.188477 6.437988 17.561523 4.812012 11.999939 10.373596 6.437988 4.812012 4.812012 6.437988 10.373596 11.999939 4.812012 17.561523 6.437988 19.188477 11.999939 13.626526 17.561523 19.188477 19.188477 17.561523 13.626526 11.999939"></polygon>
        </g>
    </g>
</svg>