<?xml version="1.0" encoding="utf-8"?>
<!-- Generator: Adobe Illustrator 23.0.1, SVG Export Plug-In . SVG Version: 6.00 Build 0)  -->
<svg version="1.1" id="Layer_1" xmlns="http://www.w3.org/2000/svg" xmlns:xlink="http://www.w3.org/1999/xlink" x="0px" y="0px"
	 viewBox="0 0 64 64" style="enable-background:new 0 0 64 64;" xml:space="preserve">
<style type="text/css">
	.st0{fill-rule:evenodd;clip-rule:evenodd;fill:#FFFFFF;stroke:#847864;stroke-width:3;stroke-opacity:0.3;}
	.st1{fill:#E5DCCD;}
	.st2{filter:url(#Adobe_OpacityMaskFilter);}
	.st3{fill-rule:evenodd;clip-rule:evenodd;fill:#FFFFFF;}
	.st4{mask:url(#mask-2_1_);fill-rule:evenodd;clip-rule:evenodd;fill:url(#Fill-3_1_);}
	.st5{filter:url(#Adobe_OpacityMaskFilter_1_);}
	.st6{mask:url(#mask-5_1_);fill:#FFDFAE;}
	.st7{filter:url(#Adobe_OpacityMaskFilter_2_);}
	.st8{mask:url(#mask-7_1_);fill-rule:evenodd;clip-rule:evenodd;fill:#ECB259;}
	.st9{filter:url(#Adobe_OpacityMaskFilter_3_);}
	.st10{mask:url(#mask-9_1_);fill-rule:evenodd;clip-rule:evenodd;fill:#CAC4B5;}
	.st11{fill:none;stroke:#847864;stroke-width:3;stroke-linecap:square;stroke-opacity:0.3;}
</style>
<title>ic-free-preservatives</title>
<desc>Created with Sketch.</desc>
<g id="ic-free-preservatives">
	<g transform="translate(1.000000, 1.000000)">
		<g>
			<circle id="Oval-Copy-13" class="st0" cx="31" cy="31" r="30.5"/>
			<g id="Group-9" transform="translate(16.000000, 13.000000)">
				<path id="Fill-1" class="st1" d="M24.629612,32.450073h-9.117531H6.394464
					c-2.44478,0.087994-4.517733-1.900963-2.445728-4.865292c1.261958-1.805374,3.003211-4.154665,4.579561-6.254566h13.967135
					c1.586426,2.113232,3.335514,4.472477,4.579821,6.254566C29.145796,30.550037,27.074478,32.538067,24.629612,32.450073
					 M29.936123,27.903437c-3.476908-4.979355-10.111942-13.570049-10.557653-14.242119V3.227368
					c-0.121933,0.027841-0.248344,0.043955-0.378887,0.043955h-7.003848c-0.130286,0-0.256352-0.015945-0.378028-0.043618v10.433698
					c-0.445797,0.67207-7.015386,9.174094-10.557652,14.24212c-2.587122,3.701359,0.001119,6.184879,3.053586,6.074947h11.384405
					h11.384319C29.935003,34.088314,32.521439,31.606062,29.936123,27.903437"/>
				<g id="Group-5" transform="translate(0.000000, 19.892700)">
					<g id="Fill-3-Clipped">
						<defs>
							
								<filter id="Adobe_OpacityMaskFilter" filterUnits="userSpaceOnUse" x="0.028037" y="0.061217" width="30.967365" height="13.875334">
								<feColorMatrix  type="matrix" values="1 0 0 0 0  0 1 0 0 0  0 0 1 0 0  0 0 0 1 0"/>
							</filter>
						</defs>
						<mask maskUnits="userSpaceOnUse" x="0.028037" y="0.061217" width="30.967365" height="13.875334" id="mask-2_1_">
							<g class="st2">
								<polygon id="path-1_1_" class="st3" points="0.028037,0.061217 30.99535,0.061217 30.99535,13.93655 0.028037,13.93655 
																	"/>
							</g>
						</mask>
						
							<linearGradient id="Fill-3_1_" gradientUnits="userSpaceOnUse" x1="-913.707642" y1="502.558899" x2="-913.524475" y2="501.589172" gradientTransform="matrix(30.967365 0 0 -13.875333 28306.220703 6973.354492)">
							<stop  offset="0" style="stop-color:#FF8487"/>
							<stop  offset="1" style="stop-color:#F3474A"/>
						</linearGradient>
						<path id="Fill-3" class="st4" d="M24.223692,0.061217H6.799971c-1.966347,2.619519-4.138672,5.550099-5.71287,7.802367
							c-2.584797,3.697985,0.001119,6.179225,3.050917,6.069464H15.51209h11.374072
							c3.049883,0.109761,5.633991-2.370297,3.050917-6.069464C28.384754,5.640507,26.202698,2.697356,24.223692,0.061217"/>
					</g>
					<g id="Fill-7-Clipped">
						<defs>
							<filter id="Adobe_OpacityMaskFilter_1_" filterUnits="userSpaceOnUse" x="8" y="2" width="11" height="9">
								<feColorMatrix  type="matrix" values="1 0 0 0 0  0 1 0 0 0  0 0 1 0 0  0 0 0 1 0"/>
							</filter>
						</defs>
						<mask maskUnits="userSpaceOnUse" x="8" y="2" width="11" height="9" id="mask-5_1_">
							<g class="st5">
								<polygon id="path-4_1_" class="st3" points="0.028037,0.061217 30.99535,0.061217 30.99535,13.93655 0.028037,13.93655 
																	"/>
							</g>
						</mask>
						<path id="Fill-7" class="st6" d="M17.5,3C16.671698,3,16,3.671638,16,4.499865C16,5.328362,16.671698,6,17.5,6
							S19,5.328362,19,4.499865C19,3.671638,18.328302,3,17.5,3 M13.454563,8.75c-0.602577,0-1.090971,0.50365-1.090971,1.124949
							C12.363592,10.49635,12.851986,11,13.454563,11c0.60248,0,1.090874-0.50365,1.090874-1.125051
							C14.545437,9.25365,14.057043,8.75,13.454563,8.75 M11.272718,3.687627c0,0.931797-0.732639,1.687424-1.636408,1.687424
							C8.732639,5.375051,8,4.619424,8,3.687627C8,2.755627,8.732639,2,9.636311,2
							C10.540079,2,11.272718,2.755627,11.272718,3.687627"/>
					</g>
					<g id="Fill-9-Clipped">
						<defs>
							<filter id="Adobe_OpacityMaskFilter_2_" filterUnits="userSpaceOnUse" x="21" y="7" width="2.636211" height="2.673968">
								<feColorMatrix  type="matrix" values="1 0 0 0 0  0 1 0 0 0  0 0 1 0 0  0 0 0 1 0"/>
							</filter>
						</defs>
						<mask maskUnits="userSpaceOnUse" x="21" y="7" width="2.636211" height="2.673968" id="mask-7_1_">
							<g class="st7">
								<polygon id="path-6_1_" class="st3" points="0.028037,0.061217 30.99535,0.061217 30.99535,13.93655 0.028037,13.93655 
																	"/>
							</g>
						</mask>
						<path id="Fill-9" class="st8" d="M22.318026,7C21.590132,7,21,7.598664,21,8.336905
							c0,0.7384,0.590132,1.337064,1.318026,1.337064c0.727974,0,1.318186-0.598663,1.318186-1.337064
							C23.636211,7.598664,23.046,7,22.318026,7"/>
					</g>
				</g>
				<g id="Group-8" transform="translate(10.247222, 0.066397)">
					<g id="Fill-6-Clipped">
						<defs>
							
								<filter id="Adobe_OpacityMaskFilter_3_" filterUnits="userSpaceOnUse" x="0.078998" y="0.017911" width="10.342892" height="3.271424">
								<feColorMatrix  type="matrix" values="1 0 0 0 0  0 1 0 0 0  0 0 1 0 0  0 0 0 1 0"/>
							</filter>
						</defs>
						<mask maskUnits="userSpaceOnUse" x="0.078998" y="0.017911" width="10.342892" height="3.271424" id="mask-9_1_">
							<g class="st9">
								<polygon id="path-8_1_" class="st3" points="0.078998,0.01797 10.42189,0.01797 10.42189,3.289335 0.078998,3.289335 
																	"/>
							</g>
						</mask>
						<path id="Fill-6" class="st10" d="M8.752368,3.289335c0.13063,0,0.256955-0.016114,0.378802-0.043955
							c0.739178-0.168313,1.29072-0.816253,1.29072-1.591672c0-0.903489-0.747531-1.635797-1.669522-1.635797H1.748521
							c-0.922078,0-1.669522,0.732308-1.669522,1.635797c0,0.775757,0.551886,1.423866,1.291494,1.591926
							c0.121675,0.027588,0.247742,0.043702,0.378114,0.043702H8.752368z"/>
					</g>
				</g>
			</g>
			<path id="Line-5-Copy-2" class="st11" d="M50.432564,11.567435L11.5613,50.438698"/>
		</g>
	</g>
</g>
</svg>
