<?xml version="1.0" encoding="utf-8"?>
<!-- Generator: Adobe Illustrator 23.0.1, SVG Export Plug-In . SVG Version: 6.00 Build 0)  -->
<svg version="1.1" id="Layer_1" xmlns="http://www.w3.org/2000/svg" xmlns:xlink="http://www.w3.org/1999/xlink" x="0px" y="0px"
	 viewBox="0 0 64 64" style="enable-background:new 0 0 64 64;" xml:space="preserve">
<style type="text/css">
	.st0{fill-rule:evenodd;clip-rule:evenodd;fill:#FFFFFF;stroke:#847864;stroke-width:3;stroke-opacity:0.3;}
	.st1{filter:url(#Adobe_OpacityMaskFilter);}
	.st2{fill-rule:evenodd;clip-rule:evenodd;fill:#FFFFFF;}
	.st3{mask:url(#mask-2_1_);fill-rule:evenodd;clip-rule:evenodd;fill:url(#Fill-1_1_);}
	.st4{filter:url(#Adobe_OpacityMaskFilter_1_);}
	.st5{mask:url(#mask-5_1_);fill-rule:evenodd;clip-rule:evenodd;fill:url(#Fill-4_1_);}
	.st6{fill:#A2FEA4;}
	.st7{fill-rule:evenodd;clip-rule:evenodd;fill:#A2FEA4;}
	.st8{fill:none;stroke:#847864;stroke-width:3;stroke-linecap:square;stroke-opacity:0.3;}
</style>
<title>ic-free-artificial-colors</title>
<desc>Created with Sketch.</desc>
<g id="ic-free-artificial-colors">
	<g transform="translate(1.000000, 1.000000)">
		<g>
			<circle id="Oval-Copy-13" class="st0" cx="31" cy="31" r="30.5"/>
			<g id="Group-11" transform="translate(17.000000, 12.000000)">
				<g id="Group-3" transform="translate(0.073854, 0.000000)">
					<g id="Fill-1-Clipped">
						<defs>
							
								<filter id="Adobe_OpacityMaskFilter" filterUnits="userSpaceOnUse" x="0.000081" y="-0.000022" width="27.949007" height="38.071503">
								<feColorMatrix  type="matrix" values="1 0 0 0 0  0 1 0 0 0  0 0 1 0 0  0 0 0 1 0"/>
							</filter>
						</defs>
						<mask maskUnits="userSpaceOnUse" x="0.000081" y="-0.000022" width="27.949007" height="38.071503" id="mask-2_1_">
							<g class="st1">
								<polygon id="path-1_1_" class="st2" points="0,0 27.949081,0 27.949081,38.07143 0,38.07143 								"/>
							</g>
						</mask>
						
							<linearGradient id="Fill-1_1_" gradientUnits="userSpaceOnUse" x1="-911.610596" y1="546.602478" x2="-911.412781" y2="546.006775" gradientTransform="matrix(27.949005 0 0 -38.071503 25486.875 20813.041016)">
							<stop  offset="0" style="stop-color:#E0E2DE"/>
							<stop  offset="1" style="stop-color:#D8DCD3"/>
						</linearGradient>
						<path id="Fill-1" class="st3" d="M22.905674,37.304996c-0.5912,0.495075-1.335945,0.766483-2.104912,0.766483H7.148261
							c-0.767195,0-1.510905-0.269249-2.100851-0.763065c-3.083699-2.580677-5.047329-6.4711-5.047329-10.823957
							c0-5.341154,2.956228-9.986464,7.311028-12.369349c1.584611-0.867017,2.55328-2.55599,2.55328-4.371819V2.410747
							C9.385816,2.240169,9.042395,1.78175,9.042395,1.241463c0-0.685658,0.552058-1.241485,1.232992-1.241485h7.398249
							c0.681009,0,1.233067,0.555828,1.233067,1.241485c0,0.540287-0.343494,0.998706-0.821995,1.169284v7.367491
							c0,1.805345,0.96697,3.479595,2.541611,4.343192c4.276442,2.345482,7.225876,6.874495,7.320408,12.10084
							C28.027153,30.678858,26.048826,34.672565,22.905674,37.304996"/>
					</g>
				</g>
				<g id="Group-6" transform="translate(0.000000, 23.869001)">
					<g id="Fill-4-Clipped">
						<defs>
							
								<filter id="Adobe_OpacityMaskFilter_1_" filterUnits="userSpaceOnUse" x="-0.000007" y="0.034086" width="27.949127" height="14.070069">
								<feColorMatrix  type="matrix" values="1 0 0 0 0  0 1 0 0 0  0 0 1 0 0  0 0 0 1 0"/>
							</filter>
						</defs>
						<mask maskUnits="userSpaceOnUse" x="-0.000007" y="0.034086" width="27.949127" height="14.070069" id="mask-5_1_">
							<g class="st4">
								<polygon id="path-4_1_" class="st2" points="0,0.034086 27.94912,0.034086 27.94912,14.104156 0,14.104156 								"/>
							</g>
						</mask>
						
							<linearGradient id="Fill-4_1_" gradientUnits="userSpaceOnUse" x1="-911.356689" y1="500.070007" x2="-911.235901" y2="499.123444" gradientTransform="matrix(27.949125 0 0 -14.070069 25484.923828 7036.43457)">
							<stop  offset="0" style="stop-color:#F6A900"/>
							<stop  offset="1" style="stop-color:#E4571C"/>
						</linearGradient>
						<path id="Fill-4" class="st5" d="M27.62397,0.034161c0.200956,0.918325,0.312475,1.869441,0.324144,2.843906
							c0.050295,4.272774-1.79118,8.113676-4.733967,10.726774c-0.363731,0.323011-0.833147,0.499315-1.318146,0.499315H6.05314
							c-0.486329,0-0.956483-0.177939-1.3211-0.501918C1.830316,11.024014-0.000007,7.25182-0.000007,3.049091
							c0-1.034993,0.11211-2.043588,0.322742-3.015004H27.62397V0.034161z"/>
					</g>
				</g>
				<path id="Fill-7" class="st6" d="M15.435484,26.928572c-0.774863,0-1.403226,0.623663-1.403226,1.392733
					c0,0.769318,0.628363,1.392981,1.403226,1.392981c0.774862,0,1.403225-0.623663,1.403225-1.392981
					C16.838709,27.552235,16.210346,26.928572,15.435484,26.928572 M11.651043,32.267857
					c-0.563702,0-1.020586,0.467674-1.020586,1.044598c0,0.577015,0.456884,1.044689,1.020586,1.044689
					c0.56361,0,1.020494-0.467674,1.020494-1.044689C12.671537,32.735531,12.214653,32.267857,11.651043,32.267857
					 M9.609962,27.567081c0,0.86524-0.685372,1.566895-1.530833,1.566895c-0.845369,0-1.530742-0.701654-1.530742-1.566895
					C6.548387,26.701653,7.23376,26,8.079129,26C8.92459,26,9.609962,26.701653,9.609962,27.567081"/>
				<path id="Fill-9" class="st7" d="M19.942669,30.642857c-0.680933,0-1.232992,0.555902-1.232992,1.241411
					c0,0.685659,0.552059,1.24156,1.232992,1.24156c0.681009,0,1.233141-0.555901,1.233141-1.24156
					C21.17581,31.198759,20.623678,30.642857,19.942669,30.642857"/>
			</g>
			<path id="Line-5-Copy-2" class="st8" d="M50.432564,11.567435L11.5613,50.438698"/>
		</g>
	</g>
</g>
</svg>
