<?xml version="1.0" encoding="UTF-8"?>
<svg width="24px" height="24px" viewBox="0 0 24 24" version="1.1" xmlns="http://www.w3.org/2000/svg" xmlns:xlink="http://www.w3.org/1999/xlink">
    <!-- Generator: Sketch 52.5 (67469) - http://www.bohemiancoding.com/sketch -->
    <title>ic-notification</title>
    <desc>Created with Sketch.</desc>
    <g id="ic-notification" stroke="none" stroke-width="1" fill="none" fill-rule="evenodd">
        <g>
            <rect id="boudning-box" fill-rule="nonzero" x="0" y="0" width="24" height="24"></rect>
            <path d="M19.414185,16.675964 L18.331543,15.593322 L18.331543,11.416381 C18.331543,8.728332 16.799744,6.327758 14.469116,5.159972 C14.100036,3.769835 12.830871,2.742553 11.326172,2.742553 C9.822144,2.742553 8.553406,3.76892 8.183655,5.158141 C5.852783,6.326049 4.320801,8.727294 4.320801,11.416381 L4.320801,15.593322 L3.238098,16.675964 L2.652344,17.26178 L2.652344,18.09021 L2.652344,18.924439 L2.652344,20.924439 L4.652344,20.924439 L7.503235,20.924439 C7.891235,22.680237 9.455139,24 11.326172,24 C13.196777,24 14.760986,22.680237 15.149048,20.924438 L18,20.924438 L20,20.924438 L20,18.924438 L20,18.09021 L20,17.26178 L19.414185,16.675964 Z M11.326172,22 C10.633789,22 10.025391,21.631836 9.687988,21.080078 L12.964843,21.080078 C12.626953,21.631836 12.018555,22 11.326172,22 Z M18,18.924438 L4.652344,18.924438 L4.652344,18.09021 L6.320801,16.421753 L6.320801,11.416382 C6.320801,9.084717 7.916687,7.130371 10.074829,6.573914 L10.074829,5.993896 C10.074829,5.303161 10.635437,4.742553 11.326172,4.742553 C12.016907,4.742553 12.577515,5.303161 12.577515,5.993896 L12.577515,6.575561 C14.735657,7.131957 16.331543,9.084716 16.331543,11.416381 L16.331543,16.421752 L18,18.09021 L18,18.924438 Z" fill="#E97000" fill-rule="nonzero"></path>
            <g id="ic-notification-text" stroke-width="1" fill-rule="evenodd" transform="translate(11.000000, 1.000000)">
                <circle id="Oval-6_1_" fill="#E97000" fill-rule="nonzero" cx="6" cy="6" r="6"></circle>
                <path d="M5.616,8.792 C5.471999,8.792 5.32,8.782667 5.16,8.764 C4.999999,8.745334 4.845334,8.72 4.696,8.688 C4.546666,8.656 4.410667,8.621333 4.288,8.584 C4.165333,8.546667 4.069334,8.512 4,8.48 L4.232,7.488 C4.370668,7.546667 4.547999,7.609333 4.764,7.676 C4.980001,7.742667 5.247998,7.776 5.568,7.776 C5.936002,7.776 6.205332,7.706667 6.376,7.568 C6.546668,7.429333 6.632,7.242668 6.632,7.008 C6.632,6.863999 6.601334,6.742667 6.54,6.644 C6.478666,6.545333 6.394667,6.465333 6.288,6.404 C6.181333,6.342666 6.054667,6.3 5.908,6.276 C5.761333,6.252 5.605334,6.24 5.44,6.24 L4.976,6.24 L4.976,5.28 L5.504,5.28 C5.621334,5.28 5.734666,5.269333 5.844,5.248 C5.953334,5.226666 6.050666,5.190667 6.136,5.14 C6.221334,5.089333 6.289333,5.02 6.34,4.932 C6.390667,4.843999 6.416,4.733334 6.416,4.6 C6.416,4.498666 6.394667,4.410667 6.352,4.336 C6.309333,4.261333 6.254667,4.2 6.188,4.152 C6.121333,4.104 6.044,4.068 5.956,4.044 C5.868,4.02 5.778667,4.008 5.688,4.008 C5.458665,4.008 5.246668,4.042667 5.052,4.112 C4.857332,4.181333 4.680001,4.266666 4.52,4.368 L4.096,3.496 C4.181333,3.442666 4.281333,3.386667 4.396,3.328 C4.510667,3.269333 4.637333,3.216 4.776,3.168 C4.914667,3.12 5.062666,3.08 5.22,3.048 C5.377334,3.016 5.543999,3 5.72,3 C6.045335,3 6.326666,3.038666 6.564,3.116 C6.801334,3.193334 6.997332,3.302666 7.152,3.444 C7.306668,3.585334 7.421333,3.750666 7.496,3.94 C7.570667,4.129334 7.608,4.335999 7.608,4.56 C7.608,4.778668 7.546667,4.990665 7.424,5.196 C7.301333,5.401334 7.136001,5.557333 6.928,5.664 C7.216002,5.781334 7.438666,5.955999 7.596,6.188 C7.753334,6.420001 7.832,6.698665 7.832,7.024 C7.832,7.280001 7.789334,7.515999 7.704,7.732 C7.618666,7.948001 7.485334,8.134666 7.304,8.292 C7.122666,8.449334 6.892002,8.572 6.612,8.66 C6.331999,8.748 6.000002,8.792 5.616,8.792 Z" id="Path" fill="#FFFFFF"></path>
            </g>
        </g>
    </g>
</svg>