<?xml version="1.0" encoding="UTF-8"?>
<svg width="24px" height="24px" viewBox="0 0 24 24" version="1.1" xmlns="http://www.w3.org/2000/svg" xmlns:xlink="http://www.w3.org/1999/xlink">
    <!-- Generator: Sketch 52.5 (67469) - http://www.bohemiancoding.com/sketch -->
    <title>ic-person</title>
    <desc>Created with Sketch.</desc>
    <g id="ic-person" stroke="none" stroke-width="1" fill="none" fill-rule="evenodd">
        <g>
            <g>
                <rect id="bounding-box" fill-rule="nonzero" x="0" y="0" width="24" height="24"></rect>
                <path d="M16.120239,12.710327 C17.682739,11.518188 18.695495,9.642212 18.695495,7.525085 C18.695495,3.921387 15.774109,1 12.17041,1 C8.566711,1 5.645325,3.921387 5.645325,7.525085 C5.645325,9.64215 6.65802,11.518188 8.22052,12.710327 C4.007446,14.326599 1,18.43512 1,23.25 L3.299805,23.25 C3.299805,18.297852 7.279297,14.268555 12.17041,14.268555 C17.062012,14.268555 21.040527,18.297852 21.040527,23.25 L23.341308,23.25 C23.341308,18.43512 20.333313,14.32666 16.120239,12.710327 Z M12.17041,3.299988 C14.500122,3.299988 16.395508,5.195374 16.395508,7.525086 C16.395508,9.854859 14.500122,11.750184 12.17041,11.750184 C9.840698,11.750184 7.945312,9.854858 7.945312,7.525085 C7.945312,5.195374 9.840698,3.299988 12.17041,3.299988 Z" id="Shape" fill="#E97000" fill-rule="nonzero"></path>
            </g>
        </g>
    </g>
</svg>