<svg xmlns="http://www.w3.org/2000/svg" viewBox="0 0 36.43 20.41">
  <defs>
    <style>
      .cls-1 {
        fill: #D7C88F;
      }
    </style>
  </defs>
  <title>natur02</title>
  <g id="Layer_2" data-name="Layer 2">
    <g id="Layer_1-2" data-name="Layer 1">
      <g>
        <path class="cls-1" d="M30.9,11.51c.1,1-1,.7-1.5.4-.3.7-.9,2.3-1.8,1.6-.4-.3-.2-.8-.7-1s-1,.3-1.5.5c.3.1.9-.4,1.2-.1s0,.7-.1,1c-.4.9-1.1,1.7-2.1,1.5a1.11,1.11,0,0,1-.9-.7c-.1-.3.2-.6.1-.8a6.89,6.89,0,0,0-.4-1c-.3-.6-.6-.6-1.2-.5.6.8.5,1-.5,1,.1.2.9,1.5.9,1.6-.2.4-.7-.1-.9-.2a3.56,3.56,0,0,1-2-2.3c-1.3,1.7-2.4-.6-3.8-.1a9.36,9.36,0,0,1-1.6.4c-.6.2-1.8.9-1.2-.5a2.55,2.55,0,0,1-2.2.4c.1.8-2.5,1.6-2.2.4-.6,0-2.9.1-1.7-.9.3-.2,2.9-1.6,2.6-.7.1,0,.1,0,.2-.1-.1-.2-.1-.4-.2-.6-.2.1-.3.4-.5.2,0-.3.3-.5.4-.7s0-.5,0-.7c.2-.4.2-.4.6-.3s.4.7,1,.3c.4-.3.4-1,.9-1.3-1.5-.8.3-.8.7-1.1a6.47,6.47,0,0,1,.8-.9c.2-.1.3-.1.5-.2a1.85,1.85,0,0,0,.2-.7c-.2-.1-1-.1-.9-.5s1.1-.5,1.4-.6c-.3-.4-1.1-1.4-.6-1.6.1-.1.3.2.5.1.4-.2.1-.1.3-.4a3.92,3.92,0,0,1,.8-1c.3-.2.4-.2.6-.5.1-.1.1-.8.2-.9.3-.1.5.5.8.7s.8.1,1.2.3c.1.1.3.4.5.4.4.1.6-.5.9,0,.2.2,0,1.1,0,1.4.5.1.9,0,1.4.4s.4.8.7,1.3.8,1.1,1.2,1.2a5,5,0,0,0,1.2.2c.7-.1.4-.6.9.2.3.4.4.8.9.9.8.2,2-.3,1.2,1.2.9.7,2.2.2,3.1,1.1a1.62,1.62,0,0,1-.9.5C29.8,10.31,30.9,10.81,30.9,11.51ZM26,9c0,.1.4.5.5.6,0-.3-.1-.5-.3-.4Zm-13.1.7c.4-.2.7,0,1.1.1-.1,0-1-.7-.8-.8s.7.4.9.5c-.1-.4-.1-.5-.4-.6s-.7-.1-.5.2C13,9.11,12.9,9.51,12.9,9.71Zm11.2-1.6c-.5-.8-1.5.1-1.9.4a1.53,1.53,0,0,0,1.3.2,1.61,1.61,0,0,0-.9-.3C22.9,8.21,24.5,8.71,24.1,8.11Zm-7.6-1.4c0-.3-.6-.4-.5-.7.6.2.6.9,1.2.5a7.64,7.64,0,0,1-.9-.9c.5-.2.9,1,1.2.4s-.8-.6-.8-1c.3.1.6.4.9.5.1-.7-.6-.8-1-.6a1.89,1.89,0,0,0-.9,2C15.9,6.81,16.5,7.31,16.5,6.71Zm-4,3.5c-.2.5.4.9.8,1.1a2.38,2.38,0,0,0,1.4-.3C14.4,10.41,12.9,9.31,12.5,10.21Zm-5.6,2.5c.5.7,2.9-.2,2.3-1.1A3.81,3.81,0,0,0,6.9,12.71ZM14.2,8a2.27,2.27,0,0,0-2.5,0C12.1,8.81,13.8,8.71,14.2,8Zm2.1-4.6c-.6-.4-1.5,0-2.2-.1C14.5,4.61,15.7,4.41,16.3,3.41ZM9.8,9.81c-.3.1,0,1.3.1,1.5.3.5.4.5.9.5C10.8,11.51,10.4,9.41,9.8,9.81Zm5.8-.5c.5-.1.6,1,1.2.8-.2-.3-.5-.6-.7-.9.1-.1.9,1,1.4.7-.3-.3-1.1-1.3-1.5-1.3a.65.65,0,0,0-.4,1C15.7,9.51,15.6,9.41,15.6,9.31Zm11.1,2.6a10.48,10.48,0,0,0-1.1-.8,7.54,7.54,0,0,1,1.3.6c.1-.8-1.2-1-1.6-1C24.9,11.31,26.3,12.11,26.7,11.91ZM15.3,5.81c-1.1-.6-1.2.7-1.2,1.5C14.6,6.91,15.3,6.51,15.3,5.81Zm-4.9,6.4c-.5-.5-1.4.8-1.4,1.3C9.3,13.51,10.9,12.81,10.4,12.21Zm.6.2c.2.6,1.5.1,1.6-.5C12.3,11.81,10.7,11.61,11,12.41Zm.8-3.3a2.84,2.84,0,0,0-.4,1.3c.3.4,1.2-1.1,1.2-1.5C12.2,8.81,12.1,8.71,11.8,9.11ZM24,14c.3.1,1.2,1.1,1.3.5.1-.4-.9-.4-.9-.7a3.38,3.38,0,0,1,1.2.6C26.1,13.71,24.4,13.31,24,14Zm4.8-3.3c.1,0,1.1.6,1.2.5.3-.4-.5-.7-.8-.8-.5-.2-.9-.1-.7.4a1.27,1.27,0,0,0,1.1.5C29.4,11.11,29.1,11,28.8,10.71Zm-1.7-1.1s.6.5.7.3-.8-.8-.9-.9c.4,0,.7.5,1,.7.5-.4-.8-1.2-1.1-1.3C26.8,9.11,26.7,9.21,27.1,9.61Zm-9.8-6.8c-.1-.7-.5-.8-1-1.1,0,.4.2,2.3,1,1.5a6,6,0,0,0-.8-.8C16.7,2.31,17.2,2.71,17.3,2.81Zm10.5,9.1a5.72,5.72,0,0,0,.8.7c.1-.6-.1-1.4-.8-1.5C27.4,11.81,27.5,11.51,27.8,11.91ZM15,3c.8.1,1.1-.6,1.1-1.3A1.63,1.63,0,0,0,15,3Zm.7,7.2c.3-.4-1-1.4-1.3-1.3C14.5,9.11,15.4,10.71,15.7,10.21Zm-2.1-5a1.92,1.92,0,0,0,1.8-.1A1.68,1.68,0,0,0,13.6,5.21Zm6.2,4.1c-.3,0-.3.5-.2.7a3.13,3.13,0,0,0,1,.5C20.5,10.31,20.3,9.31,19.8,9.31Zm-.6-5.6a1.42,1.42,0,0,0,1.6.6C20.6,4.21,19,3.11,19.2,3.71Zm-1.4,8.1c.4.4.8.9,1.3.6C18.6,11.81,18.5,11.51,17.8,11.81Zm-.9-4.2c.2.4,1,1.4,1.3.7C18,8.11,17.2,7.31,16.9,7.61Zm5.7,3.2c.1-.6-.5-.9-.8-1.2C21.5,10.31,22,10.51,22.6,10.81Zm-.9-.4c-.3.5.3.9.6,1.1C22.8,10.91,22.2,10.81,21.7,10.41Zm-3.4.8a1.27,1.27,0,0,0,.7-.4c-.2-.2-.5-.8-.8-.5A2.77,2.77,0,0,0,18.3,11.21ZM19.4,9c.1-.2,1.7.9,1.8.7C20.6,9.11,20,8.61,19.4,9Zm8.5,2.1.9.9c.1-.6-.1-.8-.5-1.2C28.2,10.91,28,11,27.9,11.11ZM16.2,8.21A3.78,3.78,0,0,1,15.3,7c-.4.5.2.9.6,1.2Zm11.2,3.7c.1.6.1,1.2.8.9C28.3,12.41,27.7,12.11,27.4,11.91ZM20,8.61a7.84,7.84,0,0,1,1.5,1C21.4,9.21,20.3,8.11,20,8.61Zm-6.1-1.8a.84.84,0,0,0-.8.6C13.8,7.51,13.9,7.61,13.9,6.81Zm4.6,4.7a5.72,5.72,0,0,1,.8.7C19.6,11.71,18.9,11.21,18.5,11.51Zm2.4-7.4c.2-.7-1.2-.7-1.4-.7A3.69,3.69,0,0,0,20.9,4.11Zm.8,5.2c.5-.9.3,0,.8-.5-.4-.2-.7-.4-1.1-.2A.91.91,0,0,0,21.7,9.31Zm3,5.5a1.21,1.21,0,0,0-.7-.7C23.5,14.81,24.2,15,24.7,14.81Zm-1.6-4.9c-.3.6.7,1,1.1,1.3-.2-.8-.7-.2-.8-1.2A.49.49,0,0,1,23.1,9.91Zm-4.7-.4c-.3-.5.6.1.7.2.2-.7-.4-.7-.8-.7C18.2,9.11,18.2,9.71,18.4,9.51ZM20,5.91a.8.8,0,0,0-1,.2C19.4,6.31,19.7,6.61,20,5.91Zm6.2,7.4c-.2-.2-1,.1-1.2.2a1.8,1.8,0,0,1,.9.4Zm-12-1.6a2.19,2.19,0,0,0-.9,1C13.7,12.81,14.2,12.21,14.2,11.71Zm5.7-3.9c-.4-.5-.8-.6-.8.1C19.6,8.21,19.6,8.11,19.9,7.81Zm.5-.5c-.4-.3-.6-.5-.9-.1C19.9,7.51,19.9,7.71,20.4,7.31ZM18,9.51c-.1-.1-1.2-.9-1.2-.6C17,9.11,17.6,9.91,18,9.51Zm3.5,4.4c-.4-.2-.8-.5-1.3-.7A1,1,0,0,0,21.5,13.91Zm2.7-4.4c.1.2.3.5.4.7C25.2,9.91,24.7,9.21,24.2,9.51Zm-.1,3.2a1.8,1.8,0,0,0-.3-1.2C23.6,12.31,23.6,12.31,24.1,12.71ZM20.6,11c.2-.2-.8-.8-.9-.8C19.6,10.51,20.4,11.21,20.6,11Zm-.3,1.8c-.2.2.9.8,1,.7C21.2,13.31,20.6,12.61,20.3,12.81Zm-1.9-5.1c.1-.5-.7-.7-1-.5A3.13,3.13,0,0,0,18.4,7.71Zm7.2.8c-.1-.2-.4-.7-.8-.7C25.4,8.21,24.8,8.61,25.6,8.51Zm-7.1,4.2a6,6,0,0,0-.8-.8c-.2.4.3.7.6.9C18.4,12.81,18.5,12.81,18.5,12.71Zm.8-6.2c-.2-.3-.6-.5-.8,0,.1.1.3.2.4.3A1.38,1.38,0,0,0,19.3,6.51Zm-8.2,4.7c.3-.2,0-.7,0-1.1C10.6,10.51,10.8,10.61,11.1,11.21Zm17.1-2c.4.1,1,.5,1.3.1C28.4,9.11,28.4,9.11,28.2,9.21Zm-4.9-1.5,1.1.3C24.4,7.41,23.6,7.51,23.3,7.71ZM19,10.41c.1-.7-.2-.7-.6-.4C18.6,10.31,18.8,10.31,19,10.41ZM17.1,2c-.1-.4-.4-.6-.6-.9,0,.1-.1.2-.1.4C16.6,1.71,16.9,1.81,17.1,2ZM25,7.21c0,.5.2.5.6.8C25.8,7.61,25.2,7.41,25,7.21Zm-4.2-2.3c0,.3,1,1,1.1.8C21.6,5.31,21.2,5.21,20.8,4.91Zm-6.1,3.7c.7.3.8.1.3-.4A1.38,1.38,0,0,1,14.7,8.61Zm2.4-1.2a7.46,7.46,0,0,0,1.2.7C18.5,7.81,17.3,7.31,17.1,7.41Zm3.4-.3c.2-.5-.1-.9-.5-.4A1.75,1.75,0,0,0,20.5,7.11Zm-2-1.6c.1-.5-.2-.6-.6-.7C17.9,5.31,18.2,5.31,18.5,5.51Zm1.8,0c0,.2.9,1,1,.9C21,6.11,20.6,5.41,20.3,5.51Zm4.4,6.6c-.1.4,0,.7.4.7C25.2,12.41,25,12.41,24.7,12.11Zm-2.5-5.8c.1-.2-1.2-.9-1.4-1A2.81,2.81,0,0,0,22.2,6.31Zm1.9.4c.1.1.3.2.4.3a1.7,1.7,0,0,0,.1-.7C24.5,6.41,24.3,6.51,24.1,6.71Zm-2.9,2.2c0-.1-.7-1.2-.9-.6A4.69,4.69,0,0,1,21.2,8.91Zm3.7,2.5c-.5.4,0,.7.3.8C25.4,12,24.9,11.81,24.9,11.41Zm-6-6.9a4.23,4.23,0,0,1,.7.5C19.7,4.41,19.2,4.41,18.9,4.51Zm-.9-.7c.2-.3,0-.5-.3-.7-.1.1-.1.2-.2.3A1.75,1.75,0,0,0,18,3.81Zm-.3-1.3c-.4.2.3.7.4.8C18.2,2.81,18,2.81,17.7,2.51Zm-.2,8.9c.1-.4.1-.3-.3-.6.3.5.2.5-.3.7C17.1,11.91,17.3,11.71,17.5,11.41Zm2.6.5c.3.2.4-.1.7-.3C20.3,11.31,20.4,11.41,20.1,11.91ZM26,12a2.41,2.41,0,0,0-.8-.6A.76.76,0,0,0,26,12Zm-10.4-.6c.2.6.4.5.7.1A2,2,0,0,0,15.6,11.41Zm3.3-6.7a1,1,0,0,0,.6.7C19.6,5.11,19.1,4.91,18.9,4.71ZM22.2,8c-.3-.3-.4-.4-.6-.2C21.8,8.11,22,8.21,22.2,8Zm-1.7,4.1c.4.2.4-.1.8-.3C21,11.61,20.7,11.91,20.5,12.11Zm-4.7-7.6c.2.3.4.2.6.1-.1-.1-.2-.2-.2-.3C16.1,4.41,16,4.41,15.8,4.51Zm5.4,2.3c.1-.2-.4-.5-.5-.5a1.27,1.27,0,0,1,.1.6C21,6.91,21.1,6.91,21.2,6.81Zm5.2.6c.3.3.4.5.7.1C26.9,7.51,26.7,7.41,26.4,7.41Zm-10.9,4.3c-.1.1-.1.2-.2.3C15.8,12.41,15.9,12.11,15.5,11.71Zm11.3-2.1c0,.3.2.5.6.5C27.3,9.91,27,9.81,26.8,9.61ZM15.6,8.51c0-.1-.6-.8-.6-.9V8A3.8,3.8,0,0,0,15.6,8.51Zm.2-1,.5.5C16.6,7.61,16,7.51,15.8,7.51Zm2.1-2.9.6.3C18.6,4.61,18.1,4.31,17.9,4.61Zm1.5-2.7c-.1,0-.5.1-.5.2C19.2,2.51,19.4,2.41,19.4,1.91Zm7.1,7.3a1,1,0,0,0-.5-.6C25.9,8.91,26.3,9,26.5,9.21Zm-.6-1.6s.7.4.7.3C26.5,7.61,26.1,7.41,25.9,7.61ZM22,9.31c-.1.2.1.8.4.6A2.09,2.09,0,0,0,22,9.31Zm-3.6-3.6c-.1-.1-.3-.2-.4-.3,0,.2.1.4.1.6C18.2,6,18.3,5.81,18.4,5.71Zm5.1,3.4c.3.4.5.2.8,0ZM21,14.21a4.35,4.35,0,0,0,.7.4C21.6,14.21,21.4,14.11,21,14.21Zm-6.1-3.5c.5.5.3.1.7.3C15.5,10.81,15.2,10.81,14.9,10.71Zm5.2-4.4a.9.9,0,0,0,.5-.1c-.1-.2-.2-.3-.4-.3A.6.6,0,0,1,20.1,6.31Zm-8.2,4.5c.1.1.6.6.7.5a4.35,4.35,0,0,1-.6-.7C12,10.71,11.9,10.71,11.9,10.81Zm16.5-1.5c0,.3.5.6.5.2A.76.76,0,0,1,28.4,9.31ZM21.9,7a.67.67,0,0,0,.7.3A.91.91,0,0,0,21.9,7Zm2,0c.2.1.3.2.5.2a.78.78,0,0,0-.4-.4C24,6.91,23.9,6.91,23.9,7Zm-9,5.5c.2.1.3,0,.5-.1,0-.1-.1-.2-.1-.3C15.1,12.21,15,12.41,14.9,12.51Zm8.3-5.2c0-.1-.5-.3-.6-.3C22.7,7.21,23,7.61,23.2,7.31Zm-8.1,2.9s-.4-.5-.5-.4.1.3.1.4C15,10.31,15.1,10.31,15.1,10.21Zm10.9-2c0,.2.2.3.5.4C26.4,8.31,26.3,8.41,26,8.21Zm-7.8-1.3.6.1S18.2,6.41,18.2,6.91Zm1.3-2.7a.89.89,0,0,0,.8.4A3,3,0,0,1,19.5,4.21Zm-7.3,7.2-.4-.4C11.8,11.41,11.9,11.41,12.2,11.41Zm13.5-2.3c0-.1-.1-.5-.4-.2C25.5,9.11,25.6,9.21,25.7,9.11Zm-2.1,4.2c0,.2.1.4.3.4C23.9,13.51,23.8,13.41,23.6,13.31Zm-4.1-1.7c.1-.2,0-.5-.3-.2C19.3,11.51,19.4,11.51,19.5,11.61Zm2.7-3.9s.6.4.5,0Zm-5.6-3.3c0-.1.1-.5,0-.5C16.3,4.11,16.3,4.21,16.6,4.41Zm0-3.8c0,.1-.1.7.2.5A.76.76,0,0,1,16.6.61Zm.8.6a1.42,1.42,0,0,0,.6.2C17.8,1.31,17.6,1.31,17.4,1.21Zm9.7,10.2c.1-.2-.3-.4-.3-.3ZM21,4.81c.1.1.3.2.4.3C21.3,4.81,21.2,4.81,21,4.81ZM23.6,11c-.1-.1-.2-.2-.3-.2a.37.37,0,0,0,.1.3A.35.35,0,0,1,23.6,11Zm2.3-3.2c.1.2.2.3.4.3A.54.54,0,0,0,25.9,7.81Zm-2.2-.7c-.1.3.3.3.3.2S23.8,7.21,23.7,7.11Zm-6.3,3.5c.1.1.2.1.2.2C17.7,10.61,17.7,10.61,17.4,10.61Zm-.4,1.3c0,.1.1.4.3.3ZM17.8,4c0-.1-.2-.2-.2-.3C17.7,3.91,17.7,4.11,17.8,4Zm7.2,9.1c-.1-.1-.1-.2-.2-.2v.3A.35.35,0,0,1,25,13.11Zm-7.4-.7c0,.2,0,.2.1.3C17.7,12.61,17.8,12.41,17.6,12.41Zm7.6-5.3-.2-.2C25,7.11,25,7.11,25.2,7.11Zm-3.5,4.1c0,.1.1.3.2.2Zm4.6-.4a.35.35,0,0,1,.2.1C26.4,10.71,26.4,10.71,26.3,10.81Zm-7-2.6c-.1-.2-.2-.2-.2-.1S19.2,8.31,19.3,8.21Zm-2.7.5c-.1-.1-.2-.1-.2,0S16.6,8.81,16.6,8.71Zm5,3a.1.1,0,0,0-.1-.1C21.5,11.71,21.5,11.81,21.6,11.71Z"/>
        <path class="cls-1" d="M28.8,15.61c-.1,0-.1.1-.2.1a3.63,3.63,0,0,1,.9-.8c.5-.4.7-.4,1,.1.2.3-.1.6.2.9s.7.2.9.3c.4.2,1.3.8,1.3,1.4,0,.8-1.1.9-1.6.7-.3-.1-.4-.5-.7-.6s-.2,0-.7.1c-1.2.4-1.9-1-1.3-2.2C28.8,15.71,28.8,15.71,28.8,15.61Zm2.8,2.2c-.1-.3-.4-.4-.6-.6.5.1.7.7,1.2.3-.2-.4-.6-.6-.9-.9a8.65,8.65,0,0,1,1,.7c.4-.2-.1-.5-.2-.6a2.35,2.35,0,0,0-1-.5c-.6.1-.4.4-.5,1C30.7,17.61,31.3,17.81,31.6,17.81Zm-2.4-2a1.14,1.14,0,0,1,.8.3c.1-.5-.4-.3-.3-.6.4,0,.5-.1.5-.5-.4-.1-1.1.8-1.3,1.2.3.2.7.4,1,.6C30.3,16.31,29.4,16.11,29.2,15.81Zm.5,1.2a1.15,1.15,0,0,0-.9-.6C28.8,16.91,29.2,17.41,29.7,17Zm-.5.3a2.18,2.18,0,0,0-.5-.3C28.9,17.41,28.8,17.51,29.2,17.31Z"/>
        <path class="cls-1" d="M12.4,16.41c0,.1.3.3.2.5s-.7,0-.9,0c-.6-.1-1-.4-1.6-.2-.3.1-.6.6-.9.7a2.54,2.54,0,0,1-1.2.2c-.5,0-.8.1-.9-.3s.6-1.2.9-1.4.8-.4,1.1-.6.4.2.5-.6C10.8,13.81,12,15.11,12.4,16.41Zm-2.7-.8c-.8-.5-2.2.9-2.2,1.7C7.8,17.21,10.8,16.31,9.7,15.61Zm.3-.7c-.5.9,1.4,1.7,2.1,1.4C11.8,15.81,10.6,13.71,10,14.91Z"/>
        <path class="cls-1" d="M20.6,19.71c-1-.9-.3-.9.5-1.2s1-.5,1.8-.2c1.1.4,1.5,1.5.3,2.1A5.09,5.09,0,0,1,20.6,19.71Zm2.8-.6c.2-.8-1.4-.7-1.7-.6s-1.1.6-.9.9l.3-.3a.9.9,0,0,1-.1.5s.5.3.6.1a1.69,1.69,0,0,0-.5-.2c.5-.2,1.1.4,1.6.2-.1-.3-1.1-.3-1.1-.5.5-.2,1.2.6,1.6.2-.2-.4-.9-.5-1.2-.7A2.3,2.3,0,0,1,23.4,19.11Z"/>
        <path class="cls-1" d="M24.4,16.61c.7-.2,1.9.5,2.5.9.9.6-.2,1-.9,1.2a4.22,4.22,0,0,1-1.9-.3.1.1,0,0,0,.1-.1C23.7,17.61,23.5,16.81,24.4,16.61Zm.1,1.1c.1-.3,1.2.4,1.4.1-.1-.3-.6-.4-.8-.6.5-.1.7.5,1.2.4a2.06,2.06,0,0,0-1.8-.8c-.8.3,0,1.3.6,1.1A.85.85,0,0,0,24.5,17.71Z"/>
        <path class="cls-1" d="M35.2,13.21a3.81,3.81,0,0,1-1.5-.5c-.5-.3-1.2-.8-.5-1.5.9-.9,3.9,1.1,3.1,1.9C35.8,13,35.6,13.21,35.2,13.21Zm.5-.9a1.7,1.7,0,0,0-1.6-.9c-.5,0-1.5.8-.6,1.1,0-.1-.1-.2-.2-.3.3,0,.5.3.8.3,0-.2-.2-.2-.2-.4.4.2.5.4.9.4a2.65,2.65,0,0,0-.5-.6c.2-.2.7.7,1.1.5,0,0-.5-.4-.4-.5h.2A2.73,2.73,0,0,1,35.7,12.31Z"/>
        <path class="cls-1" d="M19.2,15.41c-.4,2.3-4.2-1.2-3.3-1.7C16.7,14.11,19.6,13.31,19.2,15.41Zm-.4-.6c-.1-.5-1.1-.9-1.5-.9-.1,0-1.3.2-1.2.2C16.4,15.21,19.2,16.11,18.8,14.81Z"/>
        <path class="cls-1" d="M3.2,16.51c-.2,1.9-3.1.2-3.2-1.2C.7,15,3.3,14.91,3.2,16.51Zm-.7-.3c.5-1.3-2.2-.7-2.2-.6C.5,16.51,2.1,17.31,2.5,16.21Z"/>
        <path class="cls-1" d="M21.7,18.61c-.1.1-.3.2-.4.3C21.6,19,21.7,19,21.7,18.61Z"/>
      </g>
    </g>
  </g>
</svg>
