<?xml version="1.0" encoding="UTF-8"?>
<svg width="1440px" height="1844px" viewBox="0 0 1440 1844" version="1.1" xmlns="http://www.w3.org/2000/svg" xmlns:xlink="http://www.w3.org/1999/xlink">
    <!-- Generator: Sketch 52.2 (67145) - http://www.bohemiancoding.com/sketch -->
    <title>Fill 1 Copy 5</title>
    <desc>Created with Sketch.</desc>
    <g id="PRODUCTS" stroke="none" stroke-width="1" fill="none" fill-rule="evenodd">
        <g id="Product-Argeta-BlackOlives_05" transform="translate(0.000000, -466.000000)" fill="#FFFFFF" fill-rule="nonzero">
            <path d="M-186.864628,1128.88892 C-214.010577,1258.83265 -190.316642,1411.39715 -70.5849421,1490.60262 C43.8388219,1566.28929 208.607557,1551.87539 330.071451,1618.45912 C404.493914,1659.24207 455.890575,1727.85839 482.219919,1801.63268 C508.549262,1875.40698 511.568228,1954.27368 504.738436,2031.38099 C501.434895,2068.68886 495.916621,2106.49941 503.872339,2143.24996 C524.002904,2236.02789 629.976038,2300.75388 736.543066,2308.89517 C843.097722,2317.04738 947.883065,2279.06198 1038.39018,2228.71712 C1224.51439,2125.19706 1367.84104,1967.75872 1462.85187,1792.55159 C1557.85032,1617.34447 1606.50021,1424.67456 1627.6206,1231.31618 C1643.38356,1087.02411 1642.83916,935.628895 1572.77193,804.537731 C1506.41654,680.363932 1380.98097,584.799392 1238.13686,530.596976 C1105.85913,480.405103 946.880867,459.456307 794.286979,467.772443 C653.509126,475.454761 528.630336,493.890139 394.459564,537.765683 C315.285941,563.642965 239.787043,598.382779 171.006582,641.668216 C-11.9749323,756.83742 -146.108586,933.738367 -186.864628,1128.88892 Z" id="Fill-1-Copy-5" transform="translate(719.500000, 1388.000000) scale(-1, -1) translate(-719.500000, -1388.000000) "></path>
        </g>
    </g>
</svg>