<?xml version="1.0" encoding="UTF-8"?>
<svg width="423px" height="432px" viewBox="0 0 423 432" version="1.1" xmlns="http://www.w3.org/2000/svg" xmlns:xlink="http://www.w3.org/1999/xlink">
    <!-- Generator: Sketch 52.2 (67145) - http://www.bohemiancoding.com/sketch -->
    <title>planet-hero-slider-1</title>
    <desc>Created with Sketch.</desc>
    <defs>
        <linearGradient x1="14.7292788%" y1="1.71604046%" x2="50%" y2="100%" id="linearGradient-1">
            <stop stop-color="#FB9231" offset="0%"></stop>
            <stop stop-color="#E97000" offset="100%"></stop>
        </linearGradient>
        <path d="M751.520499,704.815813 C715.995416,687.263752 682.696885,639.00587 714.112074,587.814388 C747.792186,532.932182 622.666628,482.435621 638.370553,415.623065 C655.537393,342.586512 781.980369,293.534218 854.560066,343.043468 C927.139762,392.552718 918.734996,423.90489 946.083708,464.283959 C978.607587,512.303915 1042.34526,543.485785 1025.08934,610.180805 C1007.83341,676.875825 864.072141,760.424783 751.520499,704.815813 Z" id="path-2"></path>
        <filter x="-7.2%" y="-5.0%" width="114.3%" height="114.0%" filterUnits="objectBoundingBox" id="filter-3">
            <feOffset dx="0" dy="8" in="SourceAlpha" result="shadowOffsetOuter1"></feOffset>
            <feGaussianBlur stdDeviation="8" in="shadowOffsetOuter1" result="shadowBlurOuter1"></feGaussianBlur>
            <feColorMatrix values="0 0 0 0 0   0 0 0 0 0   0 0 0 0 0  0 0 0 0.1 0" type="matrix" in="shadowBlurOuter1"></feColorMatrix>
        </filter>
    </defs>
    <g id="LANDING" stroke="none" stroke-width="1" fill="none" fill-rule="evenodd">
        <g id="Landing-slide-taste-04" transform="translate(-621.000000, -315.000000)">
            <g id="planet-hero-slider-1">
                <use fill="black" fill-opacity="1" filter="url(#filter-3)" xlink:href="#path-2"></use>
                <use fill="url(#linearGradient-1)" fill-rule="evenodd" xlink:href="#path-2"></use>
            </g>
        </g>
    </g>
</svg>