<?xml version="1.0" encoding="UTF-8"?>
<svg width="802px" height="860px" viewBox="0 0 802 860" version="1.1" xmlns="http://www.w3.org/2000/svg" xmlns:xlink="http://www.w3.org/1999/xlink">
    <!-- Generator: Sketch 52.4 (67378) - http://www.bohemiancoding.com/sketch -->
    <title>planet-1-line</title>
    <desc>Created with Sketch.</desc>
    <defs>
        <linearGradient x1="14.7292788%" y1="1.71604046%" x2="50%" y2="100%" id="linearGradient-1">
            <stop stop-color="#FB9231" offset="0%"></stop>
            <stop stop-color="#E97000" offset="100%"></stop>
        </linearGradient>
    </defs>
    <g id="LINES" stroke="none" stroke-width="1" fill="none" fill-rule="evenodd">
        <g id="Line-Argeta_01" fill="url(#linearGradient-1)" fill-rule="nonzero">
            <path d="M334.131343,806.902174 C230.463518,755.650156 133.293127,614.737141 224.967627,465.258014 C316.680051,315.71705 4.87122576,176.355483 -1.70530257e-13,-0.0057981258 L801.942369,-0.0057981258 L801.942369,817.033751 C656.909177,870.258686 485.544822,881.759018 334.131343,806.902174 Z" id="planet-1-line" transform="translate(400.971184, 429.997101) scale(-1, 1) translate(-400.971184, -429.997101) "></path>
        </g>
    </g>
</svg>