<?xml version="1.0" encoding="UTF-8"?>
<svg width="101px" height="53px" viewBox="0 0 101 53" version="1.1" xmlns="http://www.w3.org/2000/svg" xmlns:xlink="http://www.w3.org/1999/xlink">
    <!-- Generator: Sketch 52.4 (67378) - http://www.bohemiancoding.com/sketch -->
    <title>badge-free-si-center-title</title>
    <desc>Created with Sketch.</desc>
    <g id="badge-free-si-center-title" stroke="none" stroke-width="1" fill="none" fill-rule="evenodd">
        <path d="M12.6718588,45.8602412 C12.3362118,45.9010059 12.0090353,45.9258882 11.6929765,45.9343588 L10.1163882,33.0950647 L10.7908588,33.0119471 C13.9450941,32.6683588 17.5255059,34.0003588 18.1105059,38.7671824 C18.6123882,42.8494765 16.6805647,45.3678882 12.6718588,45.8602412 Z M8.12950588,16.9120059 C8.41009412,16.8447706 8.76585882,16.7780647 9.20897647,16.7240647 C12.6422118,16.3021235 14.4353294,17.6865353 14.8519765,21.0821824 C15.2363294,24.2083588 13.2166235,26.8490647 10.1550353,27.2254765 L9.40697647,27.3170647 L8.12950588,16.9120059 Z M21.5892706,19.7978294 C21.2112706,16.7177118 19.9052118,14.2877118 17.8193294,12.7751824 C15.4470353,11.0281235 12.3044471,10.4224765 8.21050588,10.9254176 C5.83185882,11.2171235 3.62050588,11.7513 1.63732941,12.5125941 C1.10791765,12.7158882 0.785505882,13.2532412 0.854858824,13.8160059 L5.43056471,51.0834176 C5.50256471,51.6726529 5.98274118,52.1263588 6.57515294,52.1650059 C8.10568235,52.2655941 10.0036235,52.1671235 12.5495647,51.8542412 C17.5583294,51.2395941 21.0847412,49.4904176 23.0197412,46.6702412 C24.7318588,44.2508294 25.4222118,41.2231235 25.0161529,37.9190647 C24.4639765,33.4227706 22.0202118,30.1213588 18.3116824,28.6824176 C20.8126235,26.4472412 22.0159765,23.2750059 21.5892706,19.7978294 Z" id="Fill-123" fill="#E97000" fill-rule="nonzero"></path>
        <path d="M37.0609588,25.9261412 L36.4823118,25.9970824 L34.9740176,13.7110235 C35.2397824,13.6564941 35.5717235,13.6014353 35.9846647,13.5500824 C39.6863118,13.1424353 41.4810176,14.7232588 41.9866059,18.8389059 C42.4625471,22.7173765 40.5296647,25.4999647 37.0609588,25.9261412 M46.7444294,46.7389059 C47.0033118,47.1285529 47.4596647,47.3382 47.9244882,47.2815529 L52.3223118,46.7410235 C52.7336647,46.6912588 53.0931353,46.4366118 53.2779,46.0654941 C53.4621353,45.6927882 53.4473118,45.2539059 53.2387235,44.8954941 C52.6902529,43.9531412 51.5599588,41.0683765 50.0278412,35.7848471 C49.0897235,32.6502 47.7720176,29.4001412 45.1339588,27.8532 C48.0436059,25.3014353 49.2967235,21.7607294 48.7726059,17.4904941 C48.3480176,14.0344941 46.9980176,11.3673176 44.7294882,9.53925882 C42.3286059,7.7202 39.2151353,7.11878824 34.9311353,7.64449412 C32.5212529,7.93990588 30.2177824,8.50267059 28.4458412,9.22796471 C27.9301941,9.4392 27.6194294,9.96808235 27.6877235,10.5213176 L32.2846059,47.9576118 C32.3677235,48.6352588 32.9834294,49.1159647 33.6600176,49.0328471 L38.0011941,48.4997294 C38.6783118,48.4166118 39.1595471,47.8009059 39.0769588,47.1237882 L37.1917235,31.7740235 L37.6581353,31.7168471 C40.3051941,31.3912588 41.9214882,32.1557294 43.4011941,37.2280235 C44.8809,42.4252588 46.0059,45.6255529 46.7444294,46.7389059" id="Fill-125" fill="#E97000" fill-rule="nonzero"></path>
        <path d="M75.8760529,38.7700412 C75.7934647,38.0929235 75.1777588,37.6116882 74.5001118,37.6953353 L64.9013471,38.8738059 L63.4502294,27.0615706 L71.7540529,26.0419235 C72.4311706,25.9588059 72.9118765,25.3436294 72.8287588,24.6659824 L72.3792882,21.0013941 C72.2956412,20.3237471 71.6799353,19.8435706 71.0028176,19.9261588 L62.6995235,20.9458059 L61.4638765,10.8806294 L70.3871118,9.78527647 C71.0642294,9.70215882 71.5449353,9.08698235 71.4618176,8.40933529 L70.9980529,4.63251176 C70.9149353,3.95486471 70.2997588,3.47415882 69.6221118,3.55727647 L55.1326412,5.33662941 C54.4555235,5.41974706 53.9748176,6.03492353 54.0579353,6.71204118 L58.7236412,44.7116294 C58.8067588,45.3887471 59.4219353,45.8694529 60.0995824,45.7863353 L75.2651118,43.9243941 C75.9427588,43.8412765 76.4234647,43.2255706 76.3403471,42.5484529 L75.8760529,38.7700412 Z" id="Fill-127" fill="#E97000" fill-rule="nonzero"></path>
        <path d="M95.8241294,4.5594 L95.4641294,1.62857647 C95.3810118,0.950929412 94.7653059,0.470223529 94.0881882,0.553341176 L77.2862471,2.61645882 C76.6091294,2.69957647 76.1284235,3.31475294 76.2115412,3.9924 L76.6678941,7.71204706 C76.7515412,8.38916471 77.3667176,8.8704 78.0443647,8.78675294 L88.2344824,7.53575294 L79.5235412,39.0495176 C79.4796,39.2056941 79.4674235,39.3692824 79.4880706,39.5296941 L79.8057176,42.1227529 C79.8888353,42.7998706 80.5045412,43.2811059 81.1821882,43.1974588 L98.9974235,41.0104588 C99.6745412,40.9268118 100.155776,40.3116353 100.072129,39.6345176 L99.6152471,35.9138118 C99.5326588,35.2361647 98.9169529,34.7554588 98.2393059,34.8385765 L87.2566588,36.1869882 L95.7891882,5.03587059 C95.8320706,4.88022353 95.8437176,4.71875294 95.8241294,4.5594" id="Fill-129" fill="#E97000" fill-rule="nonzero"></path>
    </g>
</svg>