<?xml version="1.0" encoding="UTF-8"?>
<svg width="24px" height="24px" viewBox="0 0 24 24" version="1.1" xmlns="http://www.w3.org/2000/svg" xmlns:xlink="http://www.w3.org/1999/xlink">
    <!-- Generator: Sketch 52.4 (67378) - http://www.bohemiancoding.com/sketch -->
    <title>ic-bosnia-and-herzegovina</title>
    <desc>Created with Sketch.</desc>
    <g id="♥️-Icons" stroke="none" stroke-width="1" fill="none" fill-rule="evenodd">
        <g id="ic-bosnia-and-herzegovina">
            <g>
                <rect id="bounding-box" fill-rule="nonzero" x="0" y="0" width="24" height="24"></rect>
                <g id="bosnia-and-herzegovina" stroke-width="1" fill-rule="evenodd">
                    <circle id="Oval" fill="#F0F0F0" cx="12" cy="12" r="12"></circle>
                    <path d="M12,0 C7.74515625,0 4.0078125,2.21451563 1.8770625,5.55370313 L18.1501406,22.3054219 C21.6537188,20.2100156 24,16.3792031 24,12 C24,5.372625 18.627375,0 12,0 Z" id="Path" fill="#FFDA44"></path>
                    <g id="Group" transform="translate(0.000000, 3.890625)" fill="#0052B4">
                        <path d="M24,8.109375 C24,4.99584375 22.8141562,2.15953125 20.8695469,0.0268125 L20.8695469,16.1919844 C22.8141562,14.0592187 24,11.2229062 24,8.109375 Z" id="Path"></path>
                        <path d="M14.9901094,18.6971719 L16.2470625,18.696375 L16.6348125,17.5006406 L17.0239687,18.6959063 L17.6544375,18.6955313 C18.0410156,18.4885781 18.4149375,18.2611406 18.77475,18.0144844 L2.09479688,1.33457813 C1.81992188,1.73564063 1.56923437,2.15442188 1.3438125,2.58848438 L1.49203125,3.04373437 L2.74898437,3.0429375 L1.73254687,3.78239063 L2.12170312,4.97765625 L1.10432812,4.23946875 L0.49753125,4.68084375 C0.174046875,5.76721875 0,6.91795313 0,8.109375 C0,14.73675 5.372625,20.109375 12,20.109375 C13.4011875,20.109375 14.7460781,19.8688125 15.9960938,19.42725 L14.9901094,18.6971719 Z M2.67651562,7.58765625 L3.06417187,6.39196875 L2.04689062,5.6536875 L3.30384375,5.65289062 L3.69154687,4.45715625 L4.08070312,5.65242187 L5.33765625,5.651625 L4.32117187,6.39107813 L4.71032812,7.58634375 L3.69295312,6.84815625 L2.67651562,7.58765625 Z M5.2651875,10.1963438 L5.65284375,9.00065625 L4.6355625,8.262375 L5.89251563,8.26157812 L6.28021875,7.06584375 L6.669375,8.26110938 L7.92632813,8.2603125 L6.90989063,8.99976563 L7.29904688,10.1950313 L6.28167187,9.45684375 L5.2651875,10.1963438 Z M7.8538125,12.8050313 L8.24146875,11.6093438 L7.2241875,10.8710625 L8.48114063,10.8702656 L8.86884375,9.67453125 L9.258,10.8697969 L10.5149531,10.869 L9.49851562,11.6084531 L9.88767187,12.8037188 L8.87029687,12.0654375 L7.8538125,12.8050313 Z M11.4589219,14.6742656 L10.4424375,15.4137187 L10.8300937,14.2180312 L9.8128125,13.47975 L11.0697656,13.4789531 L11.4575156,12.2832187 L11.8466719,13.4784844 L13.103625,13.4776875 L12.0871875,14.2171406 L12.4763437,15.4124063 L11.4589219,14.6742656 Z M13.0311094,18.0224062 L13.4187656,16.8267188 L12.4014844,16.0884375 L13.6584375,16.0876406 L14.0461406,14.8919063 L14.4352969,16.0871719 L15.69225,16.086375 L14.6758125,16.8258281 L15.0649688,18.0210938 L14.0475938,17.2828125 L13.0311094,18.0224062 Z" id="Shape" fill-rule="nonzero"></path>
                    </g>
                </g>
            </g>
        </g>
    </g>
</svg>