<?xml version="1.0" encoding="UTF-8"?>
<svg width="24px" height="24px" viewBox="0 0 24 24" version="1.1" xmlns="http://www.w3.org/2000/svg" xmlns:xlink="http://www.w3.org/1999/xlink">
    <!-- Generator: Sketch 52.5 (67469) - http://www.bohemiancoding.com/sketch -->
    <title>ic-calendar</title>
    <desc>Created with Sketch.</desc>
    <g id="ic-calendar" stroke="none" stroke-width="1" fill="none" fill-rule="evenodd">
        <g>
            <g>
                <polygon id="Path" points="0 0 24 0 24 24 0 24"></polygon>
                <path d="M19.299988,3 L19.299988,0.75 L17,0.75 L17,3 L7.299988,3 L7.299988,0.75 L5,0.75 L5,3 L2.099976,3 L2.099976,23 L22.099976,23 L22.099976,3 L19.299988,3 Z M19.799988,5.299988 L19.799988,7.75 L4.400024,7.75 L4.400024,5.299988 L19.799988,5.299988 Z M4.400024,20.700012 L4.400024,10.049988 L19.799987,10.049988 L19.799987,20.700012 L4.400024,20.700012 Z" id="Shape" fill="#E97000" fill-rule="nonzero"></path>
            </g>
        </g>
    </g>
</svg>