<?xml version="1.0" encoding="UTF-8"?>
<svg width="24px" height="24px" viewBox="0 0 24 24" version="1.1" xmlns="http://www.w3.org/2000/svg" xmlns:xlink="http://www.w3.org/1999/xlink">
    <!-- Generator: Sketch 52.5 (67469) - http://www.bohemiancoding.com/sketch -->
    <title>ic-dropdown-up</title>
    <desc>Created with Sketch.</desc>
    <g id="ic-dropdown-up" stroke="none" stroke-width="1" fill="none" fill-rule="evenodd">
        <g id="ic-drop-down">
            <polygon id="Path" points="0 0 24 0 24 24 0 24"></polygon>
            <polygon id="Path" fill="#4A4A4A" transform="translate(12.000000, 11.500000) scale(1, -1) translate(-12.000000, -11.500000) " points="7 9 12 14 17 9"></polygon>
        </g>
    </g>
</svg>