<?xml version="1.0" encoding="UTF-8"?>
<svg width="24px" height="24px" viewBox="0 0 24 24" version="1.1" xmlns="http://www.w3.org/2000/svg" xmlns:xlink="http://www.w3.org/1999/xlink">
    <!-- Generator: Sketch 52.5 (67469) - http://www.bohemiancoding.com/sketch -->
    <title>ic-medal</title>
    <desc>Created with Sketch.</desc>
    <g id="ic-medal" stroke="none" stroke-width="1" fill="none" fill-rule="evenodd">
        <g>
            <g transform="translate(0.000000, -1.000000)">
                <rect id="bounding-box" fill-rule="nonzero" x="0" y="1" width="24" height="24"></rect>
                <path d="M20,8.945068 C20,4.526794 16.418274,0.945068 12,0.945068 C7.581726,0.945068 4,4.526794 4,8.945068 C4,11.417785 5.122986,13.62738 6.885498,15.094848 L5.912109,23.986572 L7.712402,25.054931 L12,22.068115 L16.287109,25.054931 L18.086914,23.982665 L17.086426,15.120055 C18.865723,13.652771 20,11.431396 20,8.945068 Z M6.299988,8.945068 C6.299988,5.802063 8.856995,3.245056 12,3.245056 C15.143005,3.245056 17.700012,5.802063 17.700012,8.945068 C17.700012,12.088073 15.143005,14.645081 12,14.645081 C8.856995,14.645081 6.299988,12.088074 6.299988,8.945068 Z M15.516602,21.715088 L12.657227,19.723389 L11.342774,19.723389 L8.473633,21.721924 L9.058777,16.379639 C9.970032,16.74054 10.960327,16.945069 12,16.945069 C13.029968,16.945069 14.011108,16.743592 14.915344,16.3891 L15.516602,21.715088 Z" id="Shape" fill="#E97000" fill-rule="nonzero"></path>
            </g>
        </g>
    </g>
</svg>