<?xml version="1.0" encoding="UTF-8"?>
<svg width="24px" height="24px" viewBox="0 0 24 24" version="1.1" xmlns="http://www.w3.org/2000/svg" xmlns:xlink="http://www.w3.org/1999/xlink">
    <!-- Generator: Sketch 52.5 (67469) - http://www.bohemiancoding.com/sketch -->
    <title>ic-phone</title>
    <desc>Created with Sketch.</desc>
    <g id="ic-phone" stroke="none" stroke-width="1" fill="none" fill-rule="evenodd">
        <g>
            <g>
                <rect id="bounding-box" fill-rule="nonzero" x="0" y="0" width="24" height="24"></rect>
                <path d="M21.823486,17.67572 C22.840332,18.702332 22.845276,20.052917 21.833374,21.119446 C21.621093,21.348694 20.253723,22.739136 20.248779,22.74408 C19.488586,23.576355 18.521118,24 17.361084,24 C17.252502,24 17.148804,23.994995 17.040222,23.990051 C15.297729,23.875366 13.73291,23.217529 12.562988,22.654419 C9.492615,21.154297 6.807312,19.026306 4.571167,16.335083 C2.734863,14.102417 1.49585,12.014283 0.671509,9.766602 C0.138367,8.311401 -0.06897,7.105347 0.019898,5.969055 C0.098878,5.057068 0.464173,4.269592 1.105897,3.621765 L2.858277,1.857544 C3.361756,1.36914 3.944214,1.11499 4.546448,1.11499 C5.153625,1.11499 5.726257,1.369141 6.210022,1.857544 C6.530823,2.156555 6.851685,2.490479 7.16272,2.809387 C7.320679,2.968872 7.478638,3.133362 7.641539,3.297791 L9.038512,4.708191 C10.094847,5.769714 10.094847,7.090393 9.038512,8.156921 C8.89038,8.306396 8.747252,8.455932 8.604064,8.600402 C8.21411,9.004088 7.809325,9.417723 7.374938,9.816466 C7.685912,10.544066 8.125243,11.251769 8.791686,12.098998 C10.114623,13.738585 11.496764,15.014403 13.022094,15.99121 C13.175109,16.085937 13.3479,16.175597 13.535461,16.270324 C13.683533,16.345031 13.836548,16.419799 13.98468,16.504516 L15.648193,14.825012 C16.146728,14.321716 16.729247,14.057556 17.336364,14.057556 C17.948486,14.057556 18.526061,14.32666 19.009765,14.835022 L21.823486,17.67572 Z M20.145691,19.556824 C20.215454,19.483093 20.254089,19.429138 20.274171,19.395202 C20.258485,19.371643 20.232179,19.337463 20.189393,19.29425 L17.375672,16.453552 C17.356385,16.433411 17.3396,16.416748 17.325196,16.402954 C17.312317,16.414306 17.297974,16.427734 17.282288,16.443603 L15.618775,18.123107 L14.375733,19.378051 L12.84253,18.500915 C12.755432,18.451111 12.665406,18.407165 12.577515,18.363037 L12.499024,18.323547 C12.292115,18.219116 12.051453,18.095336 11.811829,17.947082 C10.052307,16.820617 8.48877,15.386291 7.001648,13.543212 C6.185852,12.506347 5.654175,11.642638 5.26001,10.720336 L4.620117,9.223022 L5.819702,8.122009 C6.215881,7.758361 6.595276,7.369567 6.94989,7.002441 L7.170166,6.777466 L7.404419,6.53833 C7.446777,6.495544 7.476624,6.459717 7.497315,6.431823 C7.477174,6.40509 7.448487,6.371032 7.408204,6.330566 L6.007447,4.916381 L5.752198,4.656127 L5.528626,4.427978 L5.401001,4.297058 C5.151795,4.041016 4.897217,3.778015 4.641907,3.5401 L4.608277,3.508789 L4.575867,3.476074 C4.561828,3.461914 4.549316,3.450317 4.538452,3.440857 C4.5177,3.456055 4.491272,3.477783 4.459656,3.508422 L2.737671,5.242614 C2.475952,5.506835 2.34375,5.792785 2.31134,6.16748 C2.250793,6.942505 2.415466,7.84082 2.831115,8.975402 C3.564086,10.973938 4.681578,12.84851 6.347533,14.874084 C8.371947,17.310424 10.805297,19.235839 13.572631,20.587829 C14.539916,21.053405 15.837584,21.605957 17.191222,21.695007 C17.227416,21.696167 17.292724,21.700012 17.361083,21.700012 C17.870238,21.700012 18.225951,21.54834 18.550597,21.192932 L18.579528,21.161316 L18.609924,21.130371 C18.988342,20.745911 20.000733,19.713379 20.145691,19.556824 Z M17.295898,11.812988 L17.103515,10.679199 C16.943359,9.73291 16.495117,8.869629 15.808593,8.182617 C15.11914,7.496094 14.254882,7.047851 13.308593,6.888183 L12.174804,6.696777 L12.557616,4.429199 L13.691405,4.620605 C15.109374,4.859863 16.403319,5.528808 17.433593,6.554687 C18.461913,7.583496 19.130859,8.875976 19.371093,10.29541 L19.563476,11.429199 L17.295898,11.812988 Z M21.532227,10.660645 L21.34082,9.526855 C21.049804,7.809082 20.238281,6.242675 18.991211,4.996093 C17.742188,3.75 16.173828,2.937012 14.458008,2.646484 L13.323242,2.45459 L13.707031,0.187012 L14.84082,0.378907 C17.030273,0.749024 19.027343,1.783204 20.617187,3.369141 C22.204101,4.956055 23.238281,6.952149 23.608398,9.143067 L23.799804,10.276856 L21.532227,10.660645 Z" id="Combined-Shape" fill="#E97000" fill-rule="nonzero"></path>
            </g>
        </g>
    </g>
</svg>