<?xml version="1.0" encoding="UTF-8"?>
<svg width="150px" height="54px" viewBox="0 0 150 54" version="1.1" xmlns="http://www.w3.org/2000/svg" xmlns:xlink="http://www.w3.org/1999/xlink">
    <!-- Generator: Sketch 52.2 (67145) - http://www.bohemiancoding.com/sketch -->
    <title>logo-argeta-junior-white</title>
    <desc>Created with Sketch.</desc>
    <g id="Symbols" stroke="none" stroke-width="1" fill="none" fill-rule="evenodd">
        <g id="Header-Scroll-Junior" transform="translate(-50.000000, -12.000000)" fill-rule="nonzero">
            <g id="Header">
                <g>
                    <g id="Logo-/-ArgetaJunior-/-White" transform="translate(50.000000, 12.000000)">
                        <path d="M87.2000305,34.5910942 C86.3615686,34.2393204 85.4033265,34.4738362 85.2835463,35.4118998 C85.163766,36.4672213 84.3253042,46.1996309 88.8769541,46.4341468 C93.4286041,46.6686627 94.6264067,42.2128607 94.2670659,34.4738362 C94.2670659,34.4738362 92.3505817,34.3565783 91.5121199,34.4738362 C90.5538778,34.5910942 90.4340975,34.4738362 90.4340975,34.8256101 C90.4340975,35.1773839 91.6319001,42.3301187 88.5176133,42.2128607 C86.4813489,42.3301187 87.439591,34.7083521 87.2000305,34.5910942 Z" id="Shape" fill="#CB6015"></path>
                        <path d="M110.676962,38.9296382 C111.036303,36.2327054 111.156083,36.1154475 110.07806,35.8809316 C109.119818,35.7636737 106.245092,35.060126 106.125312,36.2327054 C106.005532,37.5225429 104.927509,42.9164084 104.927509,42.9164084 C104.927509,42.9164084 102.651684,34.5910942 101.933003,34.2393204 C101.214321,33.8875465 96.7824514,34.0048045 96.5428909,34.942868 C96.3033304,35.7636737 93.5483843,49.8346272 94.1472856,50.0691431 C94.746187,50.303659 100.49564,49.7173693 100.974761,49.2483375 C101.453882,48.6620478 99.8967382,42.0956028 99.8967382,42.0956028 C99.8967382,42.0956028 105.885751,50.0691431 107.323114,50.303659 C109.479159,50.7726908 110.557181,40.3367336 110.676962,38.9296382 Z" id="Shape" fill="#CB6015"></path>
                        <path d="M116.785755,35.2946419 C116.546195,32.714967 116.306634,32.832225 115.228612,33.0667409 C114.150589,33.1839988 112.833006,33.6530306 112.234105,33.7702886 C111.635204,33.7702886 111.156083,34.3565783 111.395643,35.4118998 C111.635204,36.4672213 112.234105,51.2417226 112.353885,52.0625282 C112.473666,52.8833338 112.593446,53.2351077 113.431908,53.2351077 C114.27037,53.2351077 117.264876,52.7660759 117.863777,52.7660759 C118.462679,52.7660759 118.582459,52.0625282 118.462679,50.420917 C118.462679,48.7793057 116.785755,35.2946419 116.785755,35.2946419 Z" id="Shape" fill="#CB6015"></path>
                        <path d="M140.981368,44.3235037 C144.215435,43.0336663 146.61104,39.6331859 143.975874,36.1154475 C141.340709,32.5977091 131.878068,35.060126 131.638508,35.7636737 C131.398947,36.3499634 130.320925,51.7107544 130.560485,52.53156 C130.680265,53.3523656 135.112135,53.0005918 136.789059,52.6488179 C137.50774,52.53156 136.908839,45.847857 136.908839,45.847857 C136.908839,45.847857 142.179171,52.0625282 143.257193,53.1178497 C144.335215,54.1731712 148.886865,51.4762385 149.485767,50.8899487 C150.204448,50.420917 140.981368,44.3235037 140.981368,44.3235037 Z M136.789059,41.509313 C136.789059,41.509313 136.309938,38.1088326 136.549498,38.1088326 C136.669279,38.1088326 140.142906,37.288027 140.142906,38.8123803 C140.142906,40.3367336 136.789059,41.509313 136.789059,41.509313 Z" id="Shape" fill="#CB6015"></path>
                        <path d="M126.727517,37.6398008 C123.852791,36.5844793 120.498943,38.4606064 119.18136,41.8610869 C117.863777,45.2615673 119.06158,48.8965637 121.936306,49.9518852 C124.811033,51.0072067 128.16488,49.1310795 129.482463,45.7305991 C130.800046,42.3301187 129.602243,38.6951223 126.727517,37.6398008 Z M123.61323,45.847857 C122.415427,45.847857 121.457185,44.7925355 121.576966,43.5026981 C121.576966,42.2128607 122.654988,41.1575392 123.852791,41.2747971 C125.050593,41.2747971 126.008835,42.3301187 125.889055,43.6199561 C125.769275,44.7925355 124.691252,45.847857 123.61323,45.847857 Z" id="Shape" fill="#CB6015"></path>
                        <path d="M83.0077213,34.5910942 C82.887941,34.1220624 82.2890397,34.0048045 80.6121161,34.1220624 C78.8154122,34.2393204 77.7373898,34.2393204 77.8571701,34.8256101 C78.4560714,36.9362531 79.0549727,39.8677018 79.1747529,42.2128607 C79.1747529,46.3168888 78.8154122,48.4275319 76.898928,47.6067262 C74.9824438,46.7859206 76.3000267,43.1509243 74.9824438,43.1509243 C73.6648609,43.1509243 70.6703544,44.7925355 72.2274978,48.075758 C73.7846412,51.3589805 83.1275016,54.9939769 84.0857437,46.3168888 C84.5648647,41.8610869 83.8461831,37.6398008 83.0077213,34.5910942 Z" id="Shape" fill="#CB6015"></path>
                        <path d="M126.727517,10.4359572 C125.290154,10.4359572 123.972571,9.26337777 123.972571,7.73902446 C123.972571,6.33192911 125.170373,5.0420917 126.727517,5.0420917 C128.16488,5.0420917 129.482463,6.21467116 129.482463,7.73902446 C129.362683,9.26337777 128.16488,10.4359572 126.727517,10.4359572 Z M126.727517,5.51112348 C125.529714,5.51112348 124.451692,6.44918705 124.451692,7.73902446 C124.451692,8.91160393 125.409934,9.96692545 126.727517,9.96692545 C127.925319,9.96692545 129.003342,9.02886187 129.003342,7.73902446 C128.883562,6.566445 127.925319,5.51112348 126.727517,5.51112348 Z M126.607737,6.44918705 C127.446198,6.44918705 127.925319,6.80096089 127.925319,7.26999268 C127.925319,7.62176652 127.685759,7.85628241 127.446198,8.0907983 L127.925319,8.67708803 C128.0451,8.79434598 128.16488,9.02886187 128.16488,9.02886187 L127.326418,9.02886187 L126.727517,8.20805625 L126.487956,8.20805625 L126.487956,8.67708803 C126.487956,8.79434598 126.487956,8.91160393 126.487956,9.02886187 L125.649494,9.02886187 C125.649494,8.91160393 125.649494,8.3253142 125.649494,8.0907983 L125.649494,7.26999268 C125.649494,7.03547678 125.649494,6.566445 125.649494,6.33192911 C125.769275,6.44918705 126.368176,6.44918705 126.607737,6.44918705 Z M126.607737,7.73902446 C126.847297,7.73902446 127.086858,7.62176652 127.086858,7.38725062 C127.086858,7.15273473 126.967077,7.03547678 126.607737,7.03547678 C126.487956,7.03547678 126.487956,7.03547678 126.368176,7.03547678 L126.368176,7.73902446 L126.607737,7.73902446 Z" id="Shape" fill="#FFFFFF"></path>
                        <path d="M21.8000076,22.1617519 L13.8945103,4.8075758 C12.816488,2.46241687 10.7802235,0.469031786 7.66593674,0 L5.6296723,4.45580196 C8.02527753,4.8075758 8.98351962,6.09741321 9.70220119,7.62176652 C9.22308015,8.79434598 8.50439858,10.2014413 7.78571701,11.9603105 L0,28.9627128 L5.74945256,28.9627128 C6.34835387,27.6728754 7.1868157,25.2104585 7.78571701,23.9206211 L16.7692366,23.9206211 L19.1648419,29.3144866 L25.1538549,29.0799707 C23.9560523,26.8520697 22.7582497,24.155137 21.8000076,22.1617519 Z M68.8736504,27.0865856 L68.8736504,23.8033631 C68.8736504,21.6927201 68.8736504,17.1196602 69.113211,15.8298228 C66.837386,15.9470807 65.7593636,15.9470807 63.1241979,15.9470807 C61.6868347,15.9470807 60.6088124,15.9470807 58.5725479,15.8298228 C58.5725479,17.0024022 58.5725479,18.4094976 58.5725479,19.8165929 C60.1296913,19.699335 60.9681532,19.699335 62.285736,19.699335 C63.2439781,19.699335 63.1241979,19.699335 63.9626597,19.699335 C63.9626597,20.1683668 63.9626597,21.1064304 63.9626597,21.4582042 L63.9626597,24.3896529 C62.8846374,24.8586846 61.6868347,25.0932005 60.2494716,25.0932005 C56.0571624,25.0932005 52.7033151,22.2790098 52.7033151,17.2369181 C52.7033151,13.0156321 55.9373822,9.61515161 60.8483729,9.61515161 C63.1241979,9.61515161 65.4000229,10.4359572 67.0769465,11.6085367 L68.5143097,7.15273473 C66.5978255,5.86289732 63.7230992,4.92483375 60.4890321,4.92483375 C52.5835349,4.92483375 46.9538626,10.5532152 46.9538626,17.8232079 C46.9538626,24.2723949 51.9846335,29.5490025 59.2912295,29.5490025 C63.2439781,29.6662604 66.2384847,28.7281969 68.8736504,27.0865856 Z M125.649494,22.1617519 L117.863777,5.15934964 L114.50993,5.51112348 C113.911029,7.38725062 112.952787,9.14611982 111.754984,11.9603105 L103.849487,29.0799707 L109.598939,29.0799707 C110.197841,27.7901333 111.036303,25.3277164 111.635204,24.037879 L120.618723,24.037879 L123.014329,29.4317446 L129.003342,29.1972287 C127.925319,26.8520697 126.607737,24.155137 125.649494,22.1617519 Z M100.7352,24.155137 L100.7352,12.1948264 C100.7352,11.7257946 100.7352,10.7877311 100.7352,10.0841834 C103.490146,10.0841834 105.52641,10.0841834 107.922016,10.2014413 C107.922016,8.3253142 108.041796,6.80096089 108.161576,5.39386554 C101.933003,5.51112348 95.9439896,5.62838143 90.4340975,5.62838143 C84.684645,5.62838143 78.6956319,5.62838143 72.9461793,5.39386554 C73.1857399,7.03547678 73.1857399,11.3740208 73.1857399,13.4846638 L73.1857399,20.9891724 C73.1857399,23.0998154 73.1857399,27.4383595 72.9461793,29.0799707 C75.3417846,28.9627128 78.2165108,28.8454548 80.9714569,28.8454548 C83.6066226,28.8454548 86.6011292,28.8454548 88.8769541,29.0799707 C88.8769541,27.4383595 88.9967344,25.9140062 89.1165147,24.5069108 C86.9604699,24.6241687 84.4450845,24.6241687 81.8099187,24.6241687 C80.8516766,24.6241687 79.7736542,24.6241687 78.6956319,24.6241687 C78.6956319,24.155137 78.6956319,23.4515893 78.6956319,22.9825575 L78.6956319,18.7612714 L86.9604699,18.7612714 C86.9604699,17.3541761 86.9604699,15.9470807 87.0802502,14.7745012 L78.8154122,14.7745012 L78.8154122,11.4912787 C78.8154122,11.022247 78.8154122,10.4359572 78.8154122,9.8496675 C81.3307976,9.8496675 84.0857437,9.8496675 86.4813489,9.8496675 C88.8769541,9.8496675 92.2308015,9.8496675 94.9857475,9.96692545 C95.1055277,11.7257946 95.1055277,13.8364377 95.1055277,15.0090171 L95.1055277,20.8719145 C95.1055277,23.0998154 94.9857475,27.3211015 94.8659672,28.9627128 L100.85498,28.9627128 C100.7352,28.0246492 100.7352,25.4449744 100.7352,24.155137 Z M26.3516576,9.8496675 L26.3516576,20.8719145 C26.3516576,23.0998154 26.3516576,27.3211015 26.112097,28.9627128 L31.9813299,28.9627128 C31.8615496,28.0246492 31.8615496,25.4449744 31.8615496,24.155137 L31.8615496,20.8719145 L34.7362759,20.8719145 C39.6472666,33.0667409 49.1099073,37.9915746 58.4527677,37.9915746 C62.1659558,37.9915746 65.8791439,37.170769 69.3527715,35.8809316 L67.9154083,32.2459353 C65.1604623,33.4185147 62.1659558,34.1220624 59.1714492,34.1220624 C51.6252928,34.1220624 43.959356,29.9007763 39.5274863,19.4648191 C42.5219929,17.9404658 44.1989165,15.8298228 44.1989165,12.5466003 C44.1989165,8.3253142 40.4857284,5.39386554 33.5384733,5.39386554 C31.9813299,5.39386554 27.3098997,5.62838143 25.9923168,5.62838143 C24.7945142,5.62838143 22.3989089,5.62838143 20.7219853,5.62838143 C20.8417655,7.15273473 20.9615458,8.67708803 20.8417655,10.0841834 C22.7582497,9.96692545 24.5549536,9.8496675 26.3516576,9.8496675 Z M34.6164956,17.0024022 L31.8615496,17.0024022 L31.8615496,11.6085367 C31.8615496,11.022247 31.8615496,10.4359572 31.8615496,9.73240955 L34.1373746,9.73240955 C37.3714416,9.73240955 38.8088048,11.022247 38.8088048,13.3674059 C38.928585,15.360791 37.2516614,17.0024022 34.6164956,17.0024022 Z M9.22308015,20.1683668 L12.2175867,12.6638582 L15.3318735,20.1683668 L9.22308015,20.1683668 Z M119.18136,20.1683668 L113.072567,20.1683668 L116.186854,12.6638582 L119.18136,20.1683668 Z" id="Shape" fill="#FFFFFF"></path>
                    </g>
                </g>
            </g>
        </g>
    </g>
</svg>