<?xml version="1.0" encoding="UTF-8"?>
<svg width="20px" height="24px" viewBox="0 0 20 24" version="1.1" xmlns="http://www.w3.org/2000/svg" xmlns:xlink="http://www.w3.org/1999/xlink">
    <!-- Generator: Sketch 51.2 (57519) - http://www.bohemiancoding.com/sketch -->
    <title>icons8-appointment_reminders</title>
    <desc>Created with Sketch.</desc>
    <defs></defs>
    <g id="Symbols" stroke="none" stroke-width="1" fill="none" fill-rule="evenodd">
        <g id="Section-/-Header" transform="translate(-1192.000000, -28.000000)" fill="#4E4E4E">
            <g id="#-Header">
                <g id="Notifications" transform="translate(1192.000000, 28.000000)">
                    <path d="M10,0 C8.95285714,0 8.0952381,0.857619048 8.0952381,1.9047619 C8.0952381,2.15047619 8.14380952,2.38857143 8.22904762,2.60428571 C5.55047619,3.3 3.80952381,5.62666667 3.80952381,8.57142857 C3.80952381,12.3009524 2.89428571,13.9990476 2.02380952,14.9552381 C1.58857143,15.4333333 1.15904762,15.7238095 0.788571429,15.9971429 C0.602857143,16.1328571 0.433333333,16.2685714 0.282857143,16.4433333 C0.131904762,16.6180952 0,16.867619 0,17.1428571 C0,17.797619 0.401904762,18.3538095 0.967142857,18.72 C1.53285714,19.0866667 2.2747619,19.3228571 3.16952381,19.5090476 C4.33047619,19.7490476 5.76285714,19.8752381 7.33619048,19.9404762 C7.21714286,20.2566667 7.14285714,20.5971429 7.14285714,20.952381 C7.14285714,22.5242857 8.42809524,23.8095238 10,23.8095238 C11.5719048,23.8095238 12.8571429,22.5242857 12.8571429,20.952381 C12.8571429,20.5952381 12.7847619,20.2547619 12.6638095,19.9404762 C14.2371429,19.8752381 15.6695238,19.7490476 16.8304762,19.5090476 C17.7252381,19.3228571 18.4671429,19.0866667 19.0328571,18.72 C19.5980952,18.3538095 20,17.797619 20,17.1428571 C20,16.867619 19.8680952,16.6180952 19.7171429,16.4433333 C19.5666667,16.2685714 19.3971429,16.1328571 19.2114286,15.9971429 C18.8409524,15.7238095 18.4114286,15.4333333 17.9761905,14.9552381 C17.1057143,13.9990476 16.1904762,12.3009524 16.1904762,8.57142857 C16.1904762,5.62857143 14.4457143,3.30380952 11.7709524,2.60428571 C11.8561905,2.38857143 11.9047619,2.15047619 11.9047619,1.9047619 C11.9047619,0.857619048 11.0471429,0 10,0 Z M10,0.952380952 C10.5319048,0.952380952 10.952381,1.37285714 10.952381,1.9047619 C10.952381,2.43666667 10.5319048,2.85714286 10,2.85714286 C9.46809524,2.85714286 9.04761905,2.43666667 9.04761905,1.9047619 C9.04761905,1.37285714 9.46809524,0.952380952 10,0.952380952 Z M11.1161905,3.42285714 C13.6552381,3.8747619 15.2380952,5.83714286 15.2380952,8.57142857 C15.2380952,12.4609524 16.227619,14.4585714 17.2619048,15.5952381 C17.7790476,16.162381 18.3019048,16.5180952 18.6457143,16.7709524 C18.8171429,16.8971429 18.9452381,17.0033333 19.0028571,17.0685714 C19.0604762,17.1333333 19.047619,17.1280952 19.047619,17.1428571 C19.047619,17.4404762 18.91,17.6580952 18.5119048,17.9166667 C18.1138095,18.1752381 17.4666667,18.4152381 16.6371429,18.5861905 C14.977619,18.9304762 12.6152381,19.047619 10,19.047619 C7.3847619,19.047619 5.02238095,18.9304762 3.36285714,18.5861905 C2.53333333,18.4152381 1.88619048,18.1752381 1.48809524,17.9166667 C1.09,17.6580952 0.952380952,17.4404762 0.952380952,17.1428571 C0.952380952,17.1280952 0.93952381,17.1333333 0.997142857,17.0685714 C1.0547619,17.0033333 1.18285714,16.8971429 1.35428571,16.7709524 C1.69809524,16.5180952 2.22095238,16.162381 2.73809524,15.5952381 C3.77238095,14.4585714 4.76190476,12.4609524 4.76190476,8.57142857 C4.76190476,5.83904762 6.34666667,3.89142857 8.88380952,3.43761905 C9.2,3.67 9.58142857,3.80952381 10,3.80952381 C10.422381,3.80952381 10.8,3.65904762 11.1161905,3.42285714 Z M8.36285714,19.9704762 C8.89714286,19.9814286 9.44,20 10,20 C10.56,20 11.1028571,19.9814286 11.6371429,19.9704762 C11.8061905,20.2566667 11.9047619,20.5952381 11.9047619,20.952381 C11.9047619,22.0109524 11.0585714,22.8571429 10,22.8571429 C8.94142857,22.8571429 8.0952381,22.0109524 8.0952381,20.952381 C8.0952381,20.5914286 8.19,20.2566667 8.36285714,19.9704762 Z" id="icons8-appointment_reminders"></path>
                </g>
            </g>
        </g>
    </g>
</svg>