<?xml version="1.0" encoding="UTF-8"?>
<svg width="380px" height="432px" viewBox="0 0 380 432" version="1.1" xmlns="http://www.w3.org/2000/svg" xmlns:xlink="http://www.w3.org/1999/xlink">
    <!-- Generator: Sketch 52.2 (67145) - http://www.bohemiancoding.com/sketch -->
    <title>planet-hero-slider-2</title>
    <desc>Created with Sketch.</desc>
    <defs>
        <linearGradient x1="14.7292788%" y1="1.71604046%" x2="50%" y2="100%" id="linearGradient-1">
            <stop stop-color="#FB9231" offset="0%"></stop>
            <stop stop-color="#E97000" offset="100%"></stop>
        </linearGradient>
        <path d="M717.507913,336.747255 C775.894072,309.831842 792.625384,345.998629 831.96822,357.273306 C871.311055,368.547982 904.448096,361.704054 934.688617,374.644537 C973.453508,391.232758 990.099673,428.194171 984.184059,474.603781 C978.268445,521.01339 957.951771,545.331208 931.804079,562.360244 C913.742515,574.121962 898.972991,597.860205 892.734583,619.603198 C886.496175,641.346191 891.212056,670.300188 885.344421,690.750909 C879.476786,711.20163 871.992575,728.957848 833.64224,726.825844 C795.291905,724.693839 704.264655,693.424675 679.342639,677.014076 C654.420622,660.603477 625.673451,638.807908 641.566966,601.427522 C657.460481,564.047135 679.12028,526.795479 673.872748,488.830781 C668.625217,450.866084 668.302038,359.430653 717.507913,336.747255 Z" id="path-2"></path>
        <filter x="-8.0%" y="-5.0%" width="116.1%" height="114.0%" filterUnits="objectBoundingBox" id="filter-3">
            <feOffset dx="0" dy="8" in="SourceAlpha" result="shadowOffsetOuter1"></feOffset>
            <feGaussianBlur stdDeviation="8" in="shadowOffsetOuter1" result="shadowBlurOuter1"></feGaussianBlur>
            <feColorMatrix values="0 0 0 0 0   0 0 0 0 0   0 0 0 0 0  0 0 0 0.1 0" type="matrix" in="shadowBlurOuter1"></feColorMatrix>
        </filter>
    </defs>
    <g id="LANDING" stroke="none" stroke-width="1" fill="none" fill-rule="evenodd">
        <g id="Landing-slide-inspiration-01" transform="translate(-621.000000, -319.000000)">
            <g id="planet-hero-slider-2" transform="translate(811.174174, 527.000000) scale(-1, 1) translate(-811.174174, -527.000000) ">
                <use fill="black" fill-opacity="1" filter="url(#filter-3)" xlink:href="#path-2"></use>
                <use fill="url(#linearGradient-1)" fill-rule="evenodd" xlink:href="#path-2"></use>
            </g>
        </g>
    </g>
</svg>