<?xml version="1.0" encoding="UTF-8"?>
<svg width="143px" height="144px" viewBox="0 0 143 144" version="1.1" xmlns="http://www.w3.org/2000/svg" xmlns:xlink="http://www.w3.org/1999/xlink">
    <!-- Generator: Sketch 52.4 (67378) - http://www.bohemiancoding.com/sketch -->
    <title>badge-free-slo</title>
    <desc>Created with Sketch.</desc>
    <g id="badge-free-slo" stroke="none" stroke-width="1" fill="none" fill-rule="evenodd">
        <g id="badge-free-slo-circle-text" fill="#FFFFFF" fill-rule="nonzero">
            <rect id="Rectangle" fill="none" x="0" y="0" width="143" height="144"></rect>
            <path d="M12.8794765,99.8742176 C13.6910647,99.4533353 14.6275941,99.7508647 15.0484765,100.567218 C15.4651235,101.374571 15.1649471,102.300512 14.3501824,102.721924 C14.1643588,102.821982 13.9674176,102.884982 13.7683588,102.908806 C13.5518294,102.935806 13.3331824,102.917276 13.1230059,102.852159 C12.7121824,102.725629 12.3723,102.434982 12.1663588,102.036335 C11.7502412,101.228982 12.0562412,100.299335 12.8794765,99.8742176 Z M14.8353353,94.4451529 C14.8708059,94.5425647 14.8210412,94.6495059 14.7241588,94.6844471 L5.34192353,98.1123882 C5.32868824,98.1176824 5.31439412,98.1203294 5.30062941,98.1219176 C5.26621765,98.1261529 5.23074706,98.1213882 5.19898235,98.1065647 C5.15398235,98.0853882 5.11904118,98.0478 5.1021,98.0012118 L4.71086471,96.9286235 C4.67539412,96.8317412 4.72515882,96.7248 4.82204118,96.6888 L8.61951176,95.3017412 C8.39768824,95.2731529 8.18062941,95.2472118 7.96833529,95.2233882 L3.99615882,94.6833882 C3.92733529,94.6738588 3.86962941,94.6272706 3.84580588,94.5626824 L3.41327647,93.3794471 C3.39051176,93.3164471 3.40268824,93.2465647 3.44504118,93.1957412 C3.48792353,93.1449176 3.55515882,93.1205647 3.62027647,93.1311529 L8.37651176,93.9469765 L12.8225118,89.6968588 C12.8680412,89.6534471 12.9331588,89.6365059 12.9935118,89.6502706 C13.0559824,89.6645647 13.1057471,89.7085059 13.1269235,89.7678 L13.5493941,90.9235059 C13.5753353,90.9939176 13.5562765,91.0733294 13.5012176,91.1241529 L9.95045294,94.4435647 L10.6328647,94.5663882 L14.2048059,93.2619176 C14.2524529,93.2449765 14.3027471,93.2470941 14.3477471,93.2677412 C14.3927471,93.2883882 14.4276882,93.3270353 14.4446294,93.3730941 L14.8353353,94.4451529 Z M3.4902,88.8790765 C3.60931765,89.3470765 4.07996471,89.6128412 4.89102353,89.6694882 C5.80055294,89.7330176 6.89167059,89.5175471 7.6482,89.3248412 C8.74302353,89.0458412 9.63984706,88.6927235 10.2423176,88.3051941 C10.9199647,87.8679 11.2021412,87.4051941 11.0814353,86.9292529 C10.9591412,86.4506647 10.4736706,86.1854294 9.63931765,86.1409588 C9.28249412,86.1224294 8.89496471,86.1451941 8.51061176,86.1928412 C7.92931765,86.2643118 7.35437647,86.3897824 6.89855294,86.5062529 C6.16796471,86.6920765 5.13667059,87.0129 4.37961176,87.4824882 C3.66543529,87.9256059 3.36684706,88.3957235 3.4902,88.8790765 Z M6.56872941,91.1179588 C5.59778824,91.2370765 4.7412,91.1941941 4.04661176,90.9866647 C3.02325882,90.6822529 2.35831765,90.0369 2.12537647,89.1199588 C1.67484706,87.3522529 3.29908235,85.8143118 6.46972941,85.0053706 C8.21625882,84.5606647 9.62555294,84.5045471 10.6589647,84.8396647 C11.5970824,85.1435471 12.2127882,85.7735471 12.4388471,86.6603118 C12.6622588,87.5375471 12.3790235,88.3840765 11.6198471,89.1099 C10.8506118,89.8447235 9.63878824,90.4276059 8.01825882,90.8405471 C7.51267059,90.9686647 7.02825882,91.0613118 6.56872941,91.1179588 Z M11.3104059,82.6068176 C11.2802294,82.6465235 11.2357588,82.6724647 11.1870529,82.6793471 L1.29075882,84.0584647 L1.28758235,84.0584647 C1.23940588,84.0648176 1.19122941,84.0515824 1.15258235,84.0229941 C1.11287647,83.9928176 1.08640588,83.9483471 1.08005294,83.8991118 L0.930758824,82.8275824 C0.919641176,82.7508176 0.9567,82.6761706 1.02340588,82.6391118 L5.40958235,80.1715235 C6.08034706,79.7967 6.85064118,79.3668176 7.59128824,78.9782294 C6.46734706,79.1852294 5.45617059,79.3472294 4.26393529,79.5124059 L0.725876471,80.0058176 C0.673464706,80.0074059 0.626876471,79.9999941 0.5877,79.9708765 C0.547994118,79.9401706 0.521523529,79.8962294 0.515170588,79.8469941 L0.374347059,78.8331706 C0.358994118,78.7309941 0.430994118,78.6367588 0.533170588,78.6229941 L10.4289353,77.2438765 L10.4321118,77.2438765 C10.5332294,77.2317 10.6253471,77.3015824 10.6396412,77.4032294 L10.7894647,78.4752882 C10.8005824,78.5515235 10.7635235,78.6261706 10.6968176,78.6642882 L6.20158235,81.2059941 C5.61552353,81.5379353 4.95058235,81.9069353 4.21999412,82.2732882 C5.12105294,82.1128765 6.14175882,81.9572294 7.57117059,81.7581706 L10.9911706,81.2817 C11.0885824,81.2848765 11.1881118,81.3383471 11.2018765,81.4410529 L11.3458765,82.4686412 C11.3527588,82.5178765 11.3400529,82.5671118 11.3104059,82.6068176 Z M0.362858824,76.4012118 C0.260152941,76.4049176 0.173329412,76.3249765 0.169094118,76.2217412 L-0.000317647059,71.8085647 C-0.00349411765,71.7053294 0.0743294118,71.6185059 0.179152941,71.6148 L0.949447059,71.5846235 C0.974329412,71.5835647 0.998682353,71.5878 1.02144706,71.5957412 L9.12356471,74.5652118 L9.00444706,71.4782118 C9.00285882,71.4284471 9.02085882,71.3808 9.05421176,71.3437412 C9.08756471,71.3082706 9.13732941,71.2876235 9.18391765,71.2844471 L10.1622706,71.2473882 C10.2649765,71.2431529 10.3518,71.3230941 10.3560353,71.4268588 L10.5349765,76.1063294 C10.5370941,76.1560941 10.5190941,76.2042706 10.4852118,76.2408 C10.4555647,76.2730941 10.4148,76.2937412 10.3708588,76.2990353 C10.3660941,76.3000941 10.3613294,76.3006235 10.3560353,76.3006235 L9.67468235,76.3260353 C9.6498,76.3270941 9.62544706,76.3233882 9.60215294,76.3149176 L1.41003529,73.2909176 L1.52015294,76.1698588 C1.52174118,76.2196235 1.50427059,76.2678 1.47038824,76.3043294 C1.43703529,76.3403294 1.39044706,76.3657412 1.34121176,76.3641529 L0.362858824,76.4012118 Z M0.211341176,69.7510059 C0.108635294,69.7457118 0.0292235294,69.6578294 0.0345176471,69.5551235 L0.223517647,65.7486529 C0.226164706,65.6999471 0.2484,65.6533588 0.285458824,65.6194765 C0.321988235,65.5866529 0.370694118,65.5691824 0.419929412,65.5713 L1.41204706,65.6210647 C1.51528235,65.6263588 1.59416471,65.7142412 1.5894,65.8169471 L1.46604706,68.2961824 L4.38045882,68.4412412 L4.4964,66.1255941 C4.50063529,66.0223588 4.58428235,65.9392412 4.69228235,65.9482412 L5.65422353,65.9964176 C5.75798824,66.0011824 5.83634118,66.0890647 5.83157647,66.1923 L5.71616471,68.5079471 L9.08957647,68.6768294 L9.22245882,66.0197118 C9.22404706,65.9704765 9.24681176,65.9238882 9.28334118,65.8905353 C9.3204,65.8577118 9.36910588,65.8402412 9.41834118,65.8423588 L10.4104588,65.8926529 C10.5136941,65.8979471 10.5920471,65.9858294 10.5878118,66.0885353 L10.3887529,70.0718294 C10.3839882,70.1639471 10.3135765,70.2375353 10.2246353,70.2481235 C10.2145765,70.2491824 10.2034588,70.2497118 10.1928706,70.2486529 L0.211341176,69.7510059 Z M1.92520588,62.0776059 L5.37379412,62.5821353 L5.41508824,62.2973118 C5.48602941,61.8187235 5.3775,61.3888412 5.10326471,61.0542529 C4.82479412,60.7159588 4.39385294,60.4951941 3.85755882,60.4168412 C2.72514706,60.2506059 2.12267647,60.6503118 1.95961765,61.6741941 C1.93685294,61.8303706 1.92573529,61.9690765 1.92520588,62.0776059 Z M0.7785,63.4413706 C0.695382353,63.4297235 0.630794118,63.3624882 0.620735294,63.2788412 C0.561441176,62.7939 0.578911765,62.1882529 0.667852941,61.5736059 C0.826147059,60.4967824 1.17608824,59.7826059 1.76902941,59.3262529 C2.3535,58.9048412 3.08355882,58.7571353 3.94702941,58.8836647 C5.10008824,59.0520176 5.88467647,59.6370176 6.28385294,60.6227824 C6.69679412,60.1007824 7.43691176,59.8604294 8.65985294,59.8297235 C10.1019706,59.8090765 10.9199118,59.7206647 11.2052647,59.6454882 C11.2656176,59.6296059 11.3312647,59.6449588 11.3773235,59.6867824 C11.4244412,59.7286059 11.4472059,59.7910765 11.4382059,59.8535471 L11.2703824,60.9970765 C11.2603235,61.0664294 11.2116176,61.1251941 11.1443824,61.1469 C10.8277941,61.2527824 9.95902941,61.3126059 8.56138235,61.3263706 C7.08855882,61.3544294 6.75608824,61.7604882 6.64702941,62.5074882 L6.60891176,62.7626647 L10.7351471,63.3656647 C10.8373235,63.3804882 10.9077353,63.4757824 10.8929118,63.5774294 L10.7287941,64.7071941 C10.7213824,64.7564294 10.6949118,64.8003706 10.6552059,64.8300176 C10.6287353,64.8496059 10.5985588,64.8617824 10.5662647,64.8654882 C10.5498529,64.8676059 10.5334412,64.8676059 10.5165,64.8654882 L0.7785,63.4413706 Z M1.67913529,56.9437941 C1.62301765,56.9427353 1.56901765,56.9152059 1.53513529,56.8696765 C1.50019412,56.8246765 1.48854706,56.7664412 1.50231176,56.7113824 L1.8009,55.5323824 C1.82260588,55.4471471 1.89937059,55.3878529 1.9899,55.3915588 L6.77154706,55.5948529 C7.69801765,55.6324412 8.65995882,55.6779706 9.57054706,55.7478529 C8.71025294,55.3788529 7.85366471,54.9696176 7.07278235,54.5953235 L7.00395882,54.5635588 L2.72472353,52.4993824 C2.64478235,52.4607353 2.60295882,52.3712647 2.62466471,52.2849706 L2.92378235,51.1070294 C2.93754706,51.0514412 2.97619412,51.0053824 3.02807647,50.9820882 C3.07942941,50.9587941 3.13925294,50.9598529 3.19007647,50.9868529 L12.3039,55.6991471 C12.3817235,55.7388529 12.4209,55.8267353 12.3997235,55.9109118 L12.1111941,57.0459706 C12.0921353,57.1211471 12.0286059,57.1756765 11.9529,57.1852059 C11.9444294,57.1862647 11.9349,57.1867941 11.9253706,57.1867941 L1.67913529,56.9437941 Z M10.1626412,48.7813235 L7.82687647,48.4462059 C7.39805294,48.3863824 6.93111176,48.3069706 6.48005294,48.2254412 C6.91628824,48.4716176 7.32446471,48.7082647 7.65958235,48.9099706 L9.67611176,50.1360882 L10.1626412,48.7813235 Z M12.7075235,53.7080294 L4.07281765,48.1846765 C3.99922941,48.1375588 3.96799412,48.0459706 3.99711176,47.9639118 L4.42275882,46.7780294 C4.45240588,46.6959706 4.53234706,46.6446176 4.62234706,46.6557353 L14.7785824,47.9369118 C14.8347,47.9432647 14.8844647,47.9760882 14.9146412,48.0242647 C14.9437588,48.0729706 14.9501118,48.1317353 14.9310529,48.1852059 L14.5509353,49.2456176 C14.5202294,49.3271471 14.4408176,49.3806176 14.3508176,49.3673824 L11.4554647,49.0031471 L10.8111706,50.8005 L13.2777,52.3596176 C13.3512882,52.4062059 13.3830529,52.4983235 13.3539353,52.5809118 L12.9838765,53.6132647 C12.9642882,53.6672647 12.9219353,53.7085588 12.8679353,53.7270882 C12.8562882,53.7313235 12.8430529,53.7334412 12.8303471,53.7350294 C12.7879941,53.7403235 12.7440529,53.7318529 12.7075235,53.7080294 Z M15.2158235,47.0545412 L6.24229412,42.6609529 C6.19729412,42.6392471 6.16288235,42.6000706 6.147,42.5540118 C6.13164706,42.5068941 6.13482353,42.4550118 6.156,42.4110706 L6.63194118,41.4390706 C6.66582353,41.3702471 6.73676471,41.3268353 6.81511765,41.3347765 L11.8302353,41.7440118 C12.5888824,41.8080706 13.4698235,41.8827176 14.3062941,41.9748353 C13.2591176,41.5179529 12.3315882,41.0870118 11.25,40.5576 L8.04070588,38.9857765 C7.99570588,38.9635412 7.96235294,38.9248941 7.94647059,38.8788353 C7.93005882,38.8317176 7.93323529,38.7798353 7.95494118,38.7353647 L8.40494118,37.8178941 C8.451,37.7247176 8.56270588,37.6866 8.65482353,37.7321294 L17.6288824,42.1251882 C17.6733529,42.1468941 17.7072353,42.1860706 17.7231176,42.2326588 C17.739,42.2792471 17.7363529,42.3311294 17.7146471,42.3750706 L17.2381765,43.3476 C17.2042941,43.4164235 17.1301765,43.4561294 17.0560588,43.4513647 L11.9075294,43.0437176 C11.2722353,42.9944824 10.5008824,42.9277765 9.66758824,42.8197765 C10.5003529,43.1898353 11.4342353,43.6318941 12.7339412,44.2682471 L15.8362941,45.7866 C15.8812941,45.8083059 15.9146471,45.8480118 15.9310588,45.8940706 C15.9469412,45.9406588 15.9437647,45.9925412 15.9220588,46.0370118 L15.4657059,46.9687765 C15.4365882,47.0275412 15.381,47.0651294 15.3201176,47.0720118 C15.2857059,47.0767765 15.2491765,47.0709529 15.2158235,47.0545412 Z M11.9080588,37.1332059 C10.5040588,36.2591471 10.1366471,34.6613824 11.0154706,33.2499706 C11.3717647,32.6797941 11.862,32.2933235 12.1658824,32.1757941 C12.2378824,32.1450882 12.3204706,32.1667941 12.3723529,32.2245 L13.0542353,32.9799706 C13.0944706,33.0255 13.1108824,33.0874412 13.0981765,33.1462059 C13.0844118,33.2055 13.0436471,33.2547353 12.9880588,33.2780294 C12.8408824,33.3399706 12.465,33.5374412 12.1579412,34.0308529 C11.7037059,34.7598529 12.0404118,35.4311471 12.5449412,35.7456176 C13.2898235,36.2083235 13.7758235,36.0383824 14.8997647,35.5751471 C16.2921176,34.9864412 17.4118235,35.0049706 18.4267059,35.6370882 C19.9196471,36.5677941 20.3135294,38.2597941 19.3838824,39.7532647 C18.9963529,40.3742647 18.3938824,40.8930882 18.0354706,41.0349706 C18.0211765,41.0413235 18.0052941,41.0450294 17.9894118,41.0466176 C17.9322353,41.0535 17.8734706,41.0339118 17.8316471,40.9905 L17.1349412,40.2593824 C17.0931176,40.2159706 17.0751176,40.1550882 17.0862353,40.0957941 C17.0978824,40.0365 17.1365294,39.9867353 17.1910588,39.9613235 C17.5468235,39.7956176 17.9756471,39.4006765 18.2112353,39.0232059 C18.6914118,38.2518529 18.5008235,37.4683235 17.7146471,36.9775588 C17.0137059,36.5413235 16.3434706,36.6604412 15.4217647,37.0167353 C13.9478824,37.6477941 12.798,37.6869706 11.9080588,37.1332059 Z M15.8719235,28.6657412 C15.5775706,29.0485059 15.6596294,29.5826824 16.1149235,30.2566235 C16.6252765,31.0110353 17.4691588,31.7368588 18.0880412,32.2128 C20.0309824,33.7099765 21.5281588,34.1684471 22.0909235,33.4368 C22.3921588,33.0445059 22.3021588,32.4992118 21.8214529,31.8146824 C21.3063353,31.0809176 20.4613941,30.3598588 19.8430412,29.8833882 C19.2559235,29.4307412 17.5459235,28.2019765 16.4828647,28.3322118 C16.2372176,28.3623882 16.0270412,28.4645647 15.8719235,28.6657412 Z M17.1234529,33.4389176 C15.8364529,32.4478588 14.9491588,31.3985647 14.5568647,30.4043294 C14.1656294,29.4111529 14.2635706,28.4905059 14.8411588,27.7408588 C15.9545118,26.2945059 18.1669235,26.6243294 20.7589235,28.6207412 C22.1867471,29.7203294 23.1005118,30.7945059 23.4742765,31.8141529 C23.8146882,32.7406235 23.6987471,33.6125647 23.1402176,34.3378588 C22.7458059,34.8498 22.2158647,35.1415059 21.5816294,35.2198588 C20.3946882,35.3654471 18.8408647,34.7619176 17.1234529,33.4389176 Z M26.5909765,29.8378059 L17.7799765,24.6098647 C17.7312706,24.5807471 17.6979176,24.5315118 17.6905059,24.4748647 C17.6825647,24.4187471 17.7005647,24.3615706 17.7397412,24.3202765 L18.5772706,23.4393353 C18.6381529,23.3758059 18.7355647,23.3625706 18.8112706,23.4086294 L22.8787412,25.9270412 C23.6257412,26.3876294 24.4532118,26.9027471 25.2425647,27.4295118 C24.6798,26.6946882 24.1398,25.9286294 23.6463882,25.2282176 L20.8675059,21.2470412 C20.8166824,21.1745118 20.8240941,21.0760412 20.8855059,21.0119824 L21.7219765,20.1315706 C21.7616824,20.0902765 21.8172706,20.0685706 21.8744471,20.0743941 C21.9310941,20.0791588 21.9824471,20.1098647 22.0136824,20.1580412 L27.6498,28.7265706 C27.6974471,28.7985706 27.6884471,28.8949235 27.6291529,28.9579235 L26.8223294,29.8055118 C26.7910941,29.8383353 26.7513882,29.8573941 26.7095647,29.8626882 C26.6688,29.8674529 26.6275059,29.8595118 26.5909765,29.8378059 Z M30.2337529,22.6121294 C29.8139294,22.5708353 29.4274588,22.3580118 29.1442235,22.0112471 C28.8599294,21.6745412 28.7249294,21.2573647 28.7641059,20.8370118 C28.8038118,20.4092471 29.0166353,20.0174824 29.3649882,19.7337176 C29.7016941,19.4594824 30.1162235,19.3329529 30.5296941,19.3737176 C30.9511059,19.4166 31.3412824,19.6336588 31.6276941,19.9857176 C32.2074,20.6972471 32.1078706,21.6703059 31.3968706,22.2500118 C31.1522824,22.4490706 30.8674588,22.5713647 30.5709882,22.6078941 C30.4598118,22.6216588 30.3465176,22.6232471 30.2337529,22.6121294 Z M39.8360647,14.9299941 C41.4745941,17.5892294 40.5491824,18.9307588 39.4845353,19.5867 C39.1187118,19.8127588 38.7534176,19.9477588 38.3923588,19.9917 C38.0461235,20.0345824 37.7025353,19.9927588 37.3647706,19.8672882 C36.6394765,19.5967588 35.9448882,18.9291706 35.3005941,17.8814647 L31.8096529,12.2162294 C31.7530059,12.1251706 31.7815941,12.0071118 31.8721235,11.9504647 L32.8435941,11.3517 C32.8875353,11.3236412 32.9399471,11.3167588 32.9891824,11.3278765 C33.0394765,11.3400529 33.0823588,11.3712882 33.1088294,11.4141706 L36.6235941,17.1185824 C37.3923,18.3669353 38.1160059,18.7888765 38.7788294,18.3844059 C39.0287118,18.2303471 39.7873588,17.7623471 38.6290059,15.8824059 L35.1153,10.1785235 C35.0597118,10.0879941 35.0872412,9.96940588 35.1777706,9.91328824 L36.1492412,9.31505294 C36.2413588,9.25893529 36.3588882,9.28699412 36.4150059,9.37752353 L39.8360647,14.9299941 Z M42.5979,17.2756588 L39.0243706,7.92624706 C38.9878412,7.83095294 39.0317824,7.72401176 39.1244294,7.68165882 L40.2467824,7.17501176 C40.3283118,7.13901176 40.4214882,7.16177647 40.4760176,7.23007059 L43.4232529,10.9094824 C44.0384294,11.6739529 44.5577824,12.3198353 45.0564882,12.9953647 C44.8733118,12.2128941 44.7234882,11.4394235 44.5281353,10.4123647 L43.6752529,5.78689412 C43.6593706,5.70007059 43.7049,5.61324706 43.7853706,5.57618824 L44.9469,5.05154118 C45.0416647,5.00865882 45.1501941,5.04730588 45.1973118,5.13783529 L49.8370765,14.0044235 C49.8619588,14.0515412 49.8661941,14.1066 49.8481941,14.1568941 C49.8312529,14.2071882 49.7941941,14.2479529 49.7454882,14.2696588 L48.7740176,14.7090706 C48.6797824,14.7540706 48.5696647,14.7133059 48.5230765,14.6211882 L46.5631941,10.7903647 C46.1989588,10.0888941 45.8273118,9.36889412 45.4969588,8.68542353 C45.6361941,9.36518824 45.7590176,10.0253647 45.8649,10.6611882 L46.6717235,15.4359529 C46.6865471,15.5227765 46.6410176,15.6085412 46.5605471,15.6440118 L45.8982529,15.9426 C45.8188412,15.9801882 45.7246059,15.9568941 45.6690176,15.8880706 L42.7530176,12.2769529 C42.3114882,11.7247765 41.8588412,11.1514235 41.4252529,10.5727765 C41.6984294,11.2281882 41.9795471,11.9264824 42.2696647,12.6464824 L43.8886059,16.7134235 C43.9267235,16.8097765 43.8827824,16.9188353 43.7890765,16.9611882 L42.8573118,17.3820706 C42.8393118,17.3905412 42.8202529,17.3958353 42.8017235,17.3979529 C42.7689,17.4016588 42.7355471,17.3974235 42.7043118,17.3847176 C42.6550765,17.3651294 42.6169588,17.3254235 42.5979,17.2756588 Z M51.1605,13.7874176 C51.1149706,13.7641235 51.0810882,13.7233588 51.0652059,13.6741235 L48.0496765,4.15265294 C48.0173824,4.05100588 48.0740294,3.94247647 48.1756765,3.91018235 L51.8063824,2.7603 C51.8535,2.74547647 51.9075,2.74918235 51.9530294,2.77300588 C51.9985588,2.7963 52.0324412,2.83706471 52.0483235,2.8863 L52.3479706,3.83288824 C52.3802647,3.93453529 52.3236176,4.04253529 52.2219706,4.07482941 L49.8634412,4.82182941 L50.7396176,7.59065294 L52.9435588,6.89235882 C53.0467941,6.85900588 53.1537353,6.91618235 53.1860294,7.01782941 L53.4772059,7.93635882 C53.4925588,7.98559412 53.4877941,8.03853529 53.4650294,8.08406471 C53.4412059,8.12906471 53.4004412,8.16347647 53.3517353,8.17882941 L51.1472647,8.87606471 L52.1632059,12.0827118 L54.6916765,11.2822412 C54.7393235,11.2663588 54.7927941,11.2711235 54.8388529,11.2944176 C54.8843824,11.3182412 54.9187941,11.3584765 54.9341471,11.4077118 L55.2332647,12.3543 C55.2655588,12.4554176 55.2089118,12.5639471 55.1072647,12.5967706 L51.3071471,13.8001235 C51.2965588,13.8033 51.2843824,13.8059471 51.2727353,13.8075353 C51.2346176,13.8123 51.1954412,13.8054176 51.1605,13.7874176 Z M53.8954941,3.63758824 C53.7853765,3.66829412 53.6879647,3.59470588 53.6652,3.49147059 L53.4444353,2.493 C53.4211412,2.38923529 53.4867882,2.28547059 53.5910824,2.26270588 L58.2657882,1.22611765 C58.3642588,1.19064706 58.4727882,1.26794118 58.4950235,1.37276471 L58.7168471,2.37070588 C58.7401412,2.475 58.6744941,2.57823529 58.5707294,2.601 L56.9782588,2.95464706 L58.8788471,11.5226471 C58.8904941,11.5724118 58.8814941,11.6248235 58.8534353,11.6677059 C58.8259059,11.7111176 58.7824941,11.7418235 58.7332588,11.7524118 L57.6177882,11.9991176 C57.6119647,12.0012353 57.6050824,12.0017647 57.5992588,12.0028235 C57.5018471,12.0144706 57.4092,11.9509412 57.3880235,11.853 L55.4879647,3.28552941 L53.8954941,3.63758824 Z M65.5802471,0.241941176 C65.6310706,0.235588235 65.6813647,0.250411765 65.7221294,0.281647059 C65.7628941,0.313941176 65.7888353,0.36 65.7941294,0.410823529 L66.9662471,10.3335882 C66.9726,10.3838824 66.9583059,10.4347059 66.9265412,10.4749412 C66.8947765,10.5146471 66.8487176,10.5405882 66.7984235,10.5469412 C66.7978941,10.5469412 66.7978941,10.5469412 66.7973647,10.5474706 L65.7231882,10.674 C65.6443059,10.683 65.5686,10.6432941 65.5304824,10.5739412 L63.0824824,6.02735294 C62.7680118,5.44447059 62.4191294,4.78535294 62.0744824,4.06164706 C62.2131882,4.95423529 62.3460706,5.96858824 62.5128353,7.38052941 L62.9178353,10.8116471 C62.9236588,10.8624706 62.9093647,10.9127647 62.8781294,10.953 C62.8458353,10.9932353 62.8018941,11.0313529 62.7484235,11.0255294 L61.7181882,11.1467647 C61.6123059,11.1594706 61.5164824,11.0837647 61.5043059,10.9773529 L60.3316588,1.05564706 C60.3253059,1.00429412 60.3401294,0.954 60.3713647,0.913764706 C60.4036588,0.873 60.4693059,0.849176471 60.5005412,0.841764706 L61.5763059,0.715235294 C61.6546588,0.705705882 61.7308941,0.744882353 61.7684824,0.815294118 L64.1434235,5.25176471 C64.4981294,5.91935294 64.9052471,6.68488235 65.2737176,7.42341176 C65.0921294,6.30476471 64.9534235,5.30152941 64.8147176,4.12358824 L64.3959529,0.576 C64.3832471,0.470647059 64.4584235,0.374823529 64.5637765,0.362117647 L64.5648353,0.362117647 L65.5802471,0.241941176 Z M68.7138353,10.4770588 C68.6074235,10.4807647 68.5179529,10.3976471 68.5137176,10.2907059 L68.1505412,0.309705882 C68.1468353,0.203294118 68.2204235,0.106411765 68.3363647,0.109588235 L69.4767176,0.0682941176 C69.5286,0.0667058824 69.5783647,0.0847058824 69.6148941,0.120176471 C69.6524824,0.154588235 69.6747176,0.202764706 69.6768353,0.253588235 L70.0394824,10.2356471 C70.0431882,10.3357059 69.9685412,10.422 69.8700706,10.4341765 C69.8647765,10.4347059 69.8594824,10.4352353 69.8531294,10.4352353 L68.7138353,10.4770588 Z M71.8334471,10.3632882 C71.7826235,10.3606412 71.7344471,10.3384059 71.7000353,10.3002882 C71.6656235,10.2627 71.6476235,10.2124059 71.6497412,10.1610529 L72.1124471,0.183229412 C72.1172118,0.0768176471 72.2008588,-0.000476470588 72.3146824,5.29411764e-05 L73.4550353,0.0524647059 C73.5053294,0.0551117647 73.5535059,0.0773470588 73.5879176,0.115464706 C73.6228588,0.153582353 73.6403294,0.203347059 73.6382118,0.2547 L73.4486824,4.34017059 L75.8612118,4.45187647 L76.0507412,0.365876471 C76.0555059,0.260523529 76.1386235,0.178994118 76.2529765,0.1827 L77.3928,0.235111765 C77.4436235,0.237758824 77.4918,0.259994118 77.5262118,0.298111765 C77.5606235,0.336229412 77.5786235,0.385994118 77.5765059,0.437347059 L77.1132706,10.4151706 C77.1090353,10.5099353 77.0359765,10.5861706 76.9438588,10.5967588 C76.9338,10.5983471 76.9226824,10.5983471 76.9115647,10.5983471 L75.7712118,10.5459353 C75.7203882,10.5432882 75.6727412,10.5210529 75.6383294,10.4834647 C75.6033882,10.4448176 75.5859176,10.3955824 75.5880353,10.3437 L75.7950353,5.87334706 L73.3825059,5.76164118 L73.1749765,10.2325235 C73.1696824,10.3378765 73.0865647,10.4167588 72.9732706,10.4162294 L71.8334471,10.3632882 Z M83.0751353,9.04288235 C83.1736059,9.84335294 83.4669,10.2991765 83.9476059,10.3971176 C85.2219,10.6581176 85.9127824,7.97929412 86.1504882,6.81670588 C86.3320765,5.92252941 86.8233706,2.98535294 85.4982529,2.71482353 C85.4093118,2.69682353 85.3203706,2.69311765 85.2330176,2.70370588 C84.8587235,2.74976471 84.5040176,3.06052941 84.1763118,3.63176471 C83.7231353,4.42270588 83.4425471,5.49952941 83.2874294,6.26347059 C83.0613706,7.37047059 82.9877824,8.33135294 83.0751353,9.04288235 Z M83.5987235,11.736 C81.7844294,11.3654118 81.0977824,9.19747059 81.7616647,5.93682353 C82.0861941,4.34488235 82.6389,3.087 83.3589,2.29870588 C84.0789,1.50988235 84.9487235,1.19276471 85.8757235,1.38176471 C86.7688412,1.56388235 87.4046647,2.19494118 87.7149,3.20823529 C88.0140176,4.18605882 88.0050176,5.526 87.6873706,7.08405882 C86.9551941,10.6755882 85.5511941,11.6354118 84.4351941,11.772 C84.1276059,11.8101176 83.8422529,11.7852353 83.5987235,11.736 Z M87.9680647,11.3450824 C88.5689471,11.5229647 89.0623588,11.5356706 89.5171235,10.0040824 L91.5633,3.10955294 C91.5770647,3.06243529 91.6093588,3.0222 91.6533,2.99890588 C91.6961824,2.97455294 91.7470059,2.97031765 91.7951824,2.98408235 L92.8900059,3.30914118 C92.9884765,3.33825882 93.0451235,3.44202353 93.0154765,3.54102353 L90.9735353,10.4207294 C90.5298882,11.9173765 89.8458882,12.7051412 88.8611824,12.8258471 C88.5017118,12.8703176 88.1025353,12.8253176 87.6610059,12.6940235 C87.3396529,12.5992588 87.0897706,12.4843765 86.9193,12.3530824 C86.8515353,12.3022588 86.8277118,12.2117294 86.8600059,12.1328471 L87.2332412,11.2381412 C87.2549471,11.1867882 87.2978294,11.1481412 87.3513,11.1317294 C87.4053,11.1142588 87.4619471,11.1232588 87.5085353,11.1539647 C87.6085941,11.2196118 87.7637118,11.2842 87.9680647,11.3450824 Z M94.7475529,10.3948412 L96.0859059,10.9242529 L96.4951412,8.60066471 C96.5687294,8.17660588 96.6629647,7.71125294 96.7593176,7.26072353 C96.4983176,7.69113529 96.2484353,8.09137059 96.0366706,8.41960588 L94.7475529,10.3948412 Z M91.0559647,13.4712529 C91.0395529,13.4161941 91.0485529,13.3579588 91.0803176,13.3108412 L96.8763176,4.85613529 C96.9255529,4.78360588 97.0171412,4.75501765 97.0986706,4.78837059 L98.2702588,5.25107647 C98.3523176,5.28284118 98.3994353,5.36754706 98.3862,5.45437059 L96.7831412,15.5661353 C96.7741412,15.6211941 96.7407882,15.6704294 96.6915529,15.6984882 C96.6698471,15.7106647 96.6454941,15.7186059 96.6211412,15.7217824 C96.5904353,15.7249588 96.5597294,15.7223118 96.5295529,15.7096059 L95.4823765,15.2956059 C95.4003176,15.2638412 95.3526706,15.1791353 95.3664353,15.0928412 L95.8227882,12.2096647 L94.0471412,11.5087235 L92.4102,13.9249588 C92.3620235,13.9974882 92.2683176,14.0250176 92.1867882,13.9937824 L91.1655529,13.5898412 C91.1136706,13.5691941 91.0729059,13.5252529 91.0559647,13.4712529 Z M104.242818,7.83 C104.195171,7.80511765 104.160229,7.76170588 104.146994,7.70982353 L103.658347,5.83094118 C103.639288,5.75947059 103.6647,5.68376471 103.722406,5.63770588 C103.779582,5.59217647 103.857935,5.58423529 103.923582,5.61652941 L104.821994,6.075 C104.869641,6.09935294 104.904582,6.14276471 104.917818,6.19517647 L105.153935,7.12270588 L106.055524,6.77382353 C106.105818,6.75582353 106.160876,6.75847059 106.207465,6.78229412 L107.092641,7.23388235 C107.157759,7.26723529 107.197465,7.33552941 107.193759,7.40911765 C107.190582,7.48270588 107.144524,7.54676471 107.077288,7.57429412 L105.282053,8.28794118 C105.2667,8.29429412 105.251347,8.298 105.235465,8.29958824 C105.199465,8.30382353 105.161347,8.298 105.127994,8.28105882 L104.242818,7.83 Z M100.054588,17.6049529 C98.0528824,16.5831882 97.7585294,14.3252471 99.2461765,11.4092471 C101.053588,7.86642353 103.476176,7.51912941 105.003,8.29630588 C105.516529,8.55889412 105.907235,8.87336471 106.073471,9.15977647 C106.114235,9.22965882 106.105765,9.31754118 106.051765,9.37736471 L105.389471,10.1211882 C105.352941,10.1630118 105.299471,10.1826 105.246,10.1841882 C105.190941,10.1831294 105.139588,10.1582471 105.104647,10.1158941 C104.963294,9.94224706 104.803941,9.74583529 104.361882,9.52083529 C103.882765,9.27518824 103.306235,9.30907059 102.739765,9.61348235 C102.009176,10.0057765 101.301882,10.8417176 100.695176,12.0313059 C99.5595882,14.2569529 99.6162353,15.8298353 100.854,16.4619529 C101.223529,16.6498941 101.589353,16.7192471 101.809059,16.7213647 C101.868353,16.7218941 101.922882,16.7499529 101.958353,16.7970706 C101.993294,16.8441882 102.003882,16.9056 101.986412,16.9617176 L101.706882,17.9003647 C101.685706,17.9718353 101.623765,18.0231882 101.550706,18.0321882 C101.543824,18.0332471 101.536941,18.0343059 101.530059,18.0337765 C101.128235,18.0374824 100.604647,17.8850118 100.054588,17.6049529 Z M102.493271,18.8525118 C102.405918,18.7974529 102.379447,18.6820412 102.435035,18.5952176 L107.7588,10.1383941 C107.784741,10.0960412 107.827094,10.0663941 107.875271,10.0552765 C107.926094,10.0452176 107.9748,10.0531588 108.016624,10.0801588 L111.240741,12.1104529 C111.328094,12.1649824 111.354565,12.2803941 111.299506,12.3677471 L110.770624,13.2084529 C110.744682,13.2508059 110.702329,13.2809824 110.654153,13.2915706 C110.600153,13.3011 110.554624,13.2942176 110.512271,13.2672176 L108.413153,11.9442176 L106.858271,14.4133941 L108.819741,15.6490412 C108.907624,15.7046294 108.933565,15.8195118 108.879035,15.9068647 L108.365506,16.7226882 C108.339035,16.7650412 108.297212,16.7941588 108.249035,16.8058059 C108.196094,16.8163941 108.149506,16.8073941 108.107682,16.7814529 L106.145153,15.5452765 L104.345682,18.4030412 L106.596741,19.8208059 C106.638565,19.8467471 106.668741,19.8891 106.679329,19.9372765 C106.690447,19.9859824 106.681976,20.0362765 106.654976,20.0781 L106.125565,20.9188059 C106.099624,20.9611588 106.057271,20.9913353 106.009624,21.0024529 C106.002741,21.0035118 105.996388,21.0040412 105.990035,21.0051 C105.947682,21.0103941 105.904271,21.0013941 105.868271,20.9781 L102.493271,18.8525118 Z M108.381441,22.8349588 C108.312618,22.7820176 108.289853,22.6883118 108.326382,22.6089 L112.644794,13.3134882 C112.668618,13.2621353 112.715206,13.2240176 112.769735,13.2102529 C112.824794,13.1949 112.884088,13.2097235 112.929088,13.2441353 L113.889441,13.9890176 C113.959324,14.0440765 113.981559,14.1393706 113.942912,14.2193118 L111.845912,18.5213118 C111.461029,19.3122529 111.031147,20.1889588 110.586441,21.0259588 C111.263029,20.3896059 111.974559,19.7733706 112.625206,19.2100765 L116.300912,16.0484294 C116.368147,15.9896647 116.466088,15.9870176 116.537559,16.0426059 L117.498441,16.7874882 C117.543441,16.8224294 117.569382,16.8759 117.569912,16.9330765 C117.570971,16.9902529 117.545559,17.0442529 117.501618,17.0802529 L109.539265,23.5507235 C109.511206,23.5734882 109.477853,23.5867235 109.443971,23.5909588 C109.396324,23.5962529 109.346559,23.5846059 109.306324,23.5528412 L108.381441,22.8349588 Z M118.712753,21.1934647 C118.312518,21.4957588 117.932929,21.7758176 117.615282,22.0018765 L115.687165,23.3614059 L116.736459,24.3471706 L117.973694,22.3396412 C118.196047,21.9764647 118.450694,21.5868176 118.712753,21.1934647 Z M111.122576,24.8564647 C111.127341,24.7998176 111.157518,24.7484647 111.204106,24.7167 L119.710694,19.0022294 C119.783224,18.9524647 119.878518,18.9604059 119.942576,19.0207588 L120.860576,19.8837 C120.924106,19.9440529 120.937871,20.0398765 120.892871,20.1155824 L115.669694,28.9165235 C115.641106,28.9652294 115.591341,28.9980529 115.535753,29.0059941 C115.534165,29.0059941 115.533106,29.0065235 115.532047,29.0065235 C115.476988,29.0134059 115.4214,28.9954059 115.381165,28.9572882 L114.560047,28.1848765 C114.496518,28.1250529 114.482753,28.0287 114.527753,27.9535235 L116.015929,25.4441118 L114.625694,24.1375235 L112.213165,25.7771118 C112.140635,25.8258176 112.043753,25.8184059 111.979694,25.7585824 L111.180282,25.0078765 C111.139518,24.9692294 111.117812,24.9131118 111.122576,24.8564647 Z M116.297788,29.9856706 C116.229494,29.9083765 116.237965,29.7908471 116.314729,29.7225529 L123.824965,23.1334941 C123.862553,23.1006706 123.911259,23.0837294 123.960494,23.0879647 C124.009729,23.0911412 124.055788,23.1133765 124.089141,23.1509647 L124.841435,24.0086118 C124.9092,24.0859059 124.901259,24.2039647 124.823435,24.2722588 L118.178259,30.1026706 L119.912612,32.0794941 C119.980376,32.1573176 119.972965,32.2748471 119.895671,32.3431412 L119.172494,32.9789647 C119.143376,33.0038471 119.108435,33.0192 119.071376,33.0234353 C119.060259,33.0250235 119.048082,33.0255529 119.036435,33.0250235 C118.9872,33.0213176 118.940612,32.9990824 118.908318,32.9614941 L116.297788,29.9856706 Z M120.513971,33.0923118 C120.842206,32.0393118 121.688735,30.9979588 123.029206,29.9989588 C124.499382,28.9020176 125.879559,28.3863706 127.125265,28.4652529 C128.129029,28.5287824 128.997265,28.9867235 129.570618,29.7554294 C129.915265,30.2170765 130.1265,30.6723706 130.149265,31.0032529 C130.155088,31.0837235 130.107971,31.1589 130.032794,31.1890765 L129.110029,31.5633706 C129.058676,31.5829588 129.002559,31.5813706 128.953853,31.5564882 C128.906206,31.5316059 128.870206,31.4860765 128.858559,31.4326059 C128.804029,31.2028412 128.748971,30.9646059 128.453559,30.5691353 C128.132735,30.1381941 127.601206,29.9126647 126.957971,29.9349 C126.125735,29.9629588 125.124088,30.4007824 124.053088,31.1996647 C122.049794,32.6920765 121.404971,34.1283706 122.234559,35.2433118 C122.483912,35.5763118 122.781441,35.8002529 122.976794,35.8987235 C123.029735,35.9251941 123.066265,35.9744294 123.077382,36.0326647 C123.086912,36.0903706 123.069971,36.1496647 123.030265,36.1925471 L122.363735,36.9109588 C122.333559,36.9443118 122.292265,36.9639 122.249912,36.9691941 C122.214971,36.9734294 122.1795,36.9686647 122.146147,36.9522529 C121.779794,36.7764882 121.3875,36.4175471 121.012147,35.9146059 C120.376324,35.0617235 120.203735,34.0860176 120.513971,33.0923118 Z M122.635747,38.0974235 C122.581747,38.0100706 122.609276,37.8946588 122.697159,37.8406588 L131.212747,32.6137765 C131.2551,32.5878353 131.306453,32.5798941 131.3541,32.5915412 C131.402276,32.6031882 131.4441,32.6333647 131.470041,32.6757176 L133.462218,35.9226 C133.516747,36.0099529 133.489218,36.1253647 133.400806,36.1793647 L132.554276,36.6992471 C132.512982,36.7251882 132.461629,36.7336588 132.413982,36.7220118 C132.365276,36.7103647 132.323982,36.6796588 132.297512,36.6378353 L130.999924,34.5228353 L128.513806,36.0486 L129.726688,38.0243647 C129.780159,38.1117176 129.752629,38.2276588 129.664747,38.2816588 L128.843629,38.7861882 C128.801276,38.8126588 128.748865,38.8195412 128.702276,38.8089529 C128.6541,38.7967765 128.612276,38.7666 128.586335,38.7247765 L127.372924,36.7479529 L124.495571,38.5151294 L125.886335,40.7810118 C125.940335,40.8683647 125.912806,40.9837765 125.824394,41.0383059 L124.978924,41.5581882 C124.956159,41.5724824 124.929688,41.5809529 124.903747,41.5841294 C124.881512,41.5867765 124.859276,41.5857176 124.837571,41.5809529 C124.788865,41.5693059 124.747571,41.5386 124.7211,41.4967765 L122.635747,38.0974235 Z M126.157606,44.2927059 C126.119488,44.2143529 126.141194,44.1201176 126.208959,44.0655882 L134.204665,37.6538824 C134.249135,37.6184118 134.3079,37.6051765 134.362959,37.6173529 C134.418547,37.6295294 134.465135,37.6665882 134.489488,37.7179412 L135.019959,38.8117059 C135.058076,38.8916471 135.036371,38.9874706 134.965959,39.0414706 L131.176959,41.9654118 C130.480782,42.5038235 129.705724,43.0983529 128.938076,43.65 C129.827488,43.3794706 130.738076,43.1433529 131.570312,42.9278824 L136.266724,41.7271765 C136.353547,41.7054706 136.442488,41.7462353 136.481135,41.8267059 L137.011076,42.9204706 C137.036488,42.9723529 137.036488,43.0316471 137.011606,43.0835294 C136.986724,43.1343529 136.939606,43.1724706 136.884547,43.1846471 L126.877076,45.4478824 C126.871253,45.4489412 126.8649,45.4494706 126.858547,45.4505294 C126.780194,45.4600588 126.702371,45.4187647 126.667959,45.3462353 L126.157606,44.2927059 Z M133.605529,51.219 L134.035412,52.5922941 L136.099588,51.4519412 C136.474941,51.2433529 136.892118,51.0262941 137.308235,50.8155882 C136.814294,50.8817647 136.341,50.94 135.954,50.9807647 L133.605529,51.219 Z M128.895353,50.2787647 C128.926059,50.2311176 128.979,50.2025294 129.034588,50.1967059 L139.252765,49.3967647 C139.339588,49.3898824 139.419529,49.4438824 139.446,49.5275294 L139.820824,50.7292941 C139.847294,50.8134706 139.811824,50.9034706 139.736118,50.9474118 L130.862118,56.0498824 C130.840412,56.0620588 130.816588,56.07 130.792235,56.0731765 C130.761529,56.0768824 130.730294,56.0731765 130.701176,56.0615294 C130.648235,56.0408824 130.607471,55.9974706 130.590529,55.9434706 L130.253824,54.8677059 C130.227882,54.7835294 130.263353,54.6935294 130.339059,54.6495882 L132.868588,53.1952941 L132.3,51.3730588 L129.391412,51.6165882 C129.304588,51.624 129.224118,51.5694706 129.197647,51.4863529 L128.871,50.4391765 C128.854059,50.3851765 128.862529,50.3258824 128.895353,50.2787647 Z M140.164253,57.1573059 C140.133547,57.0027176 140.098076,56.8693059 140.062076,56.7671294 L136.643135,57.4532471 L136.700312,57.7348941 C136.895665,58.7095412 137.712018,59.1971294 138.801018,58.9821882 C139.922841,58.7566588 140.3559,58.1769529 140.164253,57.1573059 Z M130.886312,57.2547176 C130.865665,57.1530706 130.931312,57.0551294 131.032429,57.0350118 L140.682018,55.0968353 C140.762488,55.0756588 140.847724,55.1206588 140.885841,55.1963647 C141.104488,55.6347176 141.292959,56.2107176 141.414194,56.8184824 C141.629135,57.8857765 141.540194,58.6761882 141.134665,59.3056588 C140.727547,59.8980706 140.088547,60.2834824 139.233547,60.4550118 C138.088429,60.6874235 137.154018,60.3983647 136.446724,59.6042471 C136.234959,60.2353059 135.619782,60.7123059 134.475724,61.1511882 C133.1199,61.6594235 132.380841,62.0173059 132.140488,62.1824824 C132.115606,62.1994235 132.086488,62.2100118 132.057371,62.2137176 C132.026135,62.2179529 131.994371,62.2137176 131.964194,62.2015412 C131.905959,62.1777176 131.863606,62.1268941 131.851959,62.0649529 L131.623782,60.9314824 C131.610018,60.8621294 131.636488,60.7906588 131.692076,60.7472471 C131.955724,60.5418353 132.753547,60.1918941 134.064371,59.7085412 C135.438724,59.1913059 135.619253,58.6915412 135.470488,57.9508941 L135.419665,57.6983647 L131.329959,58.5194824 C131.279135,58.5295412 131.230959,58.5200118 131.190194,58.4919529 C131.1489,58.4649529 131.119782,58.4220706 131.110253,58.3733647 L130.886312,57.2547176 Z M141.315088,64.9356353 C141.275382,64.4549294 140.8545,64.1139882 140.064088,63.9228706 C139.178382,63.7089882 138.065559,63.7402235 137.288912,63.8042824 C137.087735,63.8217529 136.892382,63.8413412 136.703912,63.8646353 C135.834088,63.9710471 135.100853,64.1468118 134.559794,64.3781647 C133.818618,64.6974 133.463382,65.1061059 133.503618,65.5952824 C133.543324,66.0886941 133.977971,66.4306941 134.794324,66.6133412 C135.668912,66.8092235 136.780147,66.7742824 137.557853,66.7096941 C138.4695,66.6345176 141.425735,66.2845765 141.315088,64.9356353 Z M137.175618,62.2483412 C140.474382,61.9767529 142.540147,62.9773412 142.700559,64.9245176 C142.776265,65.8340471 142.347441,66.6212824 141.461206,67.2025765 C140.707324,67.6975765 139.614618,68.0406353 138.279441,68.2047529 C138.101029,68.2264588 137.918382,68.2455176 137.730971,68.2603412 C133.070029,68.6452235 132.2145,66.7806353 132.119735,65.6355176 C131.967265,63.7889294 133.863618,62.5231059 137.175618,62.2483412 Z M142.784418,70.4401412 C142.883418,70.4491412 142.957535,70.5333176 142.953829,70.6317882 L142.914653,71.8621412 C142.912535,71.9479059 142.852182,72.0199059 142.769065,72.0389647 L138.166888,73.0628471 C137.199124,73.2804353 136.384359,73.4630824 135.544712,73.6144941 C136.354712,73.8013765 137.137182,74.0131412 138.125594,74.2863176 L142.654712,75.5595529 C142.7373,75.5823176 142.793947,75.6585529 142.790771,75.7453765 L142.750006,77.0191412 C142.746829,77.1117882 142.676418,77.1869647 142.585888,77.1980824 C142.580065,77.1991412 142.574241,77.1996706 142.567888,77.2002 L132.561476,77.4585529 C132.510653,77.4596118 132.460888,77.4394941 132.424888,77.4029647 C132.388359,77.3669647 132.368771,77.3166706 132.370359,77.2658471 L132.404241,76.1985529 C132.406888,76.0984941 132.477829,76.0116706 132.587418,76.0174941 L136.892065,75.9481412 C137.698888,75.9280235 138.526888,75.9116118 139.300888,75.9169059 C138.609476,75.7384941 137.946124,75.5532 137.316653,75.3647294 L132.674241,73.9845529 C132.592712,73.9607294 132.538182,73.8850235 132.540829,73.8003176 L132.563594,73.0734353 C132.566241,72.9882 132.626594,72.9156706 132.709182,72.8971412 L137.236712,71.8700824 C137.939771,71.7144353 138.6693,71.5566706 139.396712,71.4211412 C138.644418,71.3750824 137.843947,71.3147294 137.017006,71.2538471 L132.751006,70.9224353 C132.651476,70.9144941 132.575771,70.8303176 132.579476,70.7307882 L132.611241,69.7079647 C132.612829,69.6560824 132.635594,69.6073765 132.673712,69.5734941 C132.713418,69.5385529 132.762653,69.5216118 132.815594,69.5274353 L142.784418,70.4401412 Z M142.198147,80.1923824 C142.299794,80.2072059 142.370206,80.3025 142.354853,80.4046765 L141.789971,84.1725 C141.783618,84.2212059 141.756618,84.2656765 141.716912,84.2953235 C141.690441,84.3143824 141.659735,84.3260294 141.6285,84.3297353 C141.611559,84.3318529 141.594618,84.3318529 141.577676,84.3292059 L140.595618,84.1809706 C140.493441,84.1661471 140.4225,84.0703235 140.438912,83.9686765 L140.806324,81.5153824 L137.922088,81.0833824 L137.577971,83.3757353 C137.562618,83.4773824 137.468382,83.5477941 137.365147,83.5324412 L136.412735,83.3895 C136.311088,83.3746765 136.240676,83.2793824 136.256029,83.1772059 L136.599618,80.8848529 L133.260618,80.3835 L132.866206,83.0136176 C132.859324,83.0628529 132.832853,83.1073235 132.792618,83.1364412 C132.753441,83.1660882 132.704206,83.1787941 132.653912,83.1708529 L131.671853,83.0231471 C131.570206,83.0077941 131.499794,82.9130294 131.515147,82.8103235 L132.1065,78.8683235 C132.121324,78.7666765 132.215029,78.6962647 132.318794,78.7110882 L142.198147,80.1923824 Z M134.445653,90.3784235 C134.227535,90.4054235 133.999888,90.3879529 133.773829,90.3254824 C132.889182,90.0808941 132.406359,89.2290706 132.650947,88.3449529 C132.765829,87.9272471 133.028418,87.5831294 133.389476,87.3766588 C133.756359,87.1670118 134.194712,87.1167176 134.626182,87.2358353 C135.052888,87.3459529 135.404947,87.6085412 135.616182,87.9748941 C135.831124,88.3465412 135.884065,88.7891294 135.763888,89.2206 C135.648476,89.6393647 135.385888,89.9834824 135.023241,90.1888941 C134.845359,90.2900118 134.650006,90.3535412 134.445653,90.3784235 Z M21.8877882,108.514376 L16.5004941,112.191141 C15.5962588,112.808435 14.8386706,113.103318 14.2065529,113.180612 C13.0386706,113.324082 12.2974941,112.727965 11.8406118,112.058788 C11.1560824,111.055024 10.8617294,109.502259 13.3473176,107.807082 L18.8442,104.054612 C18.8854941,104.026024 18.9363176,104.016494 18.9844941,104.025494 C19.0326706,104.034494 19.0755529,104.063082 19.1041412,104.103847 L19.7473765,105.046729 C19.8056118,105.131965 19.7833765,105.248435 19.6986706,105.306141 L14.1642,109.083494 C13.4992588,109.537729 13.0752,109.974494 12.9057882,110.381612 C12.7686706,110.709318 12.7993765,111.011082 12.9989647,111.303847 C13.2117882,111.615671 13.4923765,111.760729 13.8539647,111.745906 C14.2796118,111.725259 14.8376118,111.491788 15.4999059,111.0402 L21.0343765,107.262847 C21.0756706,107.234259 21.1254353,107.2242 21.1741412,107.2332 C21.2228471,107.243259 21.2657294,107.270788 21.2937882,107.312082 L21.9370235,108.254965 C21.9952588,108.3402 21.9730235,108.456671 21.8877882,108.514376 Z M27.5474118,114.834759 C27.6130588,114.909406 27.6104118,115.021641 27.54,115.091524 L20.4633529,122.168171 C20.4337059,122.197288 20.3950588,122.216347 20.3537647,122.221112 C20.3447647,122.222171 20.3352353,122.2227 20.3257059,122.2227 C20.2743529,122.221112 20.2256471,122.198347 20.1912353,122.160229 L19.4818235,121.362935 C19.4156471,121.288288 19.4188235,121.175524 19.4902941,121.105641 L22.5619412,118.0917 C23.1331765,117.522582 23.7208235,116.941288 24.2867647,116.412406 C23.6652353,116.757053 23.0574706,117.078935 22.4687647,117.376465 L18.153,119.572465 C18.0772941,119.610582 17.9851765,119.593641 17.9290588,119.530112 L17.4457059,118.988524 C17.3895882,118.925524 17.3821765,118.831288 17.4298235,118.760347 L20.0054118,114.897759 C20.4088235,114.298994 20.8297059,113.682759 21.2617059,113.085582 C20.6973529,113.558876 20.0917059,114.054406 19.4664706,114.566347 L16.1015294,117.299171 C16.0231765,117.3627 15.9109412,117.3537 15.8442353,117.278524 L15.1634118,116.514053 C15.1295294,116.475935 15.1125882,116.424582 15.1168235,116.373759 C15.1210588,116.322406 15.147,116.275288 15.1872353,116.242994 L23.0421176,110.040935 C23.121,109.979524 23.2321765,109.989582 23.2978235,110.063171 L24.1162941,110.982759 C24.1729412,111.046818 24.1792941,111.140524 24.1316471,111.211465 L21.5015294,115.122759 C20.9498824,115.945994 20.4850588,116.638994 19.9805294,117.327229 C20.7010588,116.901582 21.4120588,116.518818 22.3136471,116.037582 L26.4727059,113.842112 C26.5489412,113.802406 26.6426471,113.818818 26.6992941,113.882876 L27.5474118,114.834759 Z M28.3131,123.098029 L26.5782176,121.561676 L24.3398647,124.088559 L26.3304529,125.8515 C26.4072176,125.919794 26.4146294,126.038382 26.3468647,126.115147 L25.6882765,126.858971 C25.6565118,126.894441 25.6146882,126.915088 25.5707471,126.920382 C25.5199235,126.926206 25.4664529,126.911382 25.4241,126.874853 L22.4387471,124.232029 C22.4022176,124.198676 22.3794529,124.152618 22.3762765,124.102853 C22.3731,124.053618 22.3900412,124.004912 22.4233941,123.967853 L29.0463353,116.488853 C29.0791588,116.450735 29.1273353,116.436441 29.1744529,116.425853 C29.2242176,116.423206 29.2723941,116.440147 29.3099824,116.472441 L32.1624529,118.998794 C32.1995118,119.031088 32.2217471,119.077676 32.2249235,119.126912 C32.2281,119.176676 32.2106294,119.225912 32.1778059,119.262441 L31.5192176,120.005206 C31.4519824,120.083029 31.3323353,120.090441 31.2555706,120.021088 L29.3983941,118.376735 L27.4639235,120.560029 L29.1998647,122.096912 C29.2369235,122.129735 29.2591588,122.176324 29.2623353,122.225559 C29.2649824,122.275324 29.2485706,122.324029 29.2152176,122.361088 L28.5767471,123.081618 C28.5095118,123.159441 28.3903941,123.166324 28.3131,123.098029 Z M36.0924353,123.707541 L34.7747294,122.737129 L29.5706118,129.810071 C29.5388471,129.853482 29.4917294,129.879424 29.4424941,129.885247 C29.3974941,129.891071 29.3493176,129.879424 29.3090824,129.850306 L28.3900235,129.174247 C28.3503176,129.145129 28.3233176,129.101188 28.3164353,129.052482 C28.3090235,129.003247 28.3206706,128.952953 28.3503176,128.913247 L33.5539059,121.839776 L32.2362,120.870424 C32.1964941,120.840776 32.1694941,120.796835 32.1620824,120.7476 C32.1552,120.698894 32.1668471,120.6486 32.1964941,120.608894 L32.8026706,119.785659 C32.8630235,119.701482 32.9800235,119.683482 33.0636706,119.745953 L36.9199059,122.582012 C36.9606706,122.611659 36.9866118,122.656129 36.9940235,122.704835 C37.0019647,122.753541 36.9892588,122.803306 36.9601412,122.843541 L36.3539647,123.667835 C36.3243176,123.707541 36.2803765,123.734541 36.2311412,123.741424 C36.1893176,123.768424 36.1321412,123.736659 36.0924353,123.707541 Z M42.5167412,125.963788 C42.6056824,126.0162 42.6358588,126.130024 42.5829176,126.219494 L37.5265059,134.835141 C37.5016235,134.878024 37.4608588,134.908729 37.4126824,134.920906 C37.4047412,134.923553 37.3968,134.925141 37.3883294,134.9262 C37.3475647,134.930965 37.3068,134.922494 37.2708,134.901318 L36.3385059,134.353906 C36.2723294,134.314729 36.2368588,134.240082 36.2485059,134.163847 L37.0420941,129.062435 C37.1453294,128.396965 37.2681529,127.647318 37.4338588,126.847376 C37.0008,127.652082 36.4904471,128.549435 35.7598588,129.793553 L34.0122706,132.772024 C33.9598588,132.860435 33.8455059,132.890612 33.7560353,132.8382 L32.8613294,132.313553 C32.8184471,132.288141 32.7872118,132.247376 32.7750353,132.1992 C32.7623294,132.151553 32.7692118,132.1002 32.7946235,132.057847 L37.8515647,123.441671 C37.8769765,123.399318 37.9177412,123.368612 37.9659176,123.355906 C38.0135647,123.340553 38.0643882,123.350082 38.1078,123.375494 L39.0406235,123.923435 C39.1068,123.962612 39.1422706,124.038318 39.1306235,124.114553 L38.3449765,129.083082 C38.2295647,129.797259 38.0871529,130.6872 37.9272706,131.533729 C38.3984471,130.644318 38.9066824,129.725788 39.5716235,128.593376 L41.3790353,125.5122 C41.4033882,125.469318 41.4452118,125.438612 41.4928588,125.426435 C41.5389176,125.408965 41.5913294,125.420082 41.6347412,125.445494 L42.5167412,125.963788 Z M45.5215765,127.401035 C45.6152824,127.445506 45.6544588,127.557212 45.6099882,127.650388 L41.3169882,136.673153 C41.2884,136.732976 41.2317529,136.771094 41.1708706,136.778506 C41.1364588,136.782741 41.1009882,136.777447 41.0676353,136.761565 L40.0368706,136.271329 C39.9918706,136.250153 39.9574588,136.212035 39.9410471,136.165447 C39.9241059,136.118859 39.9267529,136.066976 39.9484588,136.021976 L44.2425176,126.998682 C44.2636941,126.954212 44.3018118,126.9198 44.3484,126.903388 C44.3960471,126.885918 44.4474,126.889094 44.4918706,126.910271 L45.5215765,127.401035 Z M52.2917471,130.122529 C52.3886294,130.158 52.4373353,130.266 52.4018647,130.362882 L48.9061588,139.725529 C48.8812765,139.793294 48.8203941,139.837765 48.7536882,139.845706 C48.7256294,139.849412 48.6943941,139.846235 48.6652765,139.835647 L47.5958647,139.435941 C47.5492765,139.419 47.5116882,139.383 47.4910412,139.338 C47.4703941,139.292471 47.4688059,139.241647 47.4862765,139.195059 L49.0549235,134.994706 L46.7800412,134.145529 L45.2113941,138.345353 C45.1753941,138.442765 45.0673941,138.492 44.9710412,138.455471 L43.9005706,138.055765 C43.8545118,138.038824 43.8169235,138.003353 43.7962765,137.958353 C43.7756294,137.913353 43.7740412,137.861471 43.7909824,137.814882 L47.2872176,128.453824 C47.3232176,128.356412 47.4296294,128.307706 47.5275706,128.344235 L48.5969824,128.743412 C48.6435706,128.760353 48.6811588,128.795824 48.7018059,128.840824 C48.7224529,128.885294 48.7240412,128.937706 48.7071,128.983765 L47.2734529,132.823588 L49.5483353,133.671706 L50.9814529,129.832412 C50.9989235,129.786353 51.0343941,129.748765 51.0793941,129.728118 C51.1254529,129.708 51.1762765,129.705353 51.2223353,129.722824 L52.2917471,130.122529 Z M58.5324529,132.995012 C58.3455706,132.957424 58.2084529,132.945247 58.1126294,132.943129 L57.5218059,135.873424 L57.8473941,135.939071 C58.2534529,136.021129 58.6621588,135.946482 58.9988647,135.728365 C59.3477471,135.502306 59.5881,135.137012 59.6765118,134.699188 C59.8660412,133.759482 59.4806294,133.186129 58.5324529,132.995012 Z M59.0263941,139.346894 C59.2932176,138.021776 58.4562176,137.348365 57.5837471,137.159365 L57.2751,137.097424 L56.5582765,140.656659 C56.6747471,140.699012 56.8018059,140.733953 56.9357471,140.760953 C58.0369235,140.984365 58.8003353,140.467659 59.0263941,139.346894 Z M61.1858647,134.881835 C60.9952765,135.827894 60.3896294,136.509247 59.4991588,136.800424 C60.3949235,137.421953 60.7819235,138.459071 60.5415706,139.652365 C60.3753353,140.470835 59.9740412,141.134718 59.3784529,141.572012 C59.0269235,141.838306 58.5954529,142.003482 58.0882765,142.065953 C57.6128647,142.124188 57.0707471,142.092424 56.4651,141.9696 C55.8160412,141.839365 55.3453941,141.709659 54.9838059,141.561953 C54.9006882,141.527541 54.8535706,141.439129 54.8710412,141.351776 L56.8086882,131.746129 C56.8256294,131.661953 56.8923353,131.608482 56.9833941,131.595776 C57.5244529,131.571424 58.1046882,131.620129 58.7092765,131.741365 C59.7299824,131.947835 60.4309235,132.339071 60.8528647,132.937306 C61.2223941,133.452953 61.3383353,134.125835 61.1858647,134.881835 Z M65.5104706,135.2574 C65.3812941,135.7434 65.2547647,136.197106 65.1435882,136.569812 L64.4622353,138.827753 L65.8948235,138.959576 L65.6338235,136.614812 C65.5856471,136.185988 65.5448824,135.713753 65.5104706,135.2574 Z M66.3972353,132.901518 C66.4840588,132.908929 66.5544706,132.976694 66.5650588,133.063518 L67.8695294,143.216576 C67.8769412,143.273753 67.8584118,143.329871 67.8187059,143.370635 C67.7890588,143.401871 67.7493529,143.421459 67.707,143.426753 C67.6937647,143.428341 67.6810588,143.428341 67.6667647,143.426753 L66.5444118,143.323518 C66.4575882,143.316635 66.3871765,143.248341 66.3760588,143.162047 L66.0044118,140.267753 L64.1032941,140.093576 L63.2112353,142.872988 C63.1842353,142.956106 63.108,143.012224 63.0164118,143.001106 L61.9237059,142.901576 C61.8670588,142.896812 61.8157059,142.865576 61.785,142.817929 C61.7532353,142.770812 61.7458235,142.711518 61.7638235,142.658047 L64.9477059,132.914753 C64.9741765,132.832165 65.0535882,132.778694 65.142,132.786635 L66.3972353,132.901518 Z M73.4837294,136.028276 C73.4683765,134.883688 72.9776118,134.3511 71.9404941,134.352159 C71.7589059,134.355335 71.6281412,134.368571 71.5376118,134.381806 L71.5842,137.868512 L71.8711412,137.864806 C72.8648471,137.849982 73.4985529,137.129453 73.4837294,136.028276 Z M71.8356706,133.060394 C72.9252,133.045571 73.6864941,133.278512 74.2307294,133.792041 C74.7384353,134.302394 75.0004941,135.001218 75.0126706,135.873159 C75.0280235,137.038924 74.5748471,137.906629 73.6637294,138.457747 C74.2444941,138.782276 74.5997294,139.474218 74.8220824,140.6781 C75.0724941,142.105394 75.2884941,142.897924 75.4076118,143.164218 C75.4330235,143.221394 75.4277294,143.2881 75.3938471,143.341041 C75.3642,143.387629 75.3139059,143.419394 75.2593765,143.426276 C75.2524941,143.426806 75.2456118,143.427335 75.2387294,143.427335 L74.0824941,143.443218 C74.0120824,143.444276 73.9459059,143.4051 73.9136118,143.341571 C73.7219647,142.969394 73.4895529,141.763924 73.3286118,140.818394 C73.0723765,139.372041 72.6139059,139.103629 71.8594941,139.113688 L71.6011412,139.116865 L71.6583176,143.2881 C71.6593765,143.391865 71.5752,143.475512 71.4735529,143.478159 L70.3316118,143.494041 C70.2823765,143.494571 70.2336706,143.474982 70.1987294,143.4411 C70.1632588,143.406688 70.1426118,143.359041 70.1420824,143.309276 L70.0081412,133.464865 C70.0076118,133.380688 70.0626706,133.305512 70.1436706,133.282218 C70.6137882,133.147218 71.2141412,133.068865 71.8356706,133.060394 Z M81.6539294,132.336371 C81.7105765,132.330018 81.7672235,132.349606 81.8074588,132.389841 C81.8476941,132.430076 81.8678118,132.486194 81.8619882,132.543371 L80.7237529,142.739312 C80.7142235,142.825076 80.6464588,142.893371 80.5612235,142.903959 C80.5606941,142.904488 80.5606941,142.904488 80.5601647,142.904488 L79.3970471,143.042135 C79.3107529,143.051665 79.2286941,143.001371 79.1990471,142.918253 L75.7584,133.2639 C75.7393412,133.210429 75.7456941,133.151135 75.7753412,133.102429 C75.8060471,133.053724 75.8584588,133.021429 75.9129882,133.015076 L77.1200471,132.873194 C77.2079294,132.862606 77.2910471,132.915547 77.3191059,132.999724 L78.8406353,137.536782 C79.1365765,138.413488 79.4383412,139.326724 79.7004,140.203959 C79.7364,139.275371 79.8110471,138.337253 79.8788118,137.480665 L80.2822235,132.649782 C80.2901647,132.561371 80.3584588,132.490429 80.4463412,132.479841 L80.4474,132.479841 L81.6539294,132.336371 Z M84.4152353,131.802829 C84.4570588,131.830359 84.4856471,131.873241 84.4957059,131.921947 L86.472,141.717124 C86.4921176,141.818241 86.4264706,141.916712 86.3253529,141.937888 L85.2067059,142.163418 C85.2019412,142.163947 85.1971765,142.165006 85.1924118,142.165535 C85.1484706,142.170829 85.1034706,142.160241 85.0664118,142.135888 C85.0245882,142.108359 84.9965294,142.065476 84.9859412,142.016771 L83.0096471,132.221594 C82.9895294,132.120476 83.0546471,132.022006 83.1557647,132.000829 L84.2749412,131.774771 C84.3215294,131.768947 84.3744706,131.7753 84.4152353,131.802829 Z M92.7260471,138.918335 C92.8250471,138.895041 92.9282824,138.949571 92.9568706,139.048571 L93.2157529,139.976629 C93.2289882,140.024806 93.2221059,140.075629 93.1982824,140.119041 C93.1739294,140.162453 93.1336941,140.193688 93.0860471,140.207453 L89.2742824,141.271041 C89.2658118,141.273159 89.2562824,141.275276 89.2472824,141.276335 C89.1572824,141.287982 89.0699294,141.230806 89.0439882,141.140806 L86.3577529,131.520335 C86.3302235,131.421335 86.3879294,131.3181 86.4874588,131.290041 L87.5870471,130.982453 C87.6357529,130.971865 87.6855176,130.975571 87.7294588,130.999924 C87.7723412,131.024276 87.8035765,131.064512 87.8178706,131.112688 L90.1944,139.6251 L92.7260471,138.918335 Z M98.4586235,132.623312 C98.8509176,132.783194 99.1643294,133.100841 99.3406235,133.518547 C99.6979765,134.364547 99.3295059,135.271959 98.4835059,135.629312 C98.3347412,135.691782 98.1828,135.731488 98.0329765,135.750018 C97.3420941,135.834724 96.6819176,135.460959 96.3880941,134.767429 C96.2096824,134.363488 96.1975059,133.925135 96.3531529,133.532841 C96.5114471,133.133135 96.8259176,132.817076 97.2388588,132.6429 C97.6401529,132.473488 98.0726824,132.466606 98.4586235,132.623312 Z M107.802424,127.351429 L110.340953,131.620076 C110.3796,131.685724 110.374835,131.767782 110.329835,131.827606 C110.053482,132.197665 109.510835,132.728135 108.920541,133.079135 C108.450424,133.359194 107.987188,133.526488 107.523953,133.583135 C107.098835,133.635547 106.673718,133.594253 106.243306,133.460312 C105.111953,133.136841 103.955718,132.084371 103.074247,130.574488 C101.052424,127.141782 102.076835,124.880665 103.7106,123.909194 C104.227306,123.601606 104.746659,123.420547 105.163835,123.397782 C105.250659,123.393018 105.329012,123.448606 105.353365,123.532253 L105.6366,124.501606 C105.652482,124.555606 105.643482,124.613841 105.610659,124.660429 C105.578894,124.707018 105.525424,124.727665 105.471424,124.740371 C105.144247,124.766841 104.811247,124.880665 104.437482,125.102488 C104.049953,125.332253 103.567129,125.782782 103.462835,126.625606 C103.357482,127.475312 103.660306,128.507135 104.363365,129.689312 C105.0696,130.877841 105.803894,131.650253 106.544541,131.984841 C107.127953,132.249018 107.711365,132.224665 108.229129,131.916547 C108.442482,131.790018 108.567953,131.677782 108.636776,131.603665 L107.131129,129.072018 L106.183482,129.635312 C106.141129,129.660194 106.090306,129.668135 106.042129,129.656488 C105.993953,129.643782 105.953188,129.612547 105.927247,129.570724 L105.442306,128.754371 C105.416894,128.712018 105.408953,128.661194 105.421659,128.613018 C105.433835,128.564312 105.465071,128.524076 105.507424,128.498135 L107.546188,127.286312 C107.635659,127.233371 107.749482,127.263018 107.802424,127.351429 Z M115.461318,127.060835 L116.032553,127.837482 C116.093965,127.920071 116.075965,128.037071 115.992847,128.098482 L112.806847,130.446424 C112.780376,130.466012 112.7502,130.477659 112.718965,130.481365 C112.654376,130.489306 112.587141,130.462835 112.545847,130.406188 L106.618024,122.363365 C106.557141,122.280776 106.574612,122.163247 106.6572,122.102365 L107.575729,121.424718 C107.615965,121.394541 107.665729,121.382365 107.714965,121.389776 C107.7642,121.397188 107.808141,121.424188 107.837788,121.464424 L113.082671,128.581306 L115.200318,127.021129 C115.240024,126.990953 115.289259,126.978776 115.339024,126.986718 C115.388259,126.994129 115.431671,127.0206 115.461318,127.060835 Z M114.665612,115.770018 L119.013141,120.634253 C119.862318,121.585606 120.318141,122.479253 120.367906,123.290312 C120.413435,124.043665 120.117494,124.711253 119.486965,125.273488 C119.054965,125.660488 118.595965,125.8839 118.116847,125.942665 C117.899788,125.969665 117.679024,125.962253 117.455612,125.922018 C116.694847,125.783841 115.893847,125.249135 115.075376,124.333253 L110.638376,119.368429 C110.605024,119.3319 110.588612,119.283194 110.591259,119.233429 C110.593906,119.183665 110.616671,119.137606 110.6532,119.104782 L111.504494,118.343488 C111.580729,118.274665 111.699318,118.281018 111.768671,118.358841 L116.234788,123.355959 C116.771612,123.956841 117.259729,124.320018 117.685906,124.435429 C118.029494,124.528076 118.324906,124.459253 118.588553,124.223135 C118.8702,123.971135 118.977671,123.675724 118.916259,123.317312 C118.844259,122.893253 118.536141,122.375488 118.001435,121.777253 L113.535318,116.779606 C113.502494,116.743076 113.485553,116.693841 113.4882,116.644606 C113.490847,116.595371 113.513082,116.549312 113.550671,116.515959 L114.401965,115.755194 C114.478729,115.685312 114.596788,115.692724 114.665612,115.770018 Z M118.574682,113.351982 L125.064741,119.266571 C125.1018,119.299924 125.123506,119.346512 125.126153,119.395747 C125.128271,119.446041 125.1108,119.494747 125.077447,119.530747 L124.308741,120.3741 C124.276976,120.408512 124.235682,120.428629 124.1928,120.433924 C124.140918,120.440806 124.085859,120.424394 124.044565,120.386806 L117.553447,114.471688 L116.451212,115.680865 C116.380271,115.7571 116.263271,115.762924 116.187035,115.693571 L115.431565,115.004806 C115.394506,114.971982 115.372271,114.924865 115.370153,114.875629 C115.368035,114.825865 115.386035,114.777159 115.418859,114.741159 L118.643506,111.201512 C118.713388,111.125276 118.830918,111.119453 118.907682,111.189335 L119.663682,111.8781 C119.739388,111.947982 119.745212,112.065512 119.675859,112.142276 L118.574682,113.351982 Z M129.418835,112.255941 L130.209776,112.855765 C130.249482,112.884882 130.275424,112.929353 130.282835,112.978588 C130.289188,113.028353 130.275953,113.077588 130.245776,113.117294 L127.837482,116.295353 C127.805718,116.337176 127.759659,116.362059 127.710953,116.367882 C127.664894,116.373176 127.615659,116.362059 127.575953,116.330824 L119.612541,110.296059 C119.572835,110.266412 119.547424,110.221412 119.540012,110.172176 C119.533129,110.123471 119.546894,110.073706 119.576541,110.034529 L121.878424,106.997824 C121.907541,106.958647 121.952012,106.932706 122.001247,106.925824 C122.051012,106.907824 122.100247,106.931647 122.139953,106.962353 L122.931424,107.562706 C123.013482,107.625176 123.030424,107.742706 122.966894,107.824235 L121.4676,109.801059 L123.793306,111.563471 L125.194129,109.715824 C125.255012,109.633235 125.373071,109.616824 125.455659,109.680353 L126.223835,110.261647 C126.305365,110.324647 126.321776,110.441118 126.259835,110.523706 L124.860071,112.371353 L127.551071,114.411176 L129.156776,112.291412 C129.186424,112.251706 129.231424,112.225765 129.280129,112.219412 C129.280659,112.219412 129.281718,112.218882 129.282776,112.218882 C129.330953,112.213059 129.379659,112.225765 129.418835,112.255941 Z M125.799829,101.108806 L134.346653,106.284865 C134.389006,106.310276 134.419182,106.3521 134.431359,106.400276 C134.442476,106.448453 134.435065,106.499276 134.409653,106.542159 L133.849006,107.467041 C133.808241,107.532159 133.733594,107.567629 133.657359,107.554394 L128.565476,106.689865 C127.900535,106.577629 127.151947,106.443688 126.356241,106.267394 C127.153006,106.709982 128.042947,107.233041 129.279653,107.982688 L132.2343,109.771571 C132.322182,109.825041 132.350771,109.939924 132.296771,110.028335 L131.760476,110.915629 C131.734535,110.958512 131.693241,110.989218 131.645065,111.001394 C131.637653,111.002453 131.630241,111.004041 131.623359,111.0051 C131.581535,111.010394 131.539182,111.001924 131.503182,110.979688 L122.956888,105.803629 C122.868476,105.750688 122.839888,105.635276 122.893888,105.546865 L123.454535,104.620394 C123.494771,104.554747 123.570476,104.518747 123.646182,104.533571 L128.605182,105.387512 C129.355359,105.518806 130.225712,105.671806 131.050006,105.8391 C130.044653,105.289041 129.159476,104.7771 128.131359,104.154512 L125.075594,102.304218 C124.987182,102.250747 124.959124,102.135335 125.013124,102.046924 L125.543065,101.171276 C125.568476,101.129453 125.6103,101.098747 125.657947,101.0871 C125.705065,101.074924 125.757476,101.082865 125.799829,101.108806 Z M129.677347,98.2497706 C130.091347,98.5335353 130.477288,98.8051235 130.792818,99.0348882 L132.692876,100.430947 L133.295347,99.1238294 L130.999288,98.5870059 C130.581582,98.4901235 130.126818,98.3720647 129.677347,98.2497706 Z M137.967406,98.6849471 C138.022994,98.6976529 138.070112,98.7336529 138.094994,98.7844765 C138.119876,98.8347706 138.121465,98.8951235 138.097641,98.9459471 L137.626994,99.9693 C137.589406,100.049241 137.502053,100.092653 137.416818,100.074124 L134.564876,99.4589471 L133.765994,101.192241 L136.087994,102.959947 C136.157347,103.013418 136.181171,103.107653 136.144112,103.187065 L135.684582,104.182359 C135.660759,104.234771 135.6147,104.272359 135.559112,104.285594 C135.552759,104.287712 135.544818,104.2893 135.537406,104.289829 C135.489759,104.296182 135.439994,104.282947 135.400818,104.252241 L127.282818,97.9993588 C127.213994,97.9464176 127.1907,97.8521824 127.2267,97.7733 L127.753994,96.6287118 C127.791582,96.5487706 127.879465,96.5085353 127.963641,96.5238882 L137.967406,98.6849471 Z" id="Shape" fill="#FFFFFF"></path>
        </g>
        <g id="badge-free-slo-center-title" transform="translate(21.000000, 45.000000)" fill="#FFFFFF" fill-rule="nonzero">
            <path d="M12.6718588,45.8602412 C12.3362118,45.9010059 12.0090353,45.9258882 11.6929765,45.9343588 L10.1163882,33.0950647 L10.7908588,33.0119471 C13.9450941,32.6683588 17.5255059,34.0003588 18.1105059,38.7671824 C18.6123882,42.8494765 16.6805647,45.3678882 12.6718588,45.8602412 Z M8.12950588,16.9120059 C8.41009412,16.8447706 8.76585882,16.7780647 9.20897647,16.7240647 C12.6422118,16.3021235 14.4353294,17.6865353 14.8519765,21.0821824 C15.2363294,24.2083588 13.2166235,26.8490647 10.1550353,27.2254765 L9.40697647,27.3170647 L8.12950588,16.9120059 Z M21.5892706,19.7978294 C21.2112706,16.7177118 19.9052118,14.2877118 17.8193294,12.7751824 C15.4470353,11.0281235 12.3044471,10.4224765 8.21050588,10.9254176 C5.83185882,11.2171235 3.62050588,11.7513 1.63732941,12.5125941 C1.10791765,12.7158882 0.785505882,13.2532412 0.854858824,13.8160059 L5.43056471,51.0834176 C5.50256471,51.6726529 5.98274118,52.1263588 6.57515294,52.1650059 C8.10568235,52.2655941 10.0036235,52.1671235 12.5495647,51.8542412 C17.5583294,51.2395941 21.0847412,49.4904176 23.0197412,46.6702412 C24.7318588,44.2508294 25.4222118,41.2231235 25.0161529,37.9190647 C24.4639765,33.4227706 22.0202118,30.1213588 18.3116824,28.6824176 C20.8126235,26.4472412 22.0159765,23.2750059 21.5892706,19.7978294 Z" id="Fill-123"></path>
            <path d="M37.0609588,25.9261412 L36.4823118,25.9970824 L34.9740176,13.7110235 C35.2397824,13.6564941 35.5717235,13.6014353 35.9846647,13.5500824 C39.6863118,13.1424353 41.4810176,14.7232588 41.9866059,18.8389059 C42.4625471,22.7173765 40.5296647,25.4999647 37.0609588,25.9261412 M46.7444294,46.7389059 C47.0033118,47.1285529 47.4596647,47.3382 47.9244882,47.2815529 L52.3223118,46.7410235 C52.7336647,46.6912588 53.0931353,46.4366118 53.2779,46.0654941 C53.4621353,45.6927882 53.4473118,45.2539059 53.2387235,44.8954941 C52.6902529,43.9531412 51.5599588,41.0683765 50.0278412,35.7848471 C49.0897235,32.6502 47.7720176,29.4001412 45.1339588,27.8532 C48.0436059,25.3014353 49.2967235,21.7607294 48.7726059,17.4904941 C48.3480176,14.0344941 46.9980176,11.3673176 44.7294882,9.53925882 C42.3286059,7.7202 39.2151353,7.11878824 34.9311353,7.64449412 C32.5212529,7.93990588 30.2177824,8.50267059 28.4458412,9.22796471 C27.9301941,9.4392 27.6194294,9.96808235 27.6877235,10.5213176 L32.2846059,47.9576118 C32.3677235,48.6352588 32.9834294,49.1159647 33.6600176,49.0328471 L38.0011941,48.4997294 C38.6783118,48.4166118 39.1595471,47.8009059 39.0769588,47.1237882 L37.1917235,31.7740235 L37.6581353,31.7168471 C40.3051941,31.3912588 41.9214882,32.1557294 43.4011941,37.2280235 C44.8809,42.4252588 46.0059,45.6255529 46.7444294,46.7389059" id="Fill-125"></path>
            <path d="M75.8760529,38.7700412 C75.7934647,38.0929235 75.1777588,37.6116882 74.5001118,37.6953353 L64.9013471,38.8738059 L63.4502294,27.0615706 L71.7540529,26.0419235 C72.4311706,25.9588059 72.9118765,25.3436294 72.8287588,24.6659824 L72.3792882,21.0013941 C72.2956412,20.3237471 71.6799353,19.8435706 71.0028176,19.9261588 L62.6995235,20.9458059 L61.4638765,10.8806294 L70.3871118,9.78527647 C71.0642294,9.70215882 71.5449353,9.08698235 71.4618176,8.40933529 L70.9980529,4.63251176 C70.9149353,3.95486471 70.2997588,3.47415882 69.6221118,3.55727647 L55.1326412,5.33662941 C54.4555235,5.41974706 53.9748176,6.03492353 54.0579353,6.71204118 L58.7236412,44.7116294 C58.8067588,45.3887471 59.4219353,45.8694529 60.0995824,45.7863353 L75.2651118,43.9243941 C75.9427588,43.8412765 76.4234647,43.2255706 76.3403471,42.5484529 L75.8760529,38.7700412 Z" id="Fill-127"></path>
            <path d="M95.8241294,4.5594 L95.4641294,1.62857647 C95.3810118,0.950929412 94.7653059,0.470223529 94.0881882,0.553341176 L77.2862471,2.61645882 C76.6091294,2.69957647 76.1284235,3.31475294 76.2115412,3.9924 L76.6678941,7.71204706 C76.7515412,8.38916471 77.3667176,8.8704 78.0443647,8.78675294 L88.2344824,7.53575294 L79.5235412,39.0495176 C79.4796,39.2056941 79.4674235,39.3692824 79.4880706,39.5296941 L79.8057176,42.1227529 C79.8888353,42.7998706 80.5045412,43.2811059 81.1821882,43.1974588 L98.9974235,41.0104588 C99.6745412,40.9268118 100.155776,40.3116353 100.072129,39.6345176 L99.6152471,35.9138118 C99.5326588,35.2361647 98.9169529,34.7554588 98.2393059,34.8385765 L87.2566588,36.1869882 L95.7891882,5.03587059 C95.8320706,4.88022353 95.8437176,4.71875294 95.8241294,4.5594" id="Fill-129"></path>
        </g>
    </g>
</svg>